FromBook,FromChapter,FromPara,ToBook,ToChapter,ToPara,Title1,Title2,Title3
בראשית,א,א,בראשית,יא,לב,,,
בראשית,א,א,בראשית,ב,ג,בריאת העולם,,
בראשית,א,א,בראשית,א,ב,בריאת העולם,פתיחה לפרשת הבריאה,
בראשית,א,ג,בראשית,א,ה,בריאת העולם,יום אחד,
בראשית,א,ו,בראשית,א,ח,בריאת העולם,יום שני,
בראשית,א,ט,בראשית,א,יג,בריאת העולם,יום שלישי,
בראשית,א,יד,בראשית,א,יט,בריאת העולם,יום רביעי,
בראשית,א,כ,בראשית,א,כג,בריאת העולם,יום חמישי,
בראשית,א,כד,בראשית,א,לא,בריאת העולם,יום השישי,
בראשית,ב,א,בראשית,ב,ג,בריאת העולם,יום השביעי,
בראשית,ב,ד,בראשית,ג,כד,האדם וגן עדן,,
בראשית,ב,ד,בראשית,ב,ז,האדם וגן עדן,יצירת האדם,
בראשית,ב,ח,בראשית,ב,טו,האדם וגן עדן,הצבת האדם בגן,
בראשית,ב,טז,בראשית,ב,יח,האדם וגן עדן,איסור האכילה מעץ הדעת,
בראשית,ב,יח,בראשית,ב,כה,האדם וגן עדן,יצירת האשה,
בראשית,ג,א,בראשית,ג,ז,האדם וגן עדן,חטא עץ הדעת,
בראשית,ג,ח,בראשית,ג,כא,האדם וגן עדן,העונש,
בראשית,ג,כב,בראשית,ג,כד,האדם וגן עדן,גירוש האדם מגן עדן,
בראשית,ד,א,בראשית,ד,טז,קין והבל,,
בראשית,ד,א,בראשית,ד,ז,קין והבל,קין והבל ומנחתם,
בראשית,ד,ח,בראשית,ד,ח,קין והבל,הריגת קין את הבל,
בראשית,ד,ט,בראשית,ד,טז,קין והבל,עונשו של קין,
בראשית,ד,יז,בראשית,ה,לב,ספרי תולדות,,
בראשית,ד,יז,בראשית,ד,יח,ספרי תולדות,תולדות קין,
בראשית,ד,יט,בראשית,ד,כד,ספרי תולדות,"למך, נשיו ובניו",
בראשית,ד,כה,בראשית,ד,כו,ספרי תולדות,לידת שת ואנוש,
בראשית,ה,א,בראשית,ה,לב,ספרי תולדות,תולדות אדם עד נח,
בראשית,ו,א,בראשית,ו,ד,בני האלהים ובנות האדם,,
בראשית,ו,ה,בראשית,ט,יז,המבול,,
בראשית,ו,ה,בראשית,ו,יב,המבול,השחתת הארץ וצדקת נח,
בראשית,ו,יג,בראשית,ז,ט,המבול,בניית התיבה,
בראשית,ז,י,בראשית,ז,כד,המבול,המבול ומחיית היקום,
בראשית,ח,א,בראשית,ח,יד,המבול,סיום המבול,
בראשית,ח,טו,בראשית,ח,כב,המבול,היציאה מן התיבה,
בראשית,ט,א,בראשית,ט,ז,המבול,הברכה לנח,
בראשית,ט,ח,בראשית,ט,יז,המבול,ברית הקשת,
בראשית,ט,יח,בראשית,יא,ט,בני נח והפצתם על הארץ,,
בראשית,ט,יח,בראשית,ט,כט,בני נח והפצתם על הארץ,שכרות נח,
בראשית,י,א,בראשית,י,לב,בני נח והפצתם על הארץ,תולדות בני נח,
בראשית,יא,א,בראשית,יא,ט,בני נח והפצתם על הארץ,מגדל בבל,
בראשית,יא,י,בראשית,יא,לב,מנח עד אברהם,,
בראשית,יא,י,בראשית,יא,כו,מנח עד אברהם,תולדות שם עד תרח,
בראשית,יא,כז,בראשית,יא,לב,מנח עד אברהם,תולדות תרח והליכתו לחרן,
בראשית,יב,א,בראשית,כה,יח,,,
בראשית,יב,א,בראשית,יב,ט,הליכת אברם לארץ כנען,,
בראשית,יב,א,בראשית,יב,ה,הליכת אברם לארץ כנען,היציאה מחרן לכנען,
בראשית,יב,ו,בראשית,יב,ט,הליכת אברם לארץ כנען,הליכה בארץ וקריאה בשם ה',
בראשית,יב,י,בראשית,יב,כ,ירידת אברם למצרים,,
בראשית,יב,י,בראשית,יב,י,ירידת אברם למצרים,הרעב בכנען והירידה למצרים,
בראשית,יב,יא,בראשית,יב,כ,ירידת אברם למצרים,לקיחת שרי לבית פרעה,
בראשית,יג,א,בראשית,יג,יח,פרידת לוט מאברם,,
בראשית,יג,א,בראשית,יג,ד,פרידת לוט מאברם,חזרת אברם לארץ כנען,
בראשית,יג,ה,בראשית,יג,יג,פרידת לוט מאברם,הפרידה,
בראשית,יג,יד,בראשית,יג,יח,פרידת לוט מאברם,הבטחת הארץ לאברם,
בראשית,יד,א,בראשית,יד,כד,מלחמת המלכים,,
בראשית,יד,א,בראשית,יד,יב,מלחמת המלכים,המלחמה ולקיחת לוט בשבי,
בראשית,יד,יג,בראשית,יד,טז,מלחמת המלכים,נצחון אברם ושחרור לוט,
בראשית,יד,יז,בראשית,יד,כד,מלחמת המלכים,מלכיצדק ומלך סדום,
בראשית,טו,א,בראשית,טו,כא,ברית בין הבתרים,,
בראשית,טו,א,בראשית,טו,ו,ברית בין הבתרים,הבטחת זרע לאברם,
בראשית,טו,ז,בראשית,טו,כא,ברית בין הבתרים,הברית,
בראשית,טז,א,טז,טז,טז,לידת ישמעאל,,
בראשית,טז,א,טז,טז,ד,לידת ישמעאל,נתינת הגר לאברם,
בראשית,טז,ה,טז,טז,ו,לידת ישמעאל,כעס שרי ובריחת הגר,
בראשית,טז,ז,טז,טז,טז,לידת ישמעאל,נבואת המלאך ולידת ישמעאל,
בראשית,יז,א,בראשית,יז,כז,ברית המילה,,
בראשית,יז,א,בראשית,יז,ח,ברית המילה,שינוי השם לאברהם,
בראשית,יז,ט,בראשית,יז,יד,ברית המילה,ציווי על המילה,
בראשית,יז,טו,בראשית,יז,כב,ברית המילה,שינוי השם לשרה ובשורת הבן,
בראשית,יז,כג,בראשית,יז,כז,ברית המילה,קיום המילה,
בראשית,יח,א,בראשית,יט,לח,ביקור המלאכים והפיכת סדום,,
בראשית,יח,א,בראשית,יח,ח,ביקור המלאכים והפיכת סדום,המלאכים באוהל אברהם,
בראשית,יח,ט,בראשית,יח,טו,ביקור המלאכים והפיכת סדום,בשורת הבן וצחוק שרה,
בראשית,יח,טז,בראשית,יח,לג,ביקור המלאכים והפיכת סדום,תפילת אברהם על סדום,
בראשית,יט,א,בראשית,יט,ט,ביקור המלאכים והפיכת סדום,המלאכים בסדום,
בראשית,יט,י,בראשית,יט,כג,ביקור המלאכים והפיכת סדום,הצלת לוט ומשפחתו,
בראשית,יט,כד,בראשית,יט,כט,ביקור המלאכים והפיכת סדום,הפיכת סדום ועמורה,
בראשית,יט,ל,בראשית,יט,לח,ביקור המלאכים והפיכת סדום,מעשה בנות לוט,
בראשית,כ,א,בראשית,כ,יח,שרה בבית אבימלך,,
בראשית,כ,א,בראשית,כ,ב,שרה בבית אבימלך,לקיחת שרה לאבימלך,
בראשית,כ,ג,בראשית,כ,ח,שרה בבית אבימלך,אזהרת ה' לאבימלך בחלום,
בראשית,כ,ט,בראשית,כ,יג,שרה בבית אבימלך,שיחת אבימלך ואברהם,
בראשית,כ,יד,בראשית,כ,יח,שרה בבית אבימלך,השבת שרה ותפילת אברהם,
בראשית,כא,א,בראשית,כא,כא,לידת יצחק וגירוש ישמעאל,,
בראשית,כא,א,בראשית,כא,ח,לידת יצחק וגירוש ישמעאל,לידת יצחק,
בראשית,כא,ט,בראשית,כא,טז,לידת יצחק וגירוש ישמעאל,גירוש הגר וישמעאל,
בראשית,כא,יז,בראשית,כא,כא,לידת יצחק וגירוש ישמעאל,התגלות המלאך להגר,
בראשית,כא,כב,בראשית,כא,לד,ברית אברהם ואבימלך,,
בראשית,כב,א,בראשית,כב,יט,עקדת יצחק,,
בראשית,כב,א,בראשית,כב,יד,עקדת יצחק,העקדה,
בראשית,כב,טו,בראשית,כב,יט,עקדת יצחק,הברכה לאברהם,
בראשית,כב,כ,בראשית,כב,כד,תולדות נחור אחי אברהם,,
בראשית,כג,א,בראשית,כג,כ,קניית מערת המכפלה,,
בראשית,כג,א,בראשית,כג,ב,קניית מערת המכפלה,מות שרה,
בראשית,כג,ג,בראשית,כג,כ,קניית מערת המכפלה,קניית השדה והמערה,
בראשית,כד,א,בראשית,כד,סז,בחירת אשה ליצחק,,
בראשית,כד,א,בראשית,כד,י,בחירת אשה ליצחק,שליחות עבד אברהם,
בראשית,כד,יא,בראשית,כד,יד,בחירת אשה ליצחק,תפילת העבד על הבאר,
בראשית,כד,טו,בראשית,כד,כז,בחירת אשה ליצחק,פגישת העבד ורבקה,
בראשית,כד,כח,בראשית,כד,לג,בחירת אשה ליצחק,הזמנת העבד לבית בתואל,
בראשית,כד,לד,בראשית,כד,מט,בחירת אשה ליצחק,העבד בבית בתואל,
בראשית,כד,נ,בראשית,כד,סא,בחירת אשה ליצחק,שילוח רבקה עם העבד,
בראשית,כד,סב,בראשית,כד,סז,בחירת אשה ליצחק,פגישת יצחק ורבקה ונישואיהם,
בראשית,כה,א,בראשית,כה,יח,צאצאי אברהם ומותו,,
בראשית,כה,א,בראשית,כה,ד,צאצאי אברהם ומותו,בני אברהם וקטורה,
בראשית,כה,ה,בראשית,כה,ו,צאצאי אברהם ומותו,שילוח בני הפילגשים,
בראשית,כה,ז,בראשית,כה,יא,צאצאי אברהם ומותו,מות אברהם וקבורתו,
בראשית,כה,יב,בראשית,כה,יח,צאצאי אברהם ומותו,תולדות ישמעאל,
בראשית,כה,יט,בראשית,כח,ט,,,
בראשית,כה,יט,בראשית,כה,לד,יעקב ועשו,,
בראשית,כה,יט,בראשית,כה,כו,יעקב ועשו,לידת יעקב ועשו,
בראשית,כה,כז,בראשית,כה,לד,יעקב ועשו,מכירת הבכורה ליעקב,
בראשית,כו,א,בראשית,כו,לג,יצחק ואבימלך,,
בראשית,כו,א,בראשית,כו,ה,יצחק ואבימלך,הבטחת הארץ והזרע,
בראשית,כו,ו,בראשית,כו,יא,יצחק ואבימלך,יצחק ורבקה בגרר,
בראשית,כו,יב,בראשית,כו,יז,יצחק ואבימלך,התעשרות יצחק,
בראשית,כו,יח,בראשית,כו,כב,יצחק ואבימלך,הריב על בארות המים,
בראשית,כו,כג,בראשית,כו,כה,יצחק ואבימלך,התגלות ה' בבאר שבע,
בראשית,כו,כו,בראשית,כו,לג,יצחק ואבימלך,ברית יצחק ואבימלך,
בראשית,כו,לד,בראשית,כו,לה,נישואי עשו,,
בראשית,כז,א,בראשית,כח,ט,ברכות יצחק לבניו,,
בראשית,כז,א,בראשית,כז,ד,ברכות יצחק לבניו,בקשת יצחק מעשו,
בראשית,כז,ה,בראשית,כז,יז,ברכות יצחק לבניו,תכנית רבקה,
בראשית,כז,יח,בראשית,כז,כט,ברכות יצחק לבניו,ברכת יצחק ליעקב,
בראשית,כז,ל,בראשית,כז,מ,ברכות יצחק לבניו,חזרת עשו וברכתו,
בראשית,כז,מא,בראשית,כז,מה,ברכות יצחק לבניו,עצת רבקה,
בראשית,כז,מו,בראשית,כח,ה,ברכות יצחק לבניו,ברכת יצחק ליעקב,
בראשית,כח,ו,בראשית,כח,ט,ברכות יצחק לבניו,נישואי עשו השניים,
בראשית,כח,י,בראשית,לו,מג,,,
בראשית,כח,י,בראשית,לא,נה,יעקב בחרן,,
בראשית,כח,י,בראשית,כח,כב,יעקב בחרן,חלום הסולם,
בראשית,כט,א,בראשית,כט,יד,יעקב בחרן,פגישת יעקב ורחל,
בראשית,כט,טו,בראשית,כט,ל,יעקב בחרן,נישואי יעקב,
בראשית,כט,לא,בראשית,ל,כד,יעקב בחרן,לידת בני יעקב,
בראשית,ל,כה,בראשית,ל,מג,יעקב בחרן,התעשרות יעקב,
בראשית,לא,א,בראשית,לא,כא,יעקב בחרן,בריחת יעקב מבית לבן,
בראשית,לא,כב,בראשית,לא,נה,יעקב בחרן,פגישת לבן ויעקב,
בראשית,לב,א,בראשית,לה,כט,חזרת יעקב לארץ כנען,,
בראשית,לב,א,בראשית,לב,ב,חזרת יעקב לארץ כנען,התגלות מלאכים ליעקב,
בראשית,לב,ג,בראשית,לב,כג,חזרת יעקב לארץ כנען,ההכנות לפגישה עם עשו,
בראשית,לב,כד,בראשית,לב,לב,חזרת יעקב לארץ כנען,המאבק עם המלאך,
בראשית,לג,א,בראשית,לג,יז,חזרת יעקב לארץ כנען,הפגישה עם עשו,
בראשית,לג,יח,בראשית,לג,כ,חזרת יעקב לארץ כנען,הצבת מזבח בשכם,
בראשית,לד,א,בראשית,לד,לא,חזרת יעקב לארץ כנען,מעשה דינה בשכם,
בראשית,לה,א,בראשית,לה,טו,חזרת יעקב לארץ כנען,יעקב בבית אל,
בראשית,לה,טז,בראשית,לה,כא,חזרת יעקב לארץ כנען,לידת בנימין ומות רחל,
בראשית,לה,כב,בראשית,לה,כב,חזרת יעקב לארץ כנען,מעשה ראובן ובלהה,
בראשית,לה,כג,בראשית,לה,כט,חזרת יעקב לארץ כנען,שמות בני יעקב ומות יצחק,
בראשית,לו,א,בראשית,לו,מג,תולדות עשו,,
בראשית,לז,א,בראשית,נ,כו,,,
בראשית,לז,א,בראשית,לז,לו,מכירת יוסף,,
בראשית,לז,א,בראשית,לז,ד,מכירת יוסף,התנהגות יוסף ואהבת יעקב,
בראשית,לז,ה,בראשית,לז,יא,מכירת יוסף,חלומות יוסף,
בראשית,לז,יב,בראשית,לז,ל,מכירת יוסף,המכירה,
בראשית,לז,לא,בראשית,לז,לו,מכירת יוסף,הבאת הכתונת ואבל יעקב,
בראשית,לח,א,בראשית,לח,ל,מעשה יהודה ותמר,,
בראשית,לח,א,בראשית,לח,ה,מעשה יהודה ותמר,נישואי יהודה ולידת בניו,
בראשית,לח,ו,בראשית,לח,יא,מעשה יהודה ותמר,חטאי ער ואונן ומותם,
בראשית,לח,יב,בראשית,לח,כו,מעשה יהודה ותמר,מעשה תמר,
בראשית,לח,כז,בראשית,לח,ל,מעשה יהודה ותמר,לידת פרץ וזרח,
בראשית,לט,א,בראשית,לט,כ,יוסף בבית פוטיפר,,
בראשית,לט,א,בראשית,לט,ו,יוסף בבית פוטיפר,הצלחת יוסף בבית פוטיפר,
בראשית,לט,ז,בראשית,לט,יח,יוסף בבית פוטיפר,אשת פוטיפר ויוסף,
בראשית,לט,יט,בראשית,לט,כ,יוסף בבית פוטיפר,הכנסת יוסף לבית הסוהר,
בראשית,לט,כא,בראשית,מ,כג,יוסף בבית הסוהר,,
בראשית,לט,כ,בראשית,לט,כג,יוסף בבית הסוהר,הצלחת יוסף בבית הסוהר,
בראשית,מ,א,בראשית,מ,יט,יוסף בבית הסוהר,חלומות שרי פרעה,
בראשית,מ,כ,בראשית,מ,כג,יוסף בבית הסוהר,התגשמות החלומות,
בראשית,מא,א,בראשית,מא,נז,עליית יוסף לגדולה,,
בראשית,מא,א,בראשית,מא,ז,עליית יוסף לגדולה,חלומות פרעה,
בראשית,מא,ח,בראשית,מא,יד,עליית יוסף לגדולה,יוסף לפני פרעה,
בראשית,מא,טו,בראשית,מא,לז,עליית יוסף לגדולה,סיפור החלומות ליוסף ופתרונם,
בראשית,מא,לח,בראשית,מא,מו,עליית יוסף לגדולה,מינוי יוסף לשליט מצרים,
בראשית,מא,מז,בראשית,מא,נב,עליית יוסף לגדולה,שנות השובע ולידת בני יוסף,
בראשית,מא,נג,בראשית,מא,נז,עליית יוסף לגדולה,תחילת הרעב,
בראשית,מב,א,בראשית,מה,כח,אחי יוסף במצרים,,
בראשית,מב,א,בראשית,מב,ה,אחי יוסף במצרים,ירידת האחים למצרים,
בראשית,מב,ו,בראשית,מב,כה,אחי יוסף במצרים,התנכרות יוסף לאחים,
בראשית,מב,כו,בראשית,מב,לח,אחי יוסף במצרים,חזרת האחים לכנען,
בראשית,מג,א,בראשית,מג,יד,אחי יוסף במצרים,הורדת בנימין למצרים,
בראשית,מג,טו,בראשית,מג,לד,אחי יוסף במצרים,האחים בבית יוסף,
בראשית,מד,א,בראשית,מד,יז,אחי יוסף במצרים,עלילת הגביע,
בראשית,מד,יח,בראשית,מד,לד,אחי יוסף במצרים,נאום יהודה,
בראשית,מה,א,בראשית,מה,טו,אחי יוסף במצרים,התוודעות יוסף לאחיו,
בראשית,מה,טז,בראשית,מה,כה,אחי יוסף במצרים,הזמנת פרעה את יעקב ובניו,
בראשית,מה,כו,בראשית,מה,כח,אחי יוסף במצרים,בשורת עוד יוסף חי,
בראשית,מו,א,בראשית,מז,כז,ירידת יעקב וביתו למצרים,,
בראשית,מו,א,בראשית,מו,ד,ירידת יעקב וביתו למצרים,התגלות ה' ליעקב,
בראשית,מו,ה,בראשית,מו,ז,ירידת יעקב וביתו למצרים,הירידה למצרים,
בראשית,מו,ח,בראשית,מו,כז,ירידת יעקב וביתו למצרים,שמות היורדים מצרימה,
בראשית,מו,כח,בראשית,מו,ל,ירידת יעקב וביתו למצרים,פגישת יעקב ויוסף,
בראשית,מו,לא,בראשית,מז,יב,ירידת יעקב וביתו למצרים,הפגישה עם פרעה,
בראשית,מז,יג,בראשית,מז,כז,ירידת יעקב וביתו למצרים,הסדרים שהתקין יוסף במצרים,
בראשית,מז,כח,בראשית,נ,כו,דברי יעקב האחרונים,,
בראשית,מז,כח,בראשית,מז,לא,דברי יעקב האחרונים,צוואת יעקב ליוסף והשבעתו,
בראשית,מח,א,בראשית,מח,כב,דברי יעקב האחרונים,ברכות יעקב לאפרים ומנשה,
בראשית,מט,א,בראשית,מט,כח,דברי יעקב האחרונים,ברכות יעקב לשבטים,
בראשית,מט,כט,בראשית,מט,לב,דברי יעקב האחרונים,צוואת יעקב לבניו,
בראשית,מט,לג,בראשית,נ,יד,דברי יעקב האחרונים,מות יעקב וקבורתו,
בראשית,נ,טו,בראשית,נ,כא,דברי יעקב האחרונים,פיוס יוסף ואחיו,
בראשית,נ,כב,בראשית,נ,כו,דברי יעקב האחרונים,צוואת יוסף ומותו,
שמות,א,א,שמות,יג,טו,במצרים,,
שמות,א,א,שמות,ב,כה,במצרים,השעבוד,
שמות,א,א,שמות,א,ז,במצרים,השעבוד,
שמות,א,ח,שמות,א,יד,במצרים,השעבוד,
שמות,א,טו,שמות,א,כב,במצרים,השעבוד,
שמות,ב,א,שמות,ב,י,במצרים,השעבוד,
שמות,ב,יא,שמות,ב,יד,במצרים,השעבוד,
שמות,ב,טו,שמות,ב,כב,במצרים,השעבוד,
שמות,ב,כג,שמות,ו,א,במצרים,השליחות הראשונה של משה,
שמות,ב,כג,שמות,ב,כה,במצרים,השליחות הראשונה של משה,
שמות,ג,א,שמות,ד,יז,במצרים,השליחות הראשונה של משה,
שמות,ד,יח,שמות,ד,כו,במצרים,השליחות הראשונה של משה,
שמות,ד,כז,שמות,ד,לא,במצרים,השליחות הראשונה של משה,
שמות,ה,א,שמות,ה,כא,במצרים,השליחות הראשונה של משה,
שמות,ה,כב,שמות,ו,א,במצרים,השליחות הראשונה של משה,
שמות,ו,ב,שמות,י,כט,במצרים,השליחות השניה - המכות,
שמות,ו,ב,שמות,ו,יג,במצרים,השליחות השניה - המכות,
שמות,ו,יד,שמות,ו,כז,במצרים,השליחות השניה - המכות,
שמות,ו,כח,שמות,ז,ז,במצרים,השליחות השניה - המכות,
שמות,ז,ח,שמות,ז,יג,במצרים,השליחות השניה - המכות,
שמות,ז,יד,שמות,ז,כה,במצרים,השליחות השניה - המכות,
שמות,ז,כו,שמות,ח,יא,במצרים,השליחות השניה - המכות,
שמות,ח,יב,שמות,ח,טו,במצרים,השליחות השניה - המכות,
שמות,ח,טז,שמות,ח,כח,במצרים,השליחות השניה - המכות,
שמות,ט,א,שמות,ט,ז,במצרים,השליחות השניה - המכות,
שמות,ט,ח,שמות,ט,יב,במצרים,השליחות השניה - המכות,
שמות,ט,יג,שמות,ט,לה,במצרים,השליחות השניה - המכות,
שמות,י,א,שמות,י,כ,במצרים,השליחות השניה - המכות,
שמות,י,כא,שמות,י,כט,במצרים,השליחות השניה - המכות,
שמות,יא,א,שמות,יג,כב,במצרים,היציאה ממצרים,
שמות,יא,א,שמות,יא,י,במצרים,היציאה ממצרים,
שמות,יב,א,שמות,יב,כח,במצרים,היציאה ממצרים,
שמות,יב,כט,שמות,יב,לג,במצרים,היציאה ממצרים,
שמות,יב,לד,שמות,יב,מב,במצרים,היציאה ממצרים,
שמות,יב,מג,שמות,יב,נא,במצרים,היציאה ממצרים,
שמות,יג,א,שמות,יג,טז,במצרים,היציאה ממצרים,
שמות,יג,יז,שמות,יז,טז,הדרך להר סיני,,
שמות,יג,יז,שמות,טו,כא,הדרך להר סיני,ים סוף,
שמות,יג,יז,שמות,יג,כב,הדרך להר סיני,ים סוף,
שמות,יד,א,שמות,יד,ט,הדרך להר סיני,ים סוף,
שמות,יד,י,שמות,יד,יד,הדרך להר סיני,ים סוף,
שמות,יד,טו,שמות,יד,לא,הדרך להר סיני,ים סוף,
שמות,טו,א,שמות,טו,יט,הדרך להר סיני,ים סוף,
שמות,טו,כ,שמות,טו,כא,הדרך להר סיני,ים סוף,
שמות,טו,כב,שמות,טו,כז,הדרך להר סיני,מרה ואילים,
שמות,טו,כב,שמות,טו,כו,הדרך להר סיני,מרה ואילים,
שמות,טו,כז,שמות,טו,כז,הדרך להר סיני,מרה ואילים,
שמות,טז,א,שמות,טז,לו,הדרך להר סיני,מדבר סין,
שמות,טז,א,שמות,טז,י,הדרך להר סיני,מדבר סין,
שמות,טז,יא,שמות,טז,לו,הדרך להר סיני,מדבר סין,
שמות,יז,א,שמות,יז,טז,הדרך להר סיני,רפידים,
שמות,יז,א,שמות,יז,ז,הדרך להר סיני,רפידים,
שמות,יז,ח,שמות,יז,טז,הדרך להר סיני,רפידים,
שמות,יח,א,שמות,כד,יח,בהר סיני,,
שמות,יח,א,שמות,יח,כז,בהר סיני,יתרו,
שמות,יח,א,שמות,יח,יב,בהר סיני,יתרו,
שמות,יח,יג,שמות,יח,כז,בהר סיני,יתרו,
שמות,יט,א,שמות,כ,יח,בהר סיני,מעמד הר סיני,
שמות,יט,א,שמות,יט,טו,בהר סיני,מעמד הר סיני,
שמות,יט,טז,שמות,יט,כה,בהר סיני,מעמד הר סיני,
שמות,כ,א,שמות,כ,יד,בהר סיני,מעמד הר סיני,
שמות,כ,טו,שמות,כ,יח,בהר סיני,מעמד הר סיני,
שמות,כ,יט,שמות,כ,כג,בהר סיני,המצוות המשלימות את הדברות,
שמות,כ,יט,שמות,כ,כ,בהר סיני,המצוות המשלימות את הדברות,
שמות,כ,כא,שמות,כ,כג,בהר סיני,המצוות המשלימות את הדברות,
שמות,כא,א,שמות,כג,לג,בהר סיני,משפטים ומצוות,
שמות,כא,א,שמות,כא,יא,בהר סיני,משפטים ומצוות,
שמות,כא,יב,שמות,כא,יד,בהר סיני,משפטים ומצוות,
שמות,כא,טו,שמות,כא,יז,בהר סיני,משפטים ומצוות,
שמות,כא,יח,שמות,כא,כז,בהר סיני,משפטים ומצוות,
שמות,כא,כח,שמות,כב,יד,בהר סיני,משפטים ומצוות,
שמות,כב,טו,שמות,כב,טז,בהר סיני,משפטים ומצוות,
שמות,כב,יז,שמות,כב,יט,בהר סיני,משפטים ומצוות,
שמות,כב,כ,שמות,כב,כג,בהר סיני,משפטים ומצוות,
שמות,כב,כד,שמות,כב,כו,בהר סיני,משפטים ומצוות,
שמות,כב,כז,שמות,כג,ט,בהר סיני,משפטים ומצוות,
שמות,כג,י,שמות,כג,יב,בהר סיני,משפטים ומצוות,
שמות,כג,יג,שמות,כג,יג,בהר סיני,משפטים ומצוות,
שמות,כג,יד,שמות,כג,יט,בהר סיני,משפטים ומצוות,
שמות,כג,כ,שמות,כג,לג,בהר סיני,משפטים ומצוות,
שמות,כד,א,שמות,כד,יח,בהר סיני,כריתת הברית בסיני,
שמות,כד,א,שמות,כד,יא,בהר סיני,כריתת הברית בסיני,
שמות,כד,יב,שמות,כד,יח,בהר סיני,כריתת הברית בסיני,
שמות,כה,א,שמות,מ,לח,פרשיות המשכן,,
שמות,כה,א,שמות,לא,יז,פרשיות המשכן,ציווי על המשכן,
שמות,כה,א,שמות,כה,ט,פרשיות המשכן,ציווי על המשכן,
שמות,כה,י,שמות,כה,מ,פרשיות המשכן,ציווי על המשכן,
שמות,כו,א,שמות,כו,ל,פרשיות המשכן,ציווי על המשכן,
שמות,כו,לא,שמות,כו,לז,פרשיות המשכן,ציווי על המשכן,
שמות,כז,א,שמות,כז,ח,פרשיות המשכן,ציווי על המשכן,
שמות,כז,ט,שמות,כז,יט,פרשיות המשכן,ציווי על המשכן,
שמות,כז,כ,שמות,כז,כא,פרשיות המשכן,ציווי על המשכן,
שמות,כח,א,שמות,כח,מג,פרשיות המשכן,ציווי על המשכן,
שמות,כט,א,שמות,כט,לז,פרשיות המשכן,ציווי על המשכן,
שמות,כט,לח,שמות,כט,מו,פרשיות המשכן,ציווי על המשכן,
שמות,ל,א,שמות,ל,י,פרשיות המשכן,ציווי על המשכן,
שמות,ל,יא,שמות,ל,טז,פרשיות המשכן,ציווי על המשכן,
שמות,ל,יז,שמות,ל,כא,פרשיות המשכן,ציווי על המשכן,
שמות,ל,כב,שמות,ל,לח,פרשיות המשכן,ציווי על המשכן,
שמות,לא,א,שמות,לא,יא,פרשיות המשכן,ציווי על המשכן,
שמות,לא,יב,שמות,לא,יז,פרשיות המשכן,ציווי על המשכן,
שמות,לא,יח,שמות,לד,לה,פרשיות המשכן,חטא העגל ותוצאותיו,
שמות,לא,יח,שמות,לא,יח,פרשיות המשכן,חטא העגל ותוצאותיו,
שמות,לב,א,שמות,לב,ו,פרשיות המשכן,חטא העגל ותוצאותיו,
שמות,לב,ז,שמות,לב,יד,פרשיות המשכן,חטא העגל ותוצאותיו,
שמות,לב,טו,שמות,לב,יט,פרשיות המשכן,חטא העגל ותוצאותיו,
שמות,לב,כ,שמות,לב,כט,פרשיות המשכן,חטא העגל ותוצאותיו,
שמות,לב,ל,שמות,לב,לה,פרשיות המשכן,חטא העגל ותוצאותיו,
שמות,לג,א,שמות,לג,ו,פרשיות המשכן,חטא העגל ותוצאותיו,
שמות,לג,ז,שמות,לג,יא,פרשיות המשכן,חטא העגל ותוצאותיו,
שמות,לג,יב,שמות,לג,כג,פרשיות המשכן,חטא העגל ותוצאותיו,
שמות,לד,א,שמות,לד,ד,פרשיות המשכן,חטא העגל ותוצאותיו,
שמות,לד,ה,שמות,לד,י,פרשיות המשכן,חטא העגל ותוצאותיו,
שמות,לד,יא,שמות,לד,כו,פרשיות המשכן,חטא העגל ותוצאותיו,
שמות,לד,כז,שמות,לד,כח,פרשיות המשכן,חטא העגל ותוצאותיו,
שמות,לד,כט,שמות,לד,לה,פרשיות המשכן,חטא העגל ותוצאותיו,
שמות,לה,א,שמות,מ,לח,פרשיות המשכן,עשיית המשכן והקמתו,
שמות,לה,א,שמות,לה,ג,פרשיות המשכן,עשיית המשכן והקמתו,
שמות,לה,ד,שמות,לה,כט,פרשיות המשכן,עשיית המשכן והקמתו,
שמות,לה,ל,שמות,לו,ז,פרשיות המשכן,עשיית המשכן והקמתו,
שמות,לו,ח,שמות,לו,לח,פרשיות המשכן,עשיית המשכן והקמתו,
שמות,לז,א,שמות,לח,ח,פרשיות המשכן,עשיית המשכן והקמתו,
שמות,לח,ט,שמות,לח,כ,פרשיות המשכן,עשיית המשכן והקמתו,
שמות,לח,כא,שמות,לט,א,פרשיות המשכן,עשיית המשכן והקמתו,
שמות,לט,ב,שמות,לט,לא,פרשיות המשכן,עשיית המשכן והקמתו,
שמות,לט,לב,שמות,לט,מג,פרשיות המשכן,עשיית המשכן והקמתו,
שמות,מ,א,שמות,מ,לג,פרשיות המשכן,עשיית המשכן והקמתו,
שמות,מ,לד,שמות,מ,לח,פרשיות המשכן,עשיית המשכן והקמתו,
ויקרא,א,א,ויקרא,ז,לח,קרבנות,,
ויקרא,א,א,ויקרא,ה,כו,קרבנות,ציוויי הקרבנות לישראל,
ויקרא,א,א,ויקרא,א,יז,קרבנות,ציוויי הקרבנות לישראל,
ויקרא,ב,א,ויקרא,ב,טז,קרבנות,ציוויי הקרבנות לישראל,
ויקרא,ג,א,ויקרא,ג,יז,קרבנות,ציוויי הקרבנות לישראל,
ויקרא,ד,א,ויקרא,ה,יג,קרבנות,ציוויי הקרבנות לישראל,
ויקרא,ה,יד,ויקרא,ה,כו,קרבנות,ציוויי הקרבנות לישראל,
ויקרא,ו,א,ויקרא,ז,לח,קרבנות,ציוויי הקרבנות לכהנים,
ויקרא,ו,א,ויקרא,ו,ו,קרבנות,ציוויי הקרבנות לכהנים,
ויקרא,ו,ז,ויקרא,ו,טז,קרבנות,ציוויי הקרבנות לכהנים,
ויקרא,ו,יז,ויקרא,ו,כג,קרבנות,ציוויי הקרבנות לכהנים,
ויקרא,ז,א,ויקרא,ז,ו,קרבנות,ציוויי הקרבנות לכהנים,
ויקרא,ז,ז,ויקרא,ז,י,קרבנות,ציוויי הקרבנות לכהנים,
ויקרא,ז,יא,ויקרא,ז,לד,קרבנות,ציוויי הקרבנות לכהנים,
ויקרא,ח,א,ויקרא,י,כ,חנוכת המשכן,,
ויקרא,ח,א,ויקרא,ח,לו,חנוכת המשכן,שבעת ימי המילואים,
ויקרא,ח,א,ויקרא,ח,ה,חנוכת המשכן,שבעת ימי המילואים,
ויקרא,ח,ו,ויקרא,ח,יג,חנוכת המשכן,שבעת ימי המילואים,
ויקרא,ח,יד,ויקרא,ח,לו,חנוכת המשכן,שבעת ימי המילואים,
ויקרא,ט,א,ויקרא,י,כ,חנוכת המשכן,היום השמיני,
ויקרא,ט,א,ויקרא,ט,כד,חנוכת המשכן,היום השמיני,
ויקרא,י,א,ויקרא,י,ז,חנוכת המשכן,היום השמיני,
ויקרא,י,ח,ויקרא,י,יא,חנוכת המשכן,היום השמיני,
ויקרא,י,יב,ויקרא,י,כ,חנוכת המשכן,היום השמיני,
ויקרא,יא,א,ויקרא,יח,ל,תורת הטומאה והטהרה,,
ויקרא,יא,א,ויקרא,יא,מז,תורת הטומאה והטהרה,טומאת בעלי חיים,
ויקרא,יא,א,ויקרא,יא,כג,תורת הטומאה והטהרה,טומאת בעלי חיים,
ויקרא,יא,כד,ויקרא,יא,מ,תורת הטומאה והטהרה,טומאת בעלי חיים,
ויקרא,יא,מא,ויקרא,יא,מז,תורת הטומאה והטהרה,טומאת בעלי חיים,
ויקרא,יב,א,ויקרא,יב,ח,תורת הטומאה והטהרה,טומאת יולדת,
ויקרא,יב,א,ויקרא,יב,ד,תורת הטומאה והטהרה,טומאת יולדת,
ויקרא,יב,ה,ויקרא,יב,ה,תורת הטומאה והטהרה,טומאת יולדת,
ויקרא,יב,ו,ויקרא,יב,ח,תורת הטומאה והטהרה,טומאת יולדת,
ויקרא,יג,א,ויקרא,יד,נז,תורת הטומאה והטהרה,טומאת הצרעת,
ויקרא,יג,א,ויקרא,יג,מו,תורת הטומאה והטהרה,טומאת הצרעת,
ויקרא,יג,מז,ויקרא,יג,נט,תורת הטומאה והטהרה,טומאת הצרעת,
ויקרא,יד,א,ויקרא,יד,לב,תורת הטומאה והטהרה,טומאת הצרעת,
ויקרא,יד,לג,ויקרא,יד,נז,תורת הטומאה והטהרה,טומאת הצרעת,
ויקרא,טו,א,ויקרא,טו,לג,תורת הטומאה והטהרה,טומאות הגוף,
ויקרא,טו,א,ויקרא,טו,טו,תורת הטומאה והטהרה,טומאת הגוף,
ויקרא,טו,טז,ויקרא,טו,יח,תורת הטומאה והטהרה,טומאת הגוף,
ויקרא,טו,יט,ויקרא,טו,כד,תורת הטומאה והטהרה,טומאת הגוף,
ויקרא,טו,כה,ויקרא,טו,לג,תורת הטומאה והטהרה,טומאת הגוף,
ויקרא,טז,א,ויקרא,טז,לד,תורת הטומאה והטהרה,עבודת יום הכיפורים,
ויקרא,טז,א,ויקרא,טז,כח,תורת הטומאה והטהרה,עבודת יום הכיפורים,
ויקרא,טז,כט,ויקרא,טז,לא,תורת הטומאה והטהרה,עבודת יום הכיפורים,
ויקרא,יז,א,ויקרא,יז,טז,תורת הטומאה והטהרה,דיני דם בעלי חיים,
ויקרא,יז,א,ויקרא,יז,ט,תורת הטומאה והטהרה,דיני דם בעלי חיים,
ויקרא,יז,י,ויקרא,יז,יב,תורת הטומאה והטהרה,דיני דם בעלי חיים,
ויקרא,יז,יג,ויקרא,יז,יד,תורת הטומאה והטהרה,דיני דם בעלי חיים,
ויקרא,יז,טו,ויקרא,יז,טז,תורת הטומאה והטהרה,דיני דם בעלי חיים,
ויקרא,יח,א,ויקרא,יח,ל,תורת הטומאה והטהרה,איסורי עריות,
ויקרא,יח,א,ויקרא,יח,ה,תורת הטומאה והטהרה,איסורי עריות,
ויקרא,יח,ו,ויקרא,יח,טז,תורת הטומאה והטהרה,איסורי עריות,
ויקרא,יח,יז,ויקרא,יח,כ,תורת הטומאה והטהרה,איסורי עריות,
ויקרא,יח,כא,ויקרא,יח,כג,תורת הטומאה והטהרה,איסורי עריות,
ויקרא,יח,כד,ויקרא,יח,ל,תורת הטומאה והטהרה,איסורי עריות,
ויקרא,יט,א,ויקרא,כד,כג,פרשיות הקדושה,,
ויקרא,יט,א,ויקרא,יט,לז,פרשיות הקדושה,קדושים תהיו,
ויקרא,יט,א,ויקרא,יט,ב,פרשיות הקדושה,קדושים תהיו,
ויקרא,יט,ג,ויקרא,יט,ג,פרשיות הקדושה,קדושים תהיו,
ויקרא,יט,ד,ויקרא,יט,ד,פרשיות הקדושה,קדושים תהיו,
ויקרא,יט,ה,ויקרא,יט,ח,פרשיות הקדושה,קדושים תהיו,
ויקרא,יט,ט,ויקרא,יט,יח,פרשיות הקדושה,קדושים תהיו,
ויקרא,יט,יט,ויקרא,יט,כב,פרשיות הקדושה,קדושים תהיו,
ויקרא,יט,כג,ויקרא,יט,לא,פרשיות הקדושה,קדושים תהיו,
ויקרא,יט,לב,ויקרא,יט,לז,פרשיות הקדושה,קדושים תהיו,
ויקרא,כ,א,ויקרא,כ,כז,פרשיות הקדושה,עונשי החוטאים,
ויקרא,כ,א,ויקרא,כ,ח,פרשיות הקדושה,עונשי החוטאים,
ויקרא,כ,ט,ויקרא,כ,ט,פרשיות הקדושה,עונשי החוטאים,
ויקרא,כ,י,ויקרא,כ,כא,פרשיות הקדושה,עונשי החוטאים,
ויקרא,כ,כב,ויקרא,כ,כו,פרשיות הקדושה,עונשי החוטאים,
ויקרא,כ,כז,ויקרא,כ,כז,פרשיות הקדושה,עונשי החוטאים,
ויקרא,כא,א,ויקרא,כא,כד,פרשיות הקדושה,קדושת הכהנים,
ויקרא,כא,א,ויקרא,כא,ט,פרשיות הקדושה,קדושת הכהנים,
ויקרא,כא,י,ויקרא,כא,טו,פרשיות הקדושה,קדושת הכהנים,
ויקרא,כא,טז,ויקרא,כא,כד,פרשיות הקדושה,קדושת הכהנים,
ויקרא,כב,א,ויקרא,כב,לג,פרשיות הקדושה,שמירת קודשי בני ישראל,
ויקרא,כב,א,ויקרא,כב,ט,פרשיות הקדושה,שמירת קודשי בני ישראל,
ויקרא,כב,י,ויקרא,כב,טז,פרשיות הקדושה,שמירת קודשי בני ישראל,
ויקרא,כב,יז,ויקרא,כב,כה,פרשיות הקדושה,שמירת קודשי בני ישראל,
ויקרא,כב,כו,ויקרא,כב,ל,פרשיות הקדושה,שמירת קודשי בני ישראל,
ויקרא,כב,לא,ויקרא,כב,לג,פרשיות הקדושה,שמירת קודשי בני ישראל,
ויקרא,כג,א,ויקרא,כג,מד,פרשיות הקדושה,קדושת הזמנים,
ויקרא,כג,א,ויקרא,כג,ד,פרשיות הקדושה,קדושת הזמנים,
ויקרא,כג,ה,ויקרא,כג,ח,פרשיות הקדושה,קדושת הזמנים,
ויקרא,כג,ט,ויקרא,כג,יד,פרשיות הקדושה,קדושת הזמנים,
ויקרא,כג,טו,ויקרא,כג,כב,פרשיות הקדושה,קדושת הזמנים,
ויקרא,כג,כג,ויקרא,כג,לב,פרשיות הקדושה,קדושת הזמנים,
ויקרא,כג,לג,ויקרא,כג,מד,פרשיות הקדושה,קדושת הזמנים,
ויקרא,כד,א,ויקרא,כד,כג,פרשיות הקדושה,,
ויקרא,כד,א,ויקרא,כד,ד,פרשיות הקדושה,,
ויקרא,כד,ה,ויקרא,כד,ט,פרשיות הקדושה,,
ויקרא,כד,י,ויקרא,כד,כג,פרשיות הקדושה,,
ויקרא,כה,א,ויקרא,כו,מו,המצוות והברית בהר סיני,,
ויקרא,כה,א,ויקרא,כו,ב,המצוות והברית בהר סיני,שמיטה ויובל,
ויקרא,כה,א,ויקרא,כה,ז,המצוות והברית בהר סיני,שמיטה ויובל,
ויקרא,כה,ח,ויקרא,כה,יג,המצוות והברית בהר סיני,שמיטה ויובל,
ויקרא,כה,יד,ויקרא,כה,יז,המצוות והברית בהר סיני,שמיטה ויובל,
ויקרא,כה,יח,ויקרא,כה,כד,המצוות והברית בהר סיני,שמיטה ויובל,
ויקרא,כה,כה,ויקרא,כה,כח,המצוות והברית בהר סיני,שמיטה ויובל,
ויקרא,כה,כט,ויקרא,כה,לא,המצוות והברית בהר סיני,שמיטה ויובל,
ויקרא,כה,לב,ויקרא,כה,לד,המצוות והברית בהר סיני,שמיטה ויובל,
ויקרא,כה,לה,ויקרא,כה,לח,המצוות והברית בהר סיני,שמיטה ויובל,
ויקרא,כה,לט,ויקרא,כה,נה,המצוות והברית בהר סיני,שמיטה ויובל,
ויקרא,כו,א,ויקרא,כו,ב,המצוות והברית בהר סיני,שמיטה ויובל,
ויקרא,כו,ג,ויקרא,כו,מו,המצוות והברית בהר סיני,הברכה והקללה,
ויקרא,כו,ג,ויקרא,כו,יג,המצוות והברית בהר סיני,הברכה והקללה,
ויקרא,כו,יד,ויקרא,כו,מב,המצוות והברית בהר סיני,הברכה והקללה,
ויקרא,כו,מג,ויקרא,כו,מה,המצוות והברית בהר סיני,הברכה והקללה,
ויקרא,כו,מו,ויקרא,כו,מו,המצוות והברית בהר סיני,הברית בהר סיני,
ויקרא,כז,א,ויקרא,כז,לד,המצוות והברית בהר סיני,דיני הקדשות,
ויקרא,כז,א,ויקרא,כז,ח,המצוות והברית בהר סיני,דיני הקדשות,
ויקרא,כז,ט,ויקרא,כז,יג,המצוות והברית בהר סיני,דיני הקדשות,
ויקרא,כז,יד,ויקרא,כז,טו,המצוות והברית בהר סיני,דיני הקדשות,
ויקרא,כז,טז,ויקרא,כז,כה,המצוות והברית בהר סיני,דיני הקדשות,
ויקרא,כז,כו,ויקרא,כז,כז,המצוות והברית בהר סיני,דיני הקדשות,
ויקרא,כז,כח,ויקרא,כז,כט,המצוות והברית בהר סיני,דיני הקדשות,
ויקרא,כז,ל,ויקרא,כז,לג,המצוות והברית בהר סיני,דיני הקדשות,
ויקרא,כז,לד,ויקרא,כז,לד,המצוות והברית בהר סיני,דיני הקדשות,
במדבר,א,א,במדבר,י,י,הכנות למסע,,
במדבר,א,א,במדבר,ד,מט,הכנות למסע,מפקדים והכנות למסע,
במדבר,א,א,במדבר,א,נד,הכנות למסע,מפקדים והכנות למסע,מפקד השבטים
במדבר,ב,א,במדבר,ב,לד,הכנות למסע,מפקדים והכנות למסע,סידור השבטים בדגלים
במדבר,ג,א,במדבר,ג,ד,הכנות למסע,מפקדים והכנות למסע,בני אהרן
במדבר,ג,ה,במדבר,ג,י,הכנות למסע,מפקדים והכנות למסע,מינוי הלויים ותפקידיהם
במדבר,ג,יא,במדבר,ד,מט,הכנות למסע,מפקדים והכנות למסע,מפקד בני לוי ועבודתם
במדבר,ה,א,במדבר,ו,כז,הכנות למסע,מצוות,
במדבר,ה,א,במדבר,ה,ד,הכנות למסע,מצוות,שילוח הטמאים מן המחנות
במדבר,ה,ה,0,ה,י,הכנות למסע,מצוות,אשם גזילות וגזל הגר
במדבר,ה,יא,במדבר,ה,לא,הכנות למסע,מצוות,סוטה
במדבר,ו,א,במדבר,ו,כא,הכנות למסע,מצוות,נזיר
במדבר,ו,כב,במדבר,ו,כז,הכנות למסע,מצוות,ברכת כהנים
במדבר,ז,א,במדבר,י,לד,הכנות למסע,חנוכת המשכן והכנות למסע,
במדבר,ז,א,במדבר,ז,פט,הכנות למסע,חנוכת המשכן והכנות למסע,קרבנות הנשיאים
במדבר,ח,א,במדבר,ח,ד,הכנות למסע,חנוכת המשכן והכנות למסע,העלאת הנרות במנורה
במדבר,ח,ה,במדבר,ח,כו,הכנות למסע,חנוכת המשכן והכנות למסע,טהרת הלויים
במדבר,ט,א,במדבר,ט,ה,הכנות למסע,חנוכת המשכן והכנות למסע,עשיית הפסח
במדבר,ט,ו,במדבר,ט,יד,הכנות למסע,חנוכת המשכן והכנות למסע,פסח שני
במדבר,ט,טו,במדבר,ט,כג,הכנות למסע,חנוכת המשכן והכנות למסע,המסע לפי הענן
במדבר,י,א,במדבר,י,י,הכנות למסע,חנוכת המשכן והכנות למסע,החצוצרות
במדבר,י,יא,במדבר,יח,לב,המסע מהר סיני (שנה 2),,
במדבר,י,יא,במדבר,י,לו,המסע מהר סיני (שנה 2),היציאה למסע,
במדבר,י,יא,במדבר,י,כח,המסע מהר סיני (שנה 2),היציאה למסע,המסע הראשון מהר סיני
במדבר,י,כט,במדבר,י,לד,המסע מהר סיני (שנה 2),היציאה למסע,הצעה ליתרו להצטרף למסע
במדבר,י,לה,במדבר,י,לו,המסע מהר סיני (שנה 2),היציאה למסע,"""ויהי בנסע הארון"""
במדבר,יא,א,במדבר,יד,מה,המסע מהר סיני (שנה 2),התלונות במסע ,
במדבר,יא,א,במדבר,יא,ג,המסע מהר סיני (שנה 2),התלונות במסע מהר סיני,המתאוננים
במדבר,יא,ד,במדבר,יא,לה,המסע מהר סיני (שנה 2),התלונות במסע מהר סיני,המתאווים והזקנים
במדבר,יב,א,במדבר,יב,טז,המסע מהר סיני (שנה 2),התלונות במסע מהר סיני,חטא מרים ואהרן
במדבר,יג,א,במדבר,יד,לט,המסע מהר סיני (שנה 2),התלונות במסע מהר סיני,חטא המרגלים ועונשו
במדבר,יד,מ,במדבר,יד,מה,המסע מהר סיני (שנה 2),התלונות במסע מהר סיני,המעפילים ועונשם
במדבר,טו,א,במדבר,טו,מא,המסע מהר סיני (שנה 2),מצוות,
במדבר,טו,א,במדבר,טו,טז,המסע מהר סיני (שנה 2),מצוות,מנחת נסכים
במדבר,טו,יז,במדבר,טו,כא,המסע מהר סיני (שנה 2),מצוות,הפרשת חלה
במדבר,טו,כב,במדבר,טו,לא,המסע מהר סיני (שנה 2),מצוות,חטאת עבודה זרה
במדבר,טו,לב,במדבר,טו,לו,המסע מהר סיני (שנה 2),מצוות,המקושש
במדבר,טו,לז,במדבר,טו,מא,המסע מהר סיני (שנה 2),מצוות,ציצית
במדבר,טז,א,במדבר,יז,כח,המסע מהר סיני (שנה 2), קרח ועדתו,
במדבר,יח,א,במדבר,יח,לב,המסע מהר סיני (שנה 2),מצוות הכהנים והלויים,
במדבר,יח,א,במדבר,יח,ז,המסע מהר סיני (שנה 2),מצוות הכהנים והלויים,שמירת המשכן
במדבר,יח,ח,במדבר,יח,כ,המסע מהר סיני (שנה 2),מצוות הכהנים והלויים,מתנות כהונה
במדבר,יח,כא,במדבר,יח,לב,המסע מהר סיני (שנה 2),מצוות הכהנים והלויים,מעשר ותרומת מעשר
במדבר,יט,א,במדבר,יט,כב,מצוות פרה אדומה,,
במדבר,יט,א,במדבר,יט,י,מצוות פרה אדומה,הכנת אפר פרה אדומה,
במדבר,יט,יא,במדבר,יט,כב,מצוות פרה אדומה,טהרת טמאי מתים,
במדבר,כ,א,במדבר,כא,לה,המסע לארץ כנען (שנה 40),,
במדבר,כ,א,במדבר,כ,ו,המסע לארץ כנען (שנה 40),מות מרים ותלונת העם,
במדבר,כ,ז,במדבר,כ,יג,המסע לארץ כנען (שנה 40),מי מריבה - החטא ותוצאותיו,
במדבר,כ,יד,במדבר,כ,כא,המסע לארץ כנען (שנה 40),הנסיון לעבור בארץ אדום,
במדבר,כ,כב,במדבר,כ,כט,המסע לארץ כנען (שנה 40),מות אהרן ומינוי אלעזר,
במדבר,כא,א,במדבר,כא,ג,המסע לארץ כנען (שנה 40),המלחמה במלך ערד,
במדבר,כא,ד,במדבר,כא,ט,המסע לארץ כנען (שנה 40),תלונת העם ונחש הנחושת,
במדבר,כא,י,במדבר,כא,כ,המסע לארץ כנען (שנה 40),המסעות ושירת הבאר,
במדבר,כא,כא,במדבר,כא,לה,המסע לארץ כנען (שנה 40),המלחמה בסיחון ועוג,
במדבר,כב,א,במדבר,לו,יג,בערבות מואב (שנה 40),,
במדבר,כב,א,במדבר,כה,יח,בערבות מואב,בלעם ועצתו,
במדבר,כב,א,במדבר,כד,כה,בערבות מואב,בלעם ועצתו,הנסיון לקלל את ישראל
במדבר,כה,א,במדבר,כה,ו,בערבות מואב,בלעם ועצתו,חטא בעל פעור
במדבר,כה,ז,במדבר,כה,טו,בערבות מואב,בלעם ועצתו,מעשה פנחס ושכרו
במדבר,כה,טז,במדבר,כה,יח,בערבות מואב,בלעם ועצתו,הצו לצרור את המדינים
במדבר,כו,א,במדבר,כז,כג,בערבות מואב,הכנות לקראת ההתנחלות,
במדבר,כו,א,במדבר,כו,נו,בערבות מואב,הכנות לקראת ההתנחלות,מפקד השבטים
במדבר,כו,נז,במדבר,כו,סה,בערבות מואב,הכנות לקראת ההתנחלות,מפקד שבט לוי
במדבר,כז,א,במדבר,כז,יא,בערבות מואב,הכנות לקראת ההתנחלות,בנות צלפחד
במדבר,כז,יב,במדבר,כז,יד,בערבות מואב,הכנות לקראת ההתנחלות,לקראת מות משה
במדבר,כז,טו,במדבר,כז,כג,בערבות מואב,הכנות לקראת ההתנחלות,מינוי יהושע למנהיג
במדבר,כח,א,במדבר,ל,יז,בערבות מואב,מצוות,
במדבר,כח,א,במדבר,ל,א,בערבות מואב,מצוות,קרבנות המוספים
במדבר,ל,ב,במדבר,ל,יז,בערבות מואב,מצוות,דיני נדרים
במדבר,לא,א,במדבר,לא,נד,בערבות מואב,המלחמה במדין,
במדבר,לא,א,במדבר,לא,יב,בערבות מואב,המלחמה במדין,המלחמה במדינים
במדבר,לא,יג,במדבר,לא,כד,בערבות מואב,המלחמה במדין,הוראות לשבים מהמלחמה
במדבר,לא,כה,במדבר,לא,נד,בערבות מואב,המלחמה במדין,חלוקת שלל המלחמה
במדבר,לב,א,במדבר,לו,יג,בערבות מואב,הכנות אחרונות לקראת הכניסה לארץ,
במדבר,לב,א,במדבר,לב,מב,בערבות מואב,הכנות אחרונות לקראת הכניסה לארץ,ההסכם עם בני גד וראובן
במדבר,לג,א,במדבר,לג,מט,בערבות מואב,הכנות אחרונות לקראת הכניסה לארץ,סיכום מסעי בני ישראל
במדבר,לג,נ,במדבר,לג,נו,בערבות מואב,הכנות אחרונות לקראת הכניסה לארץ,ביעור העבודה הזרה בארץ
במדבר,לד,א,במדבר,לד,טו,בערבות מואב,הכנות אחרונות לקראת הכניסה לארץ,גבולות ארץ כנען
במדבר,לד,טז,במדבר,לד,כט,בערבות מואב,הכנות אחרונות לקראת הכניסה לארץ,הנשיאים שינחלו את הארץ
במדבר,לה,א,במדבר,לה,ח,בערבות מואב,הכנות אחרונות לקראת הכניסה לארץ,ערי הלויים
במדבר,לה,ט,במדבר,לה,לד,בערבות מואב,הכנות אחרונות לקראת הכניסה לארץ,ערי מקלט
במדבר,לו,א,במדבר,לו,יג,בערבות מואב,הכנות אחרונות לקראת הכניסה לארץ,נחלת בנות צלופחד
דברים,א,א,דברים,ד,מט,הנאום ההיסטורי,,
דברים,א,א,דברים,א,ה,הנאום ההיסטורי,פתיחה,
דברים,א,ו,דברים,ג,כט,הנאום ההיסטורי,אירועים מהעבר,
דברים,א,ו,דברים,א,ח,הנאום ההיסטורי,אירועים מהעבר,הציווי לנסוע לארץ ולרשתה
דברים,א,ט,דברים,א,יח,הנאום ההיסטורי,אירועים מהעבר,מינוי השופטים
דברים,א,יט,דברים,א,מ,הנאום ההיסטורי,אירועים מן העבר,חטא המרגלים ועונשו
דברים,א,מא,דברים,ב,א,הנאום ההיסטורי,אירועים מן העבר,המעפילים ועונשם
דברים,ב,ב,דברים,ב,כג,הנאום ההיסטורי,אירועים מן העבר,העמים שאסור להילחם בהם
דברים,ב,כד,דברים,ג,כב,הנאום ההיסטורי,אירועים מן העבר,כיבוש סיחון ועוג
דברים,ג,כג,דברים,ג,כט,הנאום ההיסטורי,אירועים מן העבר,תחינת משה להיכנס לארץ ודחייתה
דברים,ד,א,דברים,ד,מ,הנאום ההיסטורי,לקחים,
דברים,ד,א,דברים,ד,ד,הנאום ההיסטורי,לקחים,שמירת המצות כתנאי לחיים בארץ
דברים,ד,ה,דברים,ד,ח,הנאום ההיסטורי,לקחים,מעלת המצוות וערכן גם בעיני העמים
דברים,ד,ט,דברים,ד,כד,הנאום ההיסטורי,לקחים,חשיבות זכירת מעמד הר סיני
דברים,ד,כה,דברים,ד,מ,הנאום ההיסטורי,לקחים,"חטא, גלות והבטחת גאולה"
דברים,ד,מא,דברים,ד,מט,הנאום ההיסטורי,סיום,
דברים,ד,מא,דברים,ד,מג,הנאום ההיסטורי,סיום,הבדלת ערי המקלט בעבר הירדן
דברים,ד,מד,דברים,ד,מט,הנאום ההיסטורי,סיום,חתימה
דברים,ה,א,דברים,כו,יט,נאום המצוות,,
דברים,ה,א,דברים,יא,לב,נאום המצוות,הקדמה רעיונית - מצוות האמונה,
דברים,ה,א,דברים,ה,ה,נאום המצוות,הקדמה רעיונית - מצוות האמונה,פתיחה - כריתת הברית בחורב
דברים,ה,ו,דברים,ה,יח,נאום המצוות,הקדמה רעיונית - מצוות האמונה,עשרת הדיברות
דברים,ה,יט,דברים,ה,כח,נאום המצוות,הקדמה רעיונית - מצוות האמונה,בקשת העם לשמוע את התורה מפי משה
דברים,ה,כט,דברים,ו,ג,נאום המצוות,הקדמה רעיונית - מצוות האמונה,שמירת המצוות - התנאי לירושת הארץ
דברים,ו,ד,דברים,ו,ט,נאום המצוות,הקדמה רעיונית - מצוות האמונה,"""שמע ישראל"" - קבלת עול מלכות שמים"
דברים,ו,י,דברים,ו,יט,נאום המצוות,הקדמה רעיונית - מצוות האמונה,שמירת המצוות בארץ ישראל
דברים,ו,כ,דברים,ו,כה,נאום המצוות,הקדמה רעיונית - מצוות האמונה,יציאת מצרים כבסיס לחיוב במצוות
דברים,ז,א,דברים,ז,יא,נאום המצוות,הקדמה רעיונית - מצוות האמונה,ייחודו של עם ישראל בין העמים
דברים,ז,יב,דברים,ז,טז,נאום המצוות,הקדמה רעיונית - מצוות האמונה,השכר על שמירת המצוות
דברים,ז,יז,דברים,ז,כו,נאום המצוות,הקדמה רעיונית - מצוות האמונה,אין לחשוש מעמי כנען
דברים,ח,א,דברים,ח,ו,נאום המצוות,הקדמה רעיונית - מצוות האמונה,זכירת התלות בה' במדבר
דברים,ח,ז,דברים,ח,יח,נאום המצוות,הקדמה רעיונית - מצוות האמונה,טוב הארץ וחשש משכחת ה'
דברים,ח,יט,דברים,ח,כ,נאום המצוות,הקדמה רעיונית - מצוות האמונה,העונש על שכחת ה'
דברים,ט,א,דברים,ט,ה,נאום המצוות,הקדמה רעיונית - מצוות האמונה,הסיבות לירושת הארץ
דברים,ט,ו,דברים,ט,ז,נאום המצוות,הקדמה רעיונית - מצוות האמונה,זכרון חטאי העבר ולקחם
דברים,ט,ח,דברים,ט,כא,נאום המצוות,הקדמה רעיונית - מצוות האמונה,חטא העגל
דברים,ט,כב,דברים,ט,כד,נאום המצוות,הקדמה רעיונית - מצוות האמונה,חטאים נוספים במדבר
דברים,ט,כה,דברים,ט,כט,נאום המצוות,הקדמה רעיונית - מצוות האמונה,תפילת משה אחרי חטא העגל
דברים,י,א,דברים,י,ה,נאום המצוות,הקדמה רעיונית - מצוות האמונה,הלוחות השניים
דברים,י,ו,דברים,י,יא,נאום המצוות,הקדמה רעיונית - מצוות האמונה,אירועים נוספים בעקבות חטא העגל
דברים,י,יב,דברים,יא,ט,נאום המצוות,הקדמה רעיונית - מצוות האמונה,בחירת ישראל וגדולת ה'
דברים,יא,י,דברים,יא,יב,נאום המצוות,הקדמה רעיונית - מצוות האמונה,טוב הארץ תלוי בברכת שמים
דברים,יא,יג,דברים,יא,כא,נאום המצוות,הקדמה רעיונית - מצוות האמונה,"""והיה אם שמע"" - ברכת שמים תלויה בקיום המצוות"
דברים,יא,כב,דברים,יא,כה,נאום המצוות,הקדמה רעיונית - מצוות האמונה,שמירת המצוות - התנאי לירושת הארץ
דברים,יא,כו,דברים,יא,לב,נאום המצוות,הקדמה רעיונית - מצוות האמונה,הברכה והקללה
דברים,יב,א,דברים,יד,כא,נאום המצוות,היבדלות מעבודה זרה ודרכיה,
דברים,יב,א,דברים,יב,ג,נאום המצוות,היבדלות מעבודה זרה ודרכיה,הציווי לאבד מקום עבודה זרה
דברים,יב,ד,דברים,יב,כח,נאום המצוות,היבדלות מעבודה זרה ודרכיה,אכילת קודשים ובשר תאווה
דברים,יב,כט,דברים,יג,א,נאום המצוות,היבדלות מעבודה זרה ודרכיה,אזהרה מחיקוי פולחן הגויים
דברים,יג,ב,דברים,יג,ו,נאום המצוות,היבדלות מעבודה זרה ודרכיה,נביא עבודה זרה
דברים,יג,ז,דברים,יג,יב,נאום המצוות,היבדלות מעבודה זרה ודרכיה,מסית לעבודה זרה
דברים,יג,יג,דברים,יג,יט,נאום המצוות,היבדלות מעבודה זרה ודרכיה,עיר הנידחת
דברים,יד,א,דברים,יד,ב,נאום המצוות,היבדלות מעבודה זרה ודרכיה,איסור גדידה וקרחה
דברים,יד,ג,דברים,יד,כא,נאום המצוות,היבדלות מעבודה זרה ודרכיה,בעלי החיים הטמאים והטהורים
דברים,יד,כב,דברים,טו,כג,נאום המצוות,מצוות חברתיות,
דברים,יד,כב,דברים,יד,כז,נאום המצוות,מצוות חברתיות,מעשר שני
דברים,יד,כח,דברים,יד,כט,נאום המצוות,מצוות חברתיות,מעשר עני
דברים,טו,א,דברים,טו,ו,נאום המצוות,מצוות חברתיות,שמיטת כספים
דברים,טו,ז,דברים,טו,יא,נאום המצוות,מצוות חברתיות,חובת ההלוואה לעני
דברים,טו,יב,דברים,טו,יח,נאום המצוות,מצוות חברתיות,עבד עברי
דברים,טו,יט,דברים,טו,כג,נאום המצוות,מצוות חברתיות,בכור בהמה
דברים,טז,א,דברים,טז,יז,נאום המצוות,שלש רגלים,
דברים,טז,א,דברים,טז,ח,נאום המצוות,שלש רגלים,חג הפסח
דברים,טז,ט,דברים,טז,יב,נאום המצוות,שלש רגלים,ספירת העומר וחג השבועות
דברים,טז,יג,דברים,טז,טו,נאום המצוות,שלש רגלים,חג הסוכות
דברים,טז,טז,דברים,טז,יז,נאום המצוות,שלש רגלים,מצוות עליה לרגל
דברים,טז,יח,דברים,יט,כא,נאום המצוות,מצוות משפט והנהגה,
דברים,טז,יח,דברים,טז,כ,נאום המצוות,מצוות משפט והנהגה,מינוי שופטים ושוטרים
דברים,טז,כא,דברים,טז,כב,נאום המצוות,מצוות משפט והנהגה,איסור אשרה ומצבה
דברים,יז,א,דברים,יז,א,נאום המצוות,מצוות משפט והנהגה,איסור זביחת בעל מום
דברים,יז,ב,דברים,יז,ז,נאום המצוות,מצוות משפט והנהגה,משפט עובדי עבודה זרה
דברים,יז,ח,דברים,יז,יג,נאום המצוות,מצוות משפט והנהגה,חובת ציות לבית הדין הגדול
דברים,יז,יד,דברים,יז,כ,נאום המצוות,מצוות משפט והנהגה,מינוי מלך ומצוות המלך
דברים,יח,א,דברים,יח,ח,נאום המצוות,מצוות משפט והנהגה,משפט הכהנים והלויים
דברים,יח,ט,דברים,יח,כב,נאום המצוות,מצוות משפט והנהגה,נביא אמת מול כישופי הגויים
דברים,יט,א,דברים,יט,יג,נאום המצוות,מצוות משפט והנהגה,ערי מקלט ודיני רוצח
דברים,יט,יד,דברים,יט,יד,נאום המצוות,מצוות משפט והנהגה,איסור הסגת גבול
דברים,יט,טו,דברים,יט,כא,נאום המצוות,מצוות משפט והנהגה,עדים זוממים
דברים,כ,א,דברים,כא,יד,נאום המצוות,דיני המלחמה,
דברים,כ,א,דברים,כ,ט,נאום המצוות,דיני המלחמה,חיזוק היוצאים למלחמה ודין המשוחררים ממנה
דברים,כ,י,דברים,כ,יח,נאום המצוות,דיני המלחמה,חובת הקריאה לשלום ודין עמי כנען לאחר כיבושם
דברים,כ,יט,דברים,כ,כ,נאום המצוות,דיני המלחמה,כריתת עצים במצור
דברים,כא,א,דברים,כא,ט,נאום המצוות,דיני המלחמה,עגלה ערופה
דברים,כא,י,דברים,כא,יד,נאום המצוות,דיני המלחמה,אשת יפת תואר
דברים,כא,טו,דברים,כב,ח,נאום המצוות,לקט מצוות,
דברים,כא,טו,דברים,כא,יז,נאום המצוות,לקט מצוות,ירושת הבכור - בן השנואה
דברים,כא,יח,דברים,כא,כא,נאום המצוות,לקט מצוות,בן סורר ומורה
דברים,כא,כב,דברים,כא,כג,נאום המצוות,לקט מצוות,קבורת התלוי ביומו
דברים,כב,א,דברים,כב,ג,נאום המצוות,לקט מצוות,השבת אבידה
דברים,כב,ד,דברים,כב,ד,נאום המצוות,לקט מצוות,הקמת שור וחמור
דברים,כב,ה,דברים,כב,ה,נאום המצוות,לקט מצוות,איסור כלי גבר על אישה ולהיפך
דברים,כב,ו,דברים,כב,ז,נאום המצוות,לקט מצוות,שילוח הקן
דברים,כב,ח,דברים,כב,ח,נאום המצוות,לקט מצוות,מצוות מעקה
דברים,כב,ט,דברים,כב,יא,נאום המצוות,כלאיים,
דברים,כב,ט,דברים,כב,ט,נאום המצוות,כלאיים,כלאי הכרם
דברים,כב,י,דברים,כב,י,נאום המצוות,כלאיים,כלאי בהמה בחרישה
דברים,כב,יא,דברים,כב,יא,נאום המצוות,כלאיים,שעטנז
דברים,כב,יב,דברים,כב,יב,נאום המצוות,ציצית,
דברים,כב,יג,דברים,כג,א,נאום המצוות,בין איש לאישה,
דברים,כב,יג,דברים,כב,כא,נאום המצוות,בין איש לאישה,טענת בתולים
דברים,כב,כב,דברים,כב,כב,נאום המצוות,בין איש לאישה,שוכב עם אשת איש
דברים,כב,כג,דברים,כב,כז,נאום המצוות,בין איש לאישה,שוכב עם נערה מאורסה
דברים,כב,כח,דברים,כב,כט,נאום המצוות,בין איש לאישה,שוכב עם נערה בתולה
דברים,כג,א,דברים,כג,א,נאום המצוות,בין איש לאישה,איסור אשת אביו
דברים,כג,ב,דברים,כג,ט,נאום המצוות,מי שלא יבוא בקהל ה',
דברים,כג,ב,דברים,כג,ג,נאום המצוות,מי שלא יבוא בקהל ה',"פצוע דכה, כרות שופכה וממזר"
דברים,כג,ד,דברים,כג,ז,נאום המצוות,מי שלא יבוא בקהל ה',עמוני ומואבי בקהל ה'
דברים,כג,ח,דברים,כג,ט,נאום המצוות,מי שלא יבוא בקהל ה',אדומי ומצרי בקהל ה'
דברים,כג,י,דברים,כו,טו,נאום המצוות,לקט מצוות,
דברים,כג,י,דברים,כג,טו,נאום המצוות,לקט מצוות,טהרת המחנה ונקיונו
דברים,כג,טז,דברים,כג,יז,נאום המצוות,לקט מצוות,איסור הסגרת עבד
דברים,כג,יח,דברים,כג,יח,נאום המצוות,לקט מצוות,איסור קדש וקדשה
דברים,כג,יט,דברים,כג,יט,נאום המצוות,לקט מצוות,איסור אתנן זונה
דברים,כג,כ,דברים,כג,כא,נאום המצוות,לקט מצוות,איסור ריבית ונשך
דברים,כג,כב,דברים,כג,כד,נאום המצוות,לקט מצוות,החובה לשלם נדרים
דברים,כג,כה,דברים,כג,כו,נאום המצוות,לקט מצוות,אכילת פועל בשדה ובכרם
דברים,כד,א,דברים,כד,ד,נאום המצוות,לקט מצוות,דיני גירושין
דברים,כד,ה,דברים,כד,ה,נאום המצוות,לקט מצוות,הלוקח אישה חדשה - לא יצא לצבא
דברים,כד,ו,דברים,כד,ו,נאום המצוות,לקט מצוות,איסור לחבול ריחיים ורכב
דברים,כד,ז,דברים,כד,ז,נאום המצוות,לקט מצוות,דין גונב נפש מאחיו
דברים,כד,ח,דברים,כד,ח,נאום המצוות,לקט מצוות,החובה להישמר בנגע הצרעת
דברים,כד,י,דברים,כד,יג,נאום המצוות,לקט מצוות,התנהגות עם לווה שנתן משכון
דברים,כד,יד,דברים,כד,טו,נאום המצוות,לקט מצוות,תשלום שכר בזמן
דברים,כד,טז,דברים,כד,טז,נאום המצוות,לקט מצוות,איסור להמית אבות על בנים ולהיפך
דברים,כד,יז,דברים,כד,יח,נאום המצוות,לקט מצוות,זהירות במשפט גר יתום ואלמנה
דברים,כד,יט,דברים,כד,כב,נאום המצוות,לקט מצוות,מתנות עניים בשדה ובכרם
דברים,כה,א,דברים,כה,ג,נאום המצוות,לקט מצוות,עונש מלקות בית דין
דברים,כה,ד,דברים,כה,ד,נאום המצוות,לקט מצוות,איסור חסימת שור בדישו
דברים,כה,ה,דברים,כה,י,נאום המצוות,לקט מצוות,מצוות ייבום וחליצה
דברים,כה,יא,דברים,כה,יב,נאום המצוות,לקט מצוות,תשלום על בושת
דברים,כה,יג,דברים,כה,טז,נאום המצוות,לקט מצוות,איסור רמיה במידות ובמשקולות
דברים,כה,יז,דברים,כה,יט,נאום המצוות,לקט מצוות,זכירת מעשה עמלק והחובה למחותו
דברים,כו,א,דברים,כו,יא,נאום המצוות,לקט מצוות,ביכורים
דברים,כו,יב,דברים,כו,טו,נאום המצוות,לקט מצוות,ביעור מעשרות
דברים,כו,טז,דברים,כו,יט,נאום המצוות,דברי סיכום לנאום המצוות,
דברים,כז,א,דברים,ל,כ,נאום הברית,,
דברים,כז,א,דברים,כז,כו,נאום הברית,מעמד הברית בהר גריזים והר עיבל,
דברים,כז,א,דברים,כז,ח,נאום הברית,מעמד הברית בהר גריזים והר עיבל,הקמת אבנים ומזבח בהר עיבל
דברים,כז,ט,דברים,כז,י,נאום הברית,מעמד הברית בהר גריזים והר עיבל,פתיחה לברכות ולקללות
דברים,כז,יא,דברים,כז,יג,נאום הברית,מעמד הברית בהר גריזים והר עיבל,השבטים שיעמדו לברך ושיעמדו על הקללה
דברים,כז,יד,דברים,כז,כו,נאום הברית,מעמד הברית בהר גריזים והר עיבל,אמירת הארורים על ידי הלויים
דברים,כח,א,דברים,כח,סט,נאום הברית,ברית ערבות מואב,
דברים,כח,א,דברים,כח,יד,נאום הברית,ברית ערבות מואב,הברכות בשכר שמירת המצוות
דברים,כח,טו,דברים,כח,סח,נאום הברית,ברית ערבות מואב,הקללות על אי שמירת המצוות
דברים,כח,סט,דברים,כח,סט,נאום הברית,ברית ערבות מואב,חתימה לברית ערבות מואב
דברים,כט,א,דברים,כט,כח,נאום הברית,חיזוק לדברי הברית,
דברים,כט,א,דברים,כט,ח,נאום הברית,חיזוק לדברי הברית,ניסי העבר כבסיס לשמירת הברית
דברים,כט,ט,דברים,כט,יד,נאום הברית,חיזוק לדברי הברית,הברית לכל העם לדורותיו
דברים,כט,טו,דברים,כט,כח,נאום הברית,חיזוק לדברי הברית,העונש למפירי הברית
דברים,ל,א,דברים,ל,כ,נאום הברית,סיום הברית,
דברים,ל,א,דברים,ל,י,נאום הברית,סיום הברית,התשובה בעקבות הברית
דברים,ל,יא,דברים,ל,יד,נאום הברית,סיום הברית,"""בפיך ובלבבך לעשותו"""
דברים,ל,טו,דברים,ל,כ,נאום הברית,סיום הברית,הקריאה לבחור בטוב ובחיים
דברים,לא,א,דברים,לד,יב,פרידת משה וחתימת התורה,,
דברים,לא,א,דברים,לא,יג,פרידת משה וחתימת התורה,דברי משה לכל ישראל,
דברים,לא,א,דברים,לא,ח,פרידת משה וחתימת התורה,דברי משה לכל ישראל,דברי חיזוק לעם וליהושע
דברים,לא,ט,דברים,לא,יג,פרידת משה וחתימת התורה,דברי משה לכל ישראל,כתיבת התורה ומצוות הקהל
דברים,לא,יד,דברים,לא,כז,פרידת משה וחתימת התורה,דברי ה' אל משה ויהושע,
דברים,לא,יד,דברים,לא,יח,פרידת משה וחתימת התורה,דברי ה' אל משה ויהושע,הפורענות בעקבות הפרת הברית
דברים,לא,יט,דברים,לא,כג,פרידת משה וחתימת התורה,דברי ה' אל משה ויהושע,כתיבת השירה כעדות
דברים,לא,כד,דברים,לא,כז,פרידת משה וחתימת התורה,דברי ה' אל משה ויהושע,שימת התורה בארון כעדות
דברים,לא,כח,דברים,לב,מז,פרידת משה וחתימת התורה,שירת האזינו,
דברים,לא,כח,דברים,לא,ל,פרידת משה וחתימת התורה,שירת האזינו,הקהלת העם לשמיעת השירה
דברים,לב,א,דברים,לב,מג,פרידת משה וחתימת התורה,שירת האזינו,השירה
דברים,לב,מד,דברים,לב,מז,פרידת משה וחתימת התורה,שירת האזינו,חיזוק העם לשמור את התורה
דברים,לב,מח,דברים,לד,יב,פרידת משה וחתימת התורה,מות משה וסיום התורה,
דברים,לב,מח,דברים,לב,נב,פרידת משה וחתימת התורה,מות משה וסיום התורה,ציווי למשה לעלות להר נבו
דברים,לג,א,דברים,לג,כט,פרידת משה וחתימת התורה,מות משה וסיום התורה,ברכות משה לשבטים ולעם
דברים,לד,א,דברים,לד,ד,פרידת משה וחתימת התורה,מות משה וסיום התורה,משה בהר נבו
דברים,לד,ה,דברים,לד,ט,פרידת משה וחתימת התורה,מות משה וסיום התורה,מות משה והתמנות יהושע
דברים,לד,י,דברים,לד,יב,פרידת משה וחתימת התורה,מות משה וסיום התורה,חתימת התורה - ייחוד נבואת משה
יהושע,א,א,יהושע,ה,טו,הכניסה לארץ,,
יהושע,א,א,יהושע,א,יח,הכניסה לארץ,הכנות לקראת הכניסה לארץ,
יהושע,א,א,יהושע,א,ט,הכניסה לארץ,הכנות לקראת הכניסה לארץ,חיזוק יהושע
יהושע,א,י,יהושע,א,יא,הכניסה לארץ,הכנות לקראת הכניסה לארץ,הציווי לשוטרי העם
יהושע,א,יב,יהושע,א,יח,הכניסה לארץ,הכנות לקראת הכניסה לארץ,הציווי לשנים וחצי השבטים
יהושע,ב,א,יהושע,ב,כד,הכניסה לארץ,המרגלים ביריחו,
יהושע,ג,א,יהושע,ה,א,הכניסה לארץ,חציית הירדן,
יהושע,ה,ב,יהושע,ה,טו,הכניסה לארץ,מעמדים,
יהושע,ה,ב,יהושע,ה,ט,הכניסה לארץ,מעמדים,ברית המילה
יהושע,ה,י,יהושע,ה,יב,הכניסה לארץ,מעמדים,עשיית הפסח בגלגל
יהושע,ה,יג,יהושע,ה,טו,הכניסה לארץ,מעמדים,התגלות שר צבא ה'
יהושע,ו,א,יהושע,יב,כד,כיבוש הארץ,,
יהושע,ו,א,יהושע,ו,כז,כיבוש הארץ,כיבוש יריחו,
יהושע,ז,א,יהושע,ח,כט,כיבוש הארץ,מלחמות העי,
יהושע,ז,א,יהושע,ז,א,כיבוש הארץ,מלחמות העי,מעל עכן בחרם
יהושע,ז,ב,יהושע,ז,ה,כיבוש הארץ,מלחמות העי,נסיון כיבוש העי
יהושע,ז,ו,יהושע,ז,טו,כיבוש הארץ,מלחמות העי,תפילת יהושע ותשובת ה'
יהושע,ז,טז,יהושע,ז,כו,כיבוש הארץ,מלחמות העי,לכידת עכן וסקילתו
יהושע,ח,א,יהושע,ח,כט,כיבוש הארץ,מלחמות העי,כיבוש העי
יהושע,ח,ל,יהושע,ח,לה,כיבוש הארץ,מעמד הברכה והקללה,
יהושע,ט,א,יהושע,ט,כז,כיבוש הארץ,הגבעונים,
יהושע,ט,א,יהושע,ט,ב,כיבוש הארץ,הגבעונים,התקבצות המלכים למלחמה
יהושע,ט,ג,יהושע,ט,כז,כיבוש הארץ,הגבעונים,ערמת הגבעונים וכריתת הברית
יהושע,י,א,יהושע,י,מג,כיבוש הארץ,מלחמת מלכי הדרום,
יהושע,יא,א,יהושע,יא,יא,כיבוש הארץ,מלחמת מלכי הצפון,
יהושע,יא,יב,יהושע,יב,כד,כיבוש הארץ,סיכומי הכיבושים,
יהושע,יג,א,יהושע,כב,לד,ההתנחלות בארץ,,
יהושע,יג,א,יהושע,יג,ו,ההתנחלות בארץ,הארץ הנשארת,
יהושע,יג,ז,יהושע,יג,לג,ההתנחלות בארץ,נחלות שבטי עבר הירדן,
יהושע,יג,ז,יהושע,יג,יד,ההתנחלות בארץ,נחלות שבטי עבר הירדן,גבולות עבר הירדן המזרחי
יהושע,יג,טו,יהושע,יג,כג,ההתנחלות בארץ,נחלות שבטי עבר הירדן,נחלת ראובן
יהושע,יג,כד,יהושע,יג,כח,ההתנחלות בארץ,נחלות שבטי עבר הירדן,נחלת גד
יהושע,יג,כט,יהושע,יג,לג,ההתנחלות בארץ,נחלות שבטי עבר הירדן,נחלת חצי המנשה
יהושע,יד,א,יהושע,יז,יז,ההתנחלות בארץ,נחלות שבטי יהודה ויוסף,
יהושע,יד,א,יהושע,יד,ה,ההתנחלות בארץ,נחלות שבטי יהודה ויוסף,פתיחה לנחלת תשעת השבטים
יהושע,יד,ו,יהושע,יד,ט,ההתנחלות בארץ,נחלות שבטי יהודה ויוסף,נתינת חברון לכלב
יהושע,טו,א,יהושע,טו,סג,ההתנחלות בארץ,נחלות שבטי יהודה ויוסף,נחלת יהודה
יהושע,טז,א,יהושע,טז,י,ההתנחלות בארץ,נחלות שבטי יהודה ויוסף,נחלת אפרים
יהושע,יז,א,יהושע,יז,יג,ההתנחלות בארץ,נחלות שבטי יהודה ויוסף,נחלת חצי המנשה
יהושע,יז,יב,יהושע,יז,יח,ההתנחלות בארץ,נחלות שבטי יהודה ויוסף,בקשת בני יוסף להרחבת שטחם
יהושע,יח,א,יהושע,יט,נא,ההתנחלות בארץ,נחלות יתר שבעת השבטים,
יהושע,יח,א,יהושע,יח,י,ההתנחלות בארץ,נחלות יתר שבעת השבטים,חלוקת הנחלות בשילה
יהושע,יח,יא,יהושע,יח,כח,ההתנחלות בארץ,נחלות יתר שבעת השבטים,נחלת בנימין
יהושע,יט,א,יהושע,יט,ט,ההתנחלות בארץ,נחלות יתר שבעת השבטים,נחלת שמעון
יהושע,יט,י,יהושע,יט,טז,ההתנחלות בארץ,נחלות יתר שבעת השבטים,נחלת זבולון
יהושע,יט,יז,יהושע,יט,כג,ההתנחלות בארץ,נחלות יתר שבעת השבטים,נחלת יששכר
יהושע,יט,כד,יהושע,יט,לא,ההתנחלות בארץ,נחלות יתר שבעת השבטים,נחלת אשר
יהושע,יט,לב,יהושע,יט,לט,ההתנחלות בארץ,נחלות יתר שבעת השבטים,נחלת נפתלי
יהושע,יט,מ,יהושע,יט,מח,ההתנחלות בארץ,נחלות יתר שבעת השבטים,נחלת דן
יהושע,יט,מט,יהושע,יט,נ,ההתנחלות בארץ,נחלות יתר שבעת השבטים,חתימה לחלוקת הנחלות
יהושע,כ,א,יהושע,כ,ט,ההתנחלות בארץ,ערי מקלט,
יהושע,כא,א,יהושע,כא,מג,ההתנחלות בארץ,ערי הלויים,
יהושע,כב,א,יהושע,כב,לד,ההתנחלות בארץ,המזבח בעבר הירדן,
יהושע,כג,א,יהושע,כד,לג,סיום,,
יהושע,כג,א,יהושע,כג,טז,סיום,נאום יהושע לפני מותו,
יהושע,כד,א,יהושע,כד,כח,סיום,הנאום בשכם,
יהושע,כד,כט,יהושע,כד,לג,סיום,מות יהושע וסיכום התקופה,
שופטים,א,א,שופטים,ב,י,גרעונות הכיבוש,,
שופטים,א,א,שופטים,א,כא,גרעונות הכיבוש,כיבושי יהודה ושמעון,
שופטים,א,כב,שופטים,א,כו,גרעונות הכיבוש,כיבוש בית אל,
שופטים,א,כז,שופטים,א,לו,גרעונות הכיבוש,הערים הכנעניות שלא נכבשו,
שופטים,ב,א,שופטים,ב,ה,גרעונות הכיבוש,תוכחת מלאך ה' בבוכים,
שופטים,ב,ו,שופטים,ב,י,גרעונות הכיבוש,סיכום ימי יהושע ומות יהושע,
שופטים,ב,יא,שופטים,טז,לא,סיפורי השופטים,,
שופטים,ב,יא,שופטים,ג,ו,סיפורי השופטים,מבוא לתקופת השופטים,
שופטים,ג,ז,שופטים,ג,יא,סיפורי השופטים,עתניאל בן קנז,
שופטים,ג,יב,שופטים,ג,ל,סיפורי השופטים,אהוד בן גרא,
שופטים,ג,לא,שופטים,ג,לא,סיפורי השופטים,שמגר בן ענת,
שופטים,ד,א,שופטים,ה,לא,סיפורי השופטים,דבורה,
שופטים,ד,א,שופטים,ד,כד,סיפורי השופטים,דבורה,מלחמת דבורה וברק בסיסרא
שופטים,ה,א,שופטים,ה,לא,סיפורי השופטים,דבורה,שירת דבורה
שופטים,ו,א,שופטים,ח,לב,סיפורי השופטים,גדעון,
שופטים,ו,א,שופטים,ו,י,סיפורי השופטים,גדעון,השעבוד למדין
שופטים,ו,יא,שופטים,ו,לב,סיפורי השופטים,גדעון,התגלות מלאך ה' לגדעון
שופטים,ו,לג,שופטים,ח,כב,סיפורי השופטים,גדעון,מלחמת גדעון במדין
שופטים,ח,כג,שופטים,ח,לב,סיפורי השופטים,גדעון,מנהיגות גדעון
שופטים,ח,לג,שופטים,ט,נז,סיפורי השופטים,אבימלך,
שופטים,י,א,שופטים,י,ה,סיפורי השופטים,תולע בן פואה ויאיר הגלעדי,
שופטים,י,א,שופטים,י,ב,סיפורי השופטים,תולע בן פואה ויאיר הגלעדי,תולע בן פואה
שופטים,י,ג,שופטים,י,ה,סיפורי השופטים,תולע בן פואה ויאיר הגלעדי,יאיר הגלעדי
שופטים,י,ו,שופטים,יב,ז,סיפורי השופטים,יפתח,
שופטים,י,ו,שופטים,י,יז,סיפורי השופטים,יפתח,חטאי ישראל ותוצאותיהם
שופטים,י,יח,שופטים,יא,יא,סיפורי השופטים,יפתח,בחירת יפתח למנהיג
שופטים,יא,יב,שופטים,יא,לג,סיפורי השופטים,יפתח,מלחמת יפתח בבני עמון
שופטים,יא,לד,שופטים,יא,מ,סיפורי השופטים,יפתח,קיום נדר יפתח
שופטים,יב,א,שופטים,יב,ז,סיפורי השופטים,יפתח,מלחמת יפתח בבני אפרים
שופטים,יב,ח,שופטים,יב,טו,סיפורי השופטים,"אבצן, אילון ועבדון",
שופטים,יב,ח,שופטים,יב,י,סיפורי השופטים,"אבצן, אילון ועבדון",אבצן
שופטים,יב,יא,שופטים,יב,יב,סיפורי השופטים,"אבצן, אילון ועבדון",אילון הזבולוני
שופטים,יב,יג,שופטים,יב,טו,סיפורי השופטים,"אבצן, אילון ועבדון",עבדון בן הלל
שופטים,יג,א,שופטים,טז,לא,סיפורי השופטים,שמשון,
שופטים,יג,א,שופטים,יג,כה,סיפורי השופטים,שמשון,בשורת הולדת שמשון
שופטים,יד,א,שופטים,טו,ח,סיפורי השופטים,שמשון,שמשון בתמנה
שופטים,טו,ט,שופטים,טו,כ,סיפורי השופטים,שמשון,שמשון ברמת לחי
שופטים,טז,א,שופטים,טז,ג,סיפורי השופטים,שמשון,שמשון בעזה
שופטים,טז,ד,שופטים,טז,כ,סיפורי השופטים,שמשון,שמשון ודלילה בנחל שורק
שופטים,טז,כא,שופטים,טז,לא,סיפורי השופטים,שמשון,מאסרו ומותו של שמשון
שופטים,יז,א,שופטים,כא,כה,פסל מיכה ופילגש בגבעה,,
שופטים,יז,א,שופטים,יח,לא,פסל מיכה ופילגש בגבעה,פסל מיכה,
שופטים,יט,א,שופטים,כא,כה,פסל מיכה ופילגש בגבעה,פילגש בגבעה,
שופטים,יט,א,שופטים,יט,ל,פסל מיכה ופילגש בגבעה,פילגש בגבעה,מעשה אנשי הגבעה בפלגש
שופטים,כ,א,שופטים,כ,מח,פסל מיכה ופילגש בגבעה,פילגש בגבעה,מלחמת אחים נגד בנימין
שופטים,כא,א,שופטים,כא,כה,פסל מיכה ופילגש בגבעה,פילגש בגבעה,שיקום שבט בנימין
שמואל א,א,א,שמואל א,ח,כב,בין בית עלי לשמואל,,
שמואל א,א,א,שמואל א,ג,כא,בין בית עלי לשמואל,לידת שמואל וגדילתו,
שמואל א,א,א,שמואל א,א,כח,בין בית עלי לשמואל,לידת שמואל וגדילתו,לידת שמואל
שמואל א,ב,א,שמואל א,ב,י,בין בית עלי לשמואל,לידת שמואל וגדילתו,תפילת חנה
שמואל א,ב,יא,שמואל א,ב,כו,בין בית עלי לשמואל,לידת שמואל וגדילתו,הניגוד בין שמואל ובני עלי
שמואל א,ב,כז,שמואל א,ב,לו,בין בית עלי לשמואל,לידת שמואל וגדילתו,הנבואה על מפלת בית עלי
שמואל א,ג,א,שמואל א,ג,כא,בין בית עלי לשמואל,לידת שמואל וגדילתו,נבואת ההקדשה של שמואל
,,,,,,,,
שמואל א,ד,א,שמואל א,ח,כב,בין בית עלי לשמואל,מנהיגות שמואל,
שמואל א,ד,א,שמואל א,ד,כב,בין בית עלי לשמואל,מנהיגות שמואל,מלחמת אבן העזר
שמואל א,ה,א,שמואל א,ה,יב,בין בית עלי לשמואל,מנהיגות שמואל,הארון בידי פלשתים
שמואל א,ו,א,שמואל א,ז,א,בין בית עלי לשמואל,מנהיגות שמואל,שיבת הארון לידי ישראל
שמואל א,ז,ב,שמואל א,ז,יד,בין בית עלי לשמואל,מנהיגות שמואל,מלחמת בפלשתים במצפה
שמואל א,ז,טו,שמואל א,ז,יז,בין בית עלי לשמואל,מנהיגות שמואל,שמואל שופט את ישראל
שמואל א,ח,א,שמואל א,ח,ט,בין בית עלי לשמואל,מנהיגות שמואל,בקשת מלוכה
שמואל א,ח,י,שמואל א,ח,כב,בין בית עלי לשמואל,מנהיגות שמואל,משפט המלך
שמואל א,ט,א,שמואל א,יד,נב,ראשית מלכות שאול,,
שמואל א,ט,א,שמואל א,יב,כה,ראשית מלכות שאול,עליית שאול למלוכה,
שמואל א,ט,א,שמואל א,ט,כא,ראשית מלכות שאול,עליית שאול למלוכה,חיפוש האתונות
שמואל א,ט,כב,שמואל א,י,טז,ראשית מלכות שאול,עליית שאול למלוכה,משיחת שאול לנגיד
שמואל א,י,יז,שמואל א,י,כז,ראשית מלכות שאול,עליית שאול למלוכה,המלכת שאול
שמואל א,יא,א,שמואל א,יא,יג,ראשית מלכות שאול,עליית שאול למלוכה,הצלת אנשי יבש גלעד
שמואל א,יא,יד,שמואל א,יא,טו,ראשית מלכות שאול,עליית שאול למלוכה,חידוש המלוכה
שמואל א,יב,א,שמואל א,יב,כה,ראשית מלכות שאול,עליית שאול למלוכה,נאום הפרידה של שמואל
שמואל א,יג,א,שמואל א,טו,לה,ראשית מלכות שאול,מלחמות שאול וכשלונותיו,
שמואל א,יג,א,שמואל א,יג,כג,ראשית מלכות שאול,מלחמות שאול וכשלונותיו,המלחמה בפלשתים ואיבוד המלוכה
שמואל א,יד,א,שמואל א,יד,יט,ראשית מלכות שאול,מלחמות שאול וכשלונותיו,ניצחון יונתן את הפלשתים
,יד,כ,,יד,לו,,,שבועת שאול והפרתה
שמואל א,יד,מז,שמואל א,יד,נב,ראשית מלכות שאול,מלחמות שאול וכשלונותיו,סיכום מלחמות שאול ומשפחתו
שמואל א,טו,א,שמואל א,טו,לה,בין שאול לדוד,מלחמות שאול וכשלונותיו,המלחמה בעמלק וקריעת המלוכה
שמואל א,טו,א,שמואל א,כח,ב,בין שאול לדוד,,
שמואל א,טז,א,שמואל א,יח,ה,בין שאול לדוד,עליית דוד ,
שמואל א,טז,א,שמואל א,טז,יג,בין שאול לדוד,עליית דוד,משיחת דוד 
,,יד,,,כג,,,דוד מנגן לפני שאול
שמואל א,יז,א,שמואל א,יז,נח,בין שאול לדוד,עליית דוד,קרב דוד וגלית
שמואל א,יח,א,שמואל א,יח,ה,בין שאול לדוד,עליית דוד,אהבת דוד ויהונתן
שמואל א,יח,ו,שמואל א,כח,ב,בין שאול לדוד,רדיפת שאול את דוד,
שמואל א,יח,ו,שמואל א,יח,יג,בין שאול לדוד,רדיפת שאול את דוד,קנאת שאול בדוד
שמואל א,יח,יד,שמואל א,יח,ל,בין שאול לדוד,רדיפת שאול את דוד,נישואי דוד ומיכל
שמואל א,יט,א,שמואל א,יט,כד,בין שאול לדוד,רדיפת שאול את דוד,נסיון שאול להרוג את דוד
שמואל א,כ,א,שמואל א,כ,מב,בין שאול לדוד,רדיפת שאול את דוד,ברית דוד ויהונתן
שמואל א,כא,א,שמואל א,כא,י,בין שאול לדוד,רדיפת שאול את דוד,דוד בנב
שמואל א,כא,יא,שמואל א,כא,טז,בין שאול לדוד,רדיפת שאול את דוד,דוד בגת
שמואל א,כב,א,שמואל א,כב,ד,בין שאול לדוד,רדיפת שאול את דוד,דוד בעדולם ובמצפה מואב
שמואל א,כב,ה,שמואל א,כב,כג,בין שאול לדוד,רדיפת שאול את דוד,הריגת כהני נב
שמואל א,כג,א,שמואל א,כג,כט,בין שאול לדוד,רדיפת שאול את דוד,דוד בקעילה ובמדבר זיף
שמואל א,כד,א,שמואל א,כד,כב,בין שאול לדוד,רדיפת שאול את דוד,שאול ודוד במערה
שמואל א,כה,א,שמואל א,כה,מא,בין שאול לדוד,רדיפת שאול את דוד,מעשה נבל ואביגיל
שמואל א,כה,מב,שמואל א,כה,מד,בין שאול לדוד,רדיפת שאול את דוד,הנשים של דוד
שמואל א,כו,א,שמואל א,כו,כה,בין שאול לדוד,רדיפת שאול את דוד,דוד חס שנית על חיי שאול
שמואל א,כז,א,שמואל א,כז,יב,בין שאול לדוד,רדיפת שאול את דוד,דוד בארץ פלשתים
שמואל א,כח,א,שמואל א,לא,יג,אחרית מלכות שאול,,
שמואל א,כח,א,שמואל א,כט,יא,אחרית מלכות שאול,הכנות למלחמה בין ישראל לפלשתים,
,כח,א,,כח,ב,אחרית מלכות שאול,הכנות למלחמה בין ישראל לפלשתים,אכיש בוטח בדוד
,כח,ג,,כח,כה,אחרית מלכות שאול,הכנות למלחמה בין ישראל לפלשתים,שאול ובעלת האוב
,כט,א,,כט,יא,אחרית מלכות שאול,הכנות למלחמה בין ישראל לפלשתים,שרי פלשתים דוחים את דוד
שמואל א,ל,א,שמואל א,ל,לא,אחרית מלכות שאול,מלחמת דוד בעמלק,
שמואל א,ל,א,שמואל א,ל,ו,אחרית מלכות שאול,מלחמת דוד בעמלק,פשיטת עמלק על צקלג
שמואל א,ל,ז,שמואל א,ל,כ,אחרית מלכות שאול,מלחמת דוד בעמלק,המרדף אחרי עמלק
שמואל א,ל,כא,שמואל א,ל,לא,אחרית מלכות שאול,מלחמת דוד בעמלק,חלוקת השלל
שמואל א,לא,א,שמואל א,לא,יג,אחרית מלכות שאול,המלחמה בגלבוע ומות שאול,
שמואל א,לא,א,שמואל א,לא,ז,אחרית מלכות שאול,המלחמה בגלבוע ומות שאול,מות שאול ובניו במלחמה
שמואל א,לא,ח,שמואל א,לא,י,אחרית מלכות שאול,המלחמה בגלבוע ומות שאול,שמחת הפלשתים במפלת שאול
,לא,יא,,לא,יג,אחרית מלכות שאול,המלחמה בגלבוע ומות שאול,קבורת שאול ובניו ביבש גלעד
שמואל ב,א,א,שמואל ב,ד,יב,מלכות דוד בחברון,,
שמואל ב,א,א,שמואל ב,א,טז,מלכות דוד בחברון,סיפור מות שאול,
שמואל ב,א,יז,שמואל ב,א,כז,מלכות דוד בחברון,קינת דוד,
שמואל ב,ב,א,שמואל ב,ב,ז,מלכות דוד בחברון,משיחת דוד למלך יהודה,
שמואל ב,ב,ח,שמואל ב,ב,יא,מלכות דוד בחברון,המלכת איש בשת,
שמואל ב,ב,יב,שמואל ב,ב,לב,מלכות דוד בחברון,המלחמה על הבריכה בגבעון,
שמואל ב,ג,א,שמואל ב,ג,ה,מלכות דוד בחברון,בני דוד שנולדו בחברון,
שמואל ב,ג,ו,שמואל ב,ג,כא,מלכות דוד בחברון,ברית אבנר ודוד,
שמואל ב,ג,כב,שמואל ב,ג,לט,מלכות דוד בחברון,הריגת אבנר,
שמואל ב,ד,א,שמואל ב,ד,יב,מלכות דוד בחברון,הריגת איש בשת,
שמואל ב,ה,א,שמואל ב,י,יט,מלכות דוד בירושלים,,
שמואל ב,ה,א,שמואל ב,ה,כה,מלכות דוד בירושלים,משיחת דוד למלך ישראל,
שמואל ב,ו,א,שמואל ב,ו,כג,מלכות דוד בירושלים,העלאת הארון לירושלים,
שמאול ב,ז,א,שמואל ב,ז,יז,מלכות דוד בירושלים,חזון נתן,
שמואל ב,ז,יח,שמואל ב,ז,כט,מלכות דוד בירושלים,תפילת דוד,
שמואל ב,ח,א,שמואל ב,ח,טו,מלכות דוד בירושלים,נצחונות דוד,
שמואל ב,ח,טז,שמואל ב,ח,יח,מלכות דוד בירושלים,מינוי תפקידים בממלכה,
שמואל ב,ט,א,שמואל ב,ט,יג,מלכות דוד בירושלים,חסד דוד עם מפיבשת,
שמואל ב,י,א,שמואל ב,י,יט,מלכות דוד בירושלים,המלחמה בבני עמון,
שמואל ב,יא,א,שמואל ב,כ,כו,חטא דוד והמאבקים הפנימיים,,
שמואל ב,יא,א,שמואל ב,יב,לא,חטא דוד והמאבקים הפנימיים,חטא דוד ובת שבע,
שמואל ב,יא,א,שמואל ב,יא,כז,חטא דוד והמאבקים הפנימיים,חטא דוד ובת שבע,דוד ובת שבע
שמואל ב,יב,א,שמואל ב,יב,יד,חטא דוד והמאבקים הפנימיים,חטא דוד ובת שבע,משל כבשת הרש
שמואל ב,יב,טו,שמואל ב,יב,כה,חטא דוד והמאבקים הפנימיים,חטא דוד ובת שבע,מחלת הילד ומותו
שמואל ב,יב,כו,שמואל ב,יב,לא,חטא דוד והמאבקים הפנימיים,חטא דוד ובת שבע,כיבוש רבת עמון
שמואל ב,יג,א,שמואל ב,יד,לג,חטא דוד והמאבקים הפנימיים,"אמנון, תמר ואבשלום",
שמואל ב,יג,א,שמואל ב,יג,כב,חטא דוד והמאבקים הפנימיים,"אמנון, תמר ואבשלום",מעשה אמנון ותמר
שמואל ב,יג,כג,שמואל ב,יג,לט,חטא דוד והמאבקים הפנימיים,"אמנון, תמר ואבשלום",נקמת אבשלום באמנון
שמואל ב,יד,א,שמואל ב,יד,כ,חטא דוד והמאבקים הפנימיים,"אמנון, תמר ואבשלום",משל האישה התקועית
שמואל ב,יד,כא,שמואל ב,יד,לג,חטא דוד והמאבקים הפנימיים,"אמנון, תמר ואבשלום",שיבת אבשלום לירושלים
שמואל ב,טו,א,שמואל ב,יט,מד,חטא דוד והמאבקים הפנימיים,מרד אבשלום,
שמואל ב,טו,א,שמואל ב,טו,לז,חטא דוד והמאבקים הפנימיים,מרד אבשלום,תחילת המרד
שמואל ב,טז,א,שמואל ב,טז,ד,חטא דוד והמאבקים הפנימיים,מרד אבשלום,ציבא
שמואל ב,טז,ה,שמואל ב,טז,יג,חטא דוד והמאבקים הפנימיים,מרד אבשלום,קללת שמעי בן גרא
שמואל ב,טז,יד,שמואל ב,יז,כג,חטא דוד והמאבקים הפנימיים,מרד אבשלום,עצת חושי ואחיתפל
שמואל ב,יז,כד,שמואל ב,יח,יח,חטא דוד והמאבקים הפנימיים,מרד אבשלום,דיכוי המרד ומות אבשלום
שמואל ב,יח,יט,שמואל ב,יח,לב,חטא דוד והמאבקים הפנימיים,מרד אבשלום,ההודעה לדוד על מות אבשלום
שמואל ב,יט,א,שמואל ב,יט,ט,חטא דוד והמאבקים הפנימיים,מרד אבשלום,אבל דוד על אבשלום
שמואל ב,יט,י,שמואל ב,יט,טז,חטא דוד והמאבקים הפנימיים,מרד אבשלום,שיבת דוד למלכותו בירושלים
שמואל ב,יט,יז,שמואל ב,יט,כד,חטא דוד והמאבקים הפנימיים,מרד אבשלום,חנינת שמעי בן גרא
שמואל ב,יט,כה,שמואל ב,יט,לא,חטא דוד והמאבקים הפנימיים,מרד אבשלום,דוד ומפיבשת
שמואל ב,יט,לב,שמואל ב,יט,מ,חטא דוד והמאבקים הפנימיים,מרד אבשלום,פרידת ברזלי מדוד
שמואל ב,יט,מא,שמואל ב,יט,מד,חטא דוד והמאבקים הפנימיים,מרד אבשלום,הויכוח בין יהודה וישראל
שמואל ב,כ,א,שמואל ב,כ,כה,חטא דוד והמאבקים הפנימיים,מרד שבע בן בכרי,
שמואל ב,כא,א,שמואל ב,כד,כה,חתימת מלכות דוד,,
שמואל ב,כא,א,שמואל ב,כא,יד,חתימת מלכות דוד,הרעב והגבעונים,
שמואל ב,כא,טו,שמואל ב,כא,כב,חתימת מלכות דוד,מעשי גבורה של דוד ואנשיו,
שמואל ב,כב,א,שמואל ב,כב,נא,חתימת מלכות דוד,שירת דוד,
שמואל ב,כג,א,שמואל ב,כג,ז,חתימת מלכות דוד,דברי דוד האחרונים,
שמואל ב,כג,ח,שמואל ב,כג,לט,חתימת מלכות דוד,גיבורי דוד,
שמואל ב,כד,א,שמואל ב,כד,כה,חתימת מלכות דוד,מפקד העם והמגפה,
מלכים א,א,א,מלכים א,יא,מג,מלכות שלמה,,
מלכים א,א,א,מלכים א,ה,יד,מלכות שלמה,ראשית מלכות שלמה וביסוסה,
מלכים א,א,א,מלכים א,א,ד,מלכות שלמה,ראשית מלכות שלמה וביסוסה,דוד ואבישג השונמית
מלכים א,א,ה,מלכים א,א,נג,מלכות שלמה,ראשית מלכות שלמה וביסוסה,מרד אדוניה
מלכים א,ב,א,מלכים א,ב,יב,מלכות שלמה,ראשית מלכות שלמה וביסוסה,צוואת דוד
מלכים א,ב,יג,מלכים א,ב,כה,מלכות שלמה,ראשית מלכות שלמה וביסוסה,הריגת אדוניה
מלכים א,ב,כו,מלכים א,ב,כז,מלכות שלמה,ראשית מלכות שלמה וביסוסה,גירוש אביתר לענתות
מלכים א,ב,כח,מלכים א,ב,לה,מלכות שלמה,ראשית מלכות שלמה וביסוסה,הריגת יואב בן צרויה
מלכים א,ב,לו,מלכים א,ב,מו,מלכות שלמה,ראשית מלכות שלמה וביסוסה,הריגת שמעי בן גרא
מלכים א,ג,א,מלכים א,ג,ג,מלכות שלמה,ראשית מלכות שלמה וביסוסה,נישואי שלמה ובת פרעה
מלכים א,ג,ד,מלכים א,ג,טו,מלכות שלמה,ראשית מלכות שלמה וביסוסה,התגלות ה' לשלמה בגבעון
מלכים א,ג,טז,מלכים א,ג,כח,מלכות שלמה,ראשית מלכות שלמה וביסוסה,משפט שלמה
מלכים א,ד,א,מלכים א,ד,כ,מלכות שלמה,ראשית מלכות שלמה וביסוסה,השרים והנצבים בממלכת שלמה
מלכים א,ה,א,מלכים א,ה,ח,מלכות שלמה,ראשית מלכות שלמה וביסוסה,השפע בימי שלמה
מלכים א,ה,ט,מלכים א,ה,יד,מלכות שלמה,ראשית מלכות שלמה וביסוסה,חכמת שלמה
מלכים א,ה,טו,מלכים א,ט,ט,מלכות שלמה,בניית בית ה' ובית המלך,
מלכים א,ה,טו,מלכים א,ה,לב,מלכות שלמה,בניית בית ה' ובית המלך,ההסכם בין שלמה וחירם מלך צור
מלכים א,ו,א,מלכים א,ו,י,מלכות שלמה,בניית בית ה' ובית המלך,בניית בית המקדש
מלכים א,ו,יא,מלכים א,ו,יג,מלכות שלמה,בניית בית ה' ובית המלך,התגלות ה' לשלמה
מלכים א,ו,יד,מלכים א,ו,כב,מלכות שלמה,בניית בית ה' ובית המלך,ציפוי ההיכל והדביר
מלכים א,ו,כג,מלכים א,ו,כח,מלכות שלמה,בניית בית ה' ובית המלך,עשיית הכרובים
מלכים א,ו,כט,מלכים א,ו,לח,מלכות שלמה,בניית בית ה' ובית המלך,קירות הבית ודלתותיו
מלכים א,ז,א,מלכים א,ז,יב,מלכות שלמה,בניית בית ה' ובית המלך,בניית בית המלך
מלכים א,ז,יג,מלכים א,ז,נא,מלכות שלמה,בניית בית ה' ובית המלך,כלי המקדש
מלכים א,ח,א,מלכים א,ח,יא,מלכות שלמה,בניית בית ה' ובית המלך,העלאת הארון למקדש
מלכים א,ח,יב,מלכים א,ח,נג,מלכות שלמה,בניית בית ה' ובית המלך,תפילת שלמה
מלכים א,ח,נד,מלכים א,ח,סא,מלכות שלמה,בניית בית ה' ובית המלך,ברכת שלמה לעם
מלכים א,ח,סב,מלכים א,ח,סו,מלכות שלמה,בניית בית ה' ובית המלך,חנוכת המקדש והקרבת קרבנות
מלכים א,ט,א,מלכים א,ט,ט,מלכות שלמה,בניית בית ה' ובית המלך,תשובת ה' לתפילת שלמה
מלכים א,ט,י,מלכים א,י,כט,מלכות שלמה,התעצמות ממלכת שלמה,
מלכים א,ט,י,מלכים א,ט,יד,מלכות שלמה,התעצמות ממלכת שלמה,נתינת ערים לחירם מלך צור
מלכים א,ט,טו,מלכים א,ט,כח,מלכות שלמה,התעצמות ממלכת שלמה,מיסוי ובניית ערים בממלכה
מלכים א,י,א,מלכים א,י,יג,מלכות שלמה,התעצמות ממלכת שלמה,ביקור מלכת שבא
מלכים א,י,יד,מלכים א,י,כט,מלכות שלמה,התעצמות ממלכת שלמה,עושרו של שלמה
מלכים א,יא,א,מלכים א,יא,מג,מלכות שלמה,הידרדרות מלכות שלמה,
מלכים א,יא,א,מלכים א,יא,י,מלכות שלמה,הידרדרות מלכות שלמה,נשות שלמה והטייתו לעבודה זרה
מלכים א,יא,יא,מלכים א,יא,יג,מלכות שלמה,הידרדרות מלכות שלמה,נבואה על קריעת הממלכה
מלכים א,יא,יד,מלכים א,יא,כה,מלכות שלמה,הידרדרות מלכות שלמה,שטנים לשלמה
מלכים א,יא,כו,מלכים א,יא,מ,מלכות שלמה,הידרדרות מלכות שלמה,נבואת אחיה השילוני לירבעם
מלכים א,יא,מא,מלכים א,יא,מג,מלכות שלמה,הידרדרות מלכות שלמה,מות שלמה
מלכים א,יב,א,מלכים א,טז,לד,מפילוג הממלכה עד אחאב,,
מלכים א,יב,א,מלכים א,יב,כד,מפילוג הממלכה עד אחאב,המלכת רחבעם בשכם,
מלכים א,יב,כה,מלכים א,יד,כ,מפילוג הממלכה עד אחאב,מלכות ירבעם (ישראל),
מלכים א,יב,כה,מלכים א,יב,לג,מפילוג הממלכה עד אחאב,מלכות ירבעם (ישראל),העגלים בבית אל ובדן
מלכים א,יג,א,מלכים א,יג,י,מפילוג הממלכה עד אחאב,מלכות ירבעם (ישראל),נבואת איש האלהים מיהודה
מלכים א,יג,יא,מלכים א,יג,לג,מפילוג הממלכה עד אחאב,מלכות ירבעם (ישראל),מעשה הנביא הזקן מבית אל
מלכים א,יד,א,מלכים א,יד,כ,מפילוג הממלכה עד אחאב,מלכות ירבעם (ישראל),נבואת אחיה השילוני לירבעם
מלכים א,יד,כא,מלכים א,יד,לא,מפילוג הממלכה עד אחאב,מלכות רחבעם (יהודה),
מלכים א,טו,א,מלכים א,טו,ח,מפילוג הממלכה עד אחאב,מלכות אבים (יהודה),
מלכים א,טו,ט,מלכים א,טו,כד,מפילוג הממלכה עד אחאב,מלכות אסא (יהודה),
מלכים א,טו,כה,מלכים א,טו,לב,מפילוג הממלכה עד אחאב,מלכות נדב (ישראל),
מלכים א,טו,לג,מלכים א,טז,ז,מפילוג הממלכה עד אחאב,מלכות בעשא (ישראל),
מלכים א,טז,ח,מלכים א,טז,יד,מפילוג הממלכה עד אחאב,מלכות אלה (ישראל),
מלכים א,טז,טו,מלכים א,טז,כ,מפילוג הממלכה עד אחאב,מלכות זמרי (ישראל),
מלכים א,טז,כא,מלכים א,טז,כב,מפילוג הממלכה עד אחאב,מאבק בין עמרי לתבני (ישראל),
מלכים א,טז,כג,מלכים א,טז,כח,הממלכה המפולגת,מלכות עמרי (ישראל),
מלכים א,טז,כט,מלכים א,כב,נד,פרקי אליהו,,
מלכים א,טז,כט,מלכים א,,,פרקי אליהו,מלכות אחאב (ישראל),
מלכים א,טז,כט,מלכים א,טז,לד,פרקי אליהו,מלכות אחאב (ישראל),חטאות אחאב
מלכים א,יז,א,מלכים א,יז,ז,פרקי אליהו,מלכות אחאב (ישראל),גזירת הבצורת של אליהו
מלכים א,יז,ח,מלכים א,יז,כד,פרקי אליהו,מלכות אחאב (ישראל),אליהו בצרפת
מלכים א,יח,א,מלכים א,יח,מו,פרקי אליהו,מלכות אחאב (ישראל),אליהו בהר הכרמל
מלכים א,יט,א,מלכים א,יט,כא,פרקי אליהו,מלכות אחאב (ישראל),אליהו בהר חורב
מלכים א,כ,א,מלכים א,כ,כב,פרקי אליהו,מלכות אחאב (ישראל),מצור ארם על שומרון
מלכים א,כ,כג,מלכים א,כ,לד,פרקי אליהו,מלכות אחאב (ישראל),מלחמת ארם וישראל באפק
מלכים א,כ,לה,מלכים א,כ,מג,פרקי אליהו,מלכות אחאב (ישראל),תוכחת הנביא למלך ישראל
מלכים א,כא,א,מלכים א,כא,כט,פרקי אליהו,מלכות אחאב (ישראל),כרם נבות
מלכים א,כב,א,מלכים א,כב,מ,פרקי אליהו,מלכות אחאב (ישראל),מלחמת רמות גלעד
מלכים א,כב,מא,מלכים א,כב,נא,פרקי אליהו,מלכות יהושפט (יהודה),
מלכים א,כב,נב,מלכים א,כב,נד,פרקי אליהו,מלכות אחזיה (ישראל),
מלכים ב,א,א,מלכים ב,ח,,פרקי אלישע,,
מלכים ב,א,א,מלכים ב,ב,יח,פרקי אלישע,סוף ימי אליהו,
מלכים ב,א,א,מלכים ב,א,יח,פרקי אלישע,סוף ימי אליהו,מחלת אחזיה ומותו
מלכים ב,ב,א,מלכים ב,ב,יח,פרקי אלישע,סוף ימי אליהו,עליית אליהו בסערה השמימה
מלכים ב,ב,יט,מלכים ב,ב,כה,פרקי אלישע,ניסי אלישע,
מלכים ב,ב,יט,מלכים ב,ב,כב,פרקי אלישע,ניסי אלישע,נס ריפוי מי יריחו
מלכים ב,ב,כג,מלכים ב,ב,כה,פרקי אלישע,ניסי אלישע,אלישע והדובים
מלכים ב,ג,א,מלכים ב,ג,ג,פרקי אלישע,מלכות יהורם (ישראל),
מלכים ב,ג,ד,מלכים ב,ח,טו,פרקי אלישע,ניסי אלישע,
מלכים ב,ג,ד,מלכים ב,ג,כז,פרקי אלישע,ניסי אלישע,מלחמת יהורם ויהושפט במואב
מלכים ב,ד,א,מלכים ב,ד,ז,פרקי אלישע,ניסי אלישע,נס אסוך השמן
מלכים ב,ד,ח,מלכים ב,ד,לז,פרקי אלישע,ניסי אלישע,אלישע והאשה השונמית
מלכים ב,ד,לח,מלכים ב,ד,מד,פרקי אלישע,ניסי אלישע,נסים בזמן הרעב
מלכים ב,ה,א,מלכים ב,ה,כז,פרקי אלישע,ניסי אלישע,רפוי צרעת נעמן
מלכים ב,ו,א,מלכים ב,ו,ז,פרקי אלישע,ניסי אלישע,נס הצפת הברזל
מלכים ב,ו,ח,מלכים ב,ו,כג,פרקי אלישע,ניסי אלישע,לכידת גדודי ארם
מלכים ב,ו,כד,מלכים ב,ז,כ,פרקי אלישע,ניסי אלישע,מצור ארם על שומרון
מלכים ב,ח,א,מלכים ב,ח,ו,פרקי אלישע,ניסי אלישע,השבת רכוש השונמית
מלכים ב,ח,ז,מלכים ב,ח,טו,פרקי אלישע,ניסי אלישע,המלכת חזאל על ארם
מלכים ב,ח,טז,מלכים ב,יז,מא,מיהוא עד חורבן שומרון,,
מלכים ב,ח,טז,מלכים ב,ח,כד,מיהוא עד חורבן שומרון,מלכות יהורם (יהודה),
מלכים ב,ח,כה,מלכים ב,ח,כט,מיהוא עד חורבן שומרון,מלכות אחזיה (יהודה),
מלכים ב,ט,א,מלכים ב,י,לו,מיהוא עד חורבן שומרון,מלכות יהוא (ישראל),
מלכים ב,ט,א,מלכים ב,ט,כח,מיהוא עד חורבן שומרון,מלכות יהוא (ישראל),משיחת יהוא
מלכים ב,ט,כט,מלכים ב,ט,לז,מיהוא עד חורבן שומרון,מלכות יהוא (ישראל),הריגת איזבל
מלכים ב,י,א,מלכים ב,י,יז,מיהוא עד חורבן שומרון,מלכות יהוא (ישראל),השמדת בית אחאב
מלכים ב,י,יח,מלכים ב,י,כט,מיהוא עד חורבן שומרון,מלכות יהוא (ישראל),השמדת עבודת הבעל
מלכים ב,י,ל,מלכים ב,י,לו,מיהוא עד חורבן שומרון,מלכות יהוא (ישראל),סיום מלכות יהוא
מלכים ב,יא,א,מלכים ב,יא,כ,מיהוא עד חורבן שומרון,מלכות עתליה והמלכת יואש (יהודה),
מלכים ב,יב,א,מלכים ב,יב,כב,מיהוא עד חורבן שומרון,מלכות יהואש (יהודה),
מלכים ב,יג,א,מלכים ב,יג,ט,מיהוא עד חורבן שומרון,מלכות יהואחז (ישראל),
מלכים ב,יג,י,מלכים ב,יג,כה,מיהוא עד חורבן שומרון,מלכות יהואש (ישראל),
מלכים ב,יד,א,מלכים ב,יד,כב,מיהוא עד חורבן שומרון,מלכות אמציה (יהודה),
מלכים ב,יד,כג,מלכים ב,יד,כט,מיהוא עד חורבן שומרון,מלכות ירבעם השני (ישראל),
מלכים ב,טו,א,מלכים ב,טו,ז,מיהוא עד חורבן שומרון,מלכות עוזיה (יהודה),
מלכים ב,טו,ח,מלכים ב,טו,יב,מיהוא עד חורבן שומרון,מלכות זכריה (ישראל),
מלכים ב,טו,יג,מלכים ב,טו,כב,מיהוא עד חורבן שומרון,הריגת שלום ומלכות מנחם (ישראל),
מלכים ב,טו,כג,מלכים ב,טו,כו,מיהוא עד חורבן שומרון,מלכות פקחיה (ישראל),
מלכים ב,טו,כז,מלכים ב,טו,לא,מיהוא עד חורבן שומרון,מלכות פקח (ישראל),
מלכים ב,טו,לב,מלכים ב,טו,לח,מיהוא עד חורבן שומרון,מלכות יותם (יהודה),
מלכים ב,טז,א,מלכים ב,טז,כ,מיהוא עד חורבן שומרון,מלכות אחז (יהודה),
מלכים ב,יז,א,מלכים ב,יז,כג,מיהוא עד חורבן שומרון,מלכות הושע וחורבן שומרון,
מלכים ב,יז,כד,מלכים ב,יז,מא,מיהוא עד חורבן שומרון,יישוב זרים בערי שומרון,
מלכים ב,יח,א,מלכים ב,כה,ל,מלכי יהודה האחרונים,,
מלכים ב,יח,א,מלכים ב,כ,כא,מלכי יהודה האחרונים,מלכות חזקיהו (יהודה),
מלכים ב,יח,א,מלכים ב,יח,ח,מלכי יהודה האחרונים,מלכות חזקיהו (יהודה),עיקור עבודה זרה מהארץ
מלכים ב,יח,ט,מלכים ב,יח,יב,מלכי יהודה האחרונים,מלכות חזקיהו (יהודה),חורבן שומרון
מלכים ב,יח,יג,מלכים ב,יט,לז,מלכי יהודה האחרונים,מלכות חזקיהו (יהודה),מסע סנחריב והצלת ירושלים
מלכים ב,כ,א,מלכים ב,כ,יא,מלכי יהודה האחרונים,מלכות חזקיהו (יהודה),מחלת חזקיהו והצלתו
מלכים ב,כ,יב,מלכים ב,כ,כא,מלכי יהודה האחרונים,מלכות חזקיהו (יהודה),הגעת שליחי מלך בבל אל חזקיהו
מלכים ב,כא,א,מלכים ב,כא,יח,מלכי יהודה האחרונים,מלכות מנשה,
מלכים ב,כא,יט,מלכים ב,כא,כו,מלכי יהודה האחרונים,מלכות אמון,
מלכים ב,כב,א,מלכים ב,כג,ל,מלכי יהודה האחרונים,מלכות יאשיהו,
מלכים ב,כב,א,מלכים ב,כב,יג,מלכי יהודה האחרונים,מלכות יאשיהו,מציאת ספר התורה
מלכים ב,כב,יד,מלכים ב,כב,כ,מלכי יהודה האחרונים,מלכות יאשיהו,נבואת חולדה על החורבן
מלכים ב,כג,א,מלכים ב,כג,ג,מלכי יהודה האחרונים,מלכות יאשיהו,מעמד חידוש הברית
מלכים ב,כג,ד,מלכים ב,כג,כ,מלכי יהודה האחרונים,מלכות יאשיהו,ביעור העבודה הזרה
מלכים ב,כג,כא,מלכים ב,כג,כז,מלכי יהודה האחרונים,מלכות יאשיהו,עשיית הפסח
מלכים ב,כג,כח,מלכים ב,כג,ל,מלכי יהודה האחרונים,מלכות יאשיהו,מות יאשיהו
מלכים ב,כג,לא,מלכים ב,כג,לה,מלכי יהודה האחרונים,מלכות יהואחז,
מלכים ב,כג,לו,מלכים ב,כד,ז,מלכי יהודה האחרונים,מלכות יהויקים,
מלכים ב,כד,ח,מלכים ב,כד,יז,מלכי יהודה האחרונים,מלכות יהויכין,
מלכים ב,כד,יח,מלכים ב,כה,ז,מלכי יהודה האחרונים,מלכות צדקיהו,
מלכים ב,כה,ח,מלכים ב,כה,כא,מלכי יהודה האחרונים,חורבן המקדש וגלות בבל,
מלכים ב,כה,כב,מלכים ב,כה,כו,מלכי יהודה האחרונים,הפקדת גדליה על שארית יהודה,
מלכים ב,כה,כז,מלכים ב,כה,ל,מלכי יהודה האחרונים,שחרור יהויכין,
