{
  "name": "Paragraphs",
  "crud": {
    "metaFunctions": {},
    "fields": {
      "id": {
        "type": "Number"
      },
      "chapter": {
        "type": "Number",
        "editable": true,
        "required":true
      },
      "book": {
        "editable": "true",
        "type": "String"
      },
      "text": {
        "editable": "true",
        "type": "String"
      },
      "paraNum": {
        "type": "Number",
        "editable": true,
        "required":true
      },
      "published": {
        "type": "datetimePicker",
        "width": "160"
      }
    }
  },
  "options": {
    "idInjection": false,
    "mysql": {
      "schema": "capish",
      "table": "paragraphs"
    },
    "relations": {}
  },
  "properties": {
    "id": {
      "type": "Number",
      "required": false,
      "length": null,
      "precision": 10,
      "scale": 0,
      "generated": true,
      "id": 1,
      "mysql": {
        "columnName": "id",
        "dataType": "int",
        "dataLength": null,
        "dataPrecision": 10,
        "dataScale": 0,
        "nullable": "N"
      }
    },
    
    "text": {
      "type": "String",
      "required": false,
      "length": 65535,
      "precision": null,
      "scale": null,
      "mysql": {
        "columnName": "text",
        "dataType": "text",
        "dataPrecision": null,
        "dataScale": null,
        "nullable": "Y"
      }
    },
    "chapter": {
      "type": "Number",
      "required": true,
      "length": null,
      "precision": 10,
      "scale": 0,
      "mysql": {
        "columnName": "chapter",
        "dataType": "int",
        "dataLength": null,
        "dataPrecision": 10,
        "dataScale": 0,
        "nullable": "N"
      }
    },
    "paraNum": {
      "type": "Number",
      "required": true,
      "length": null,
      "precision": 10,
      "scale": 0,
      "mysql": {
        "columnName": "para_num",
        "dataType": "int",
        "dataLength": null,
        "dataPrecision": 10,
        "dataScale": 0,
        "nullable": "N"
      }
    },
    "book": {
      "type": "String",
      "required": false,
      "length": 255,
      "precision": null,
      "scale": null,
      "mysql": {
        "columnName": "book",
        "dataType": "text",
        "dataLength": 255,
        "dataPrecision": null,
        "dataScale": null,
        "nullable": "Y"
      }
    },
    
    "created": {
      "type": "Date",
      "required": false,
      "length": null,
      "precision": null,
      "scale": null,
      "mysql": {
        "columnName": "created",
        "dataType": "datetime",
        "dataLength": null,
        "dataPrecision": null,
        "dataScale": null,
        "nullable": "Y"
      }
    },
    
    "published": {
      "type": "Date",
      "required": false,
      "length": null,
      "precision": null,
      "scale": null,
      "mysql": {
        "columnName": "published",
        "dataType": "datetime",
        "dataLength": null,
        "dataPrecision": null,
        "dataScale": null,
        "nullable": "Y"
      }
    }
  }
}