
Tanakh.Prophets.Joel.1.1
דְּבַר יְהוָה֙__יְהוָה אֲשֶׁ֣ר הָיָ֔ה אֶל יֹואֵ֖ל__יֹואֵל בֶּן פְּתוּאֵֽל__פְּתוּאֵל 
Tanakh.Prophets.Joel.1.2
שִׁמְעוּ זֹאת֙ הַזְּקֵנִ֔ים וְהַֽאֲזִ֔ינוּ כֹּ֖ל יֹושְׁבֵ֣י הָאָ֑רֶץ הֶהָ֤יְתָה זֹּאת֙ בִּֽימֵיכֶ֔ם וְאִ֖ם בִּימֵ֥י אֲבֹֽתֵיכֶֽם 
Tanakh.Prophets.Joel.1.3
עָלֶ֖יהָ לִבְנֵיכֶ֣ם סַפֵּ֑רוּ וּבְנֵיכֶם֙ לִבְנֵיהֶ֔ם וּבְנֵיהֶ֖ם לְדֹ֥ור אַחֵֽר 
Tanakh.Prophets.Joel.1.4
יֶ֤תֶר הַגָּזָם֙ אָכַ֣ל הָֽאַרְבֶּ֔ה וְיֶ֥תֶר הָאַרְבֶּ֖ה אָכַ֣ל הַיָּ֑לֶק וְיֶ֣תֶר הַיֶּ֔לֶק אָכַ֖ל הֶחָסִֽיל 
Tanakh.Prophets.Joel.1.5
הָקִ֤יצוּ שִׁכֹּורִים֙ וּבְכ֔וּ וְהֵילִ֖לוּ כׇּל שֹׁ֣תֵי יָ֑יִן עַל עָסִ֕יס כִּ֥י נִכְרַ֖ת מִפִּיכֶֽם 
Tanakh.Prophets.Joel.1.6
כִּֽי גֹוי֙ עָלָ֣ה עַל אַרְצִ֔י עָצ֖וּם וְאֵ֣ין מִסְפָּ֑ר שִׁנָּיו֙ שִׁנֵּ֣י אַרְיֵ֔ה וּֽמְתַלְּעֹ֥ות לָבִ֖יא לֹֽו 
Tanakh.Prophets.Joel.1.7
שָׂ֤ם גַּפְנִי֙ לְשַׁמָּ֔ה וּתְאֵנָתִ֖י לִקְצָפָ֑ה חָשֹׂ֤ף חֲשָׂפָהּ֙ וְהִשְׁלִ֔יךְ הִלְבִּ֖ינוּ שָׂרִיגֶֽיהָ 
Tanakh.Prophets.Joel.1.8
אֱלִ֕י כִּבְתוּלָ֥ה חֲגֻֽרַת שַׂ֖ק עַל בַּ֥עַל נְעוּרֶֽיהָ 
Tanakh.Prophets.Joel.1.9
הׇכְרַ֥ת מִנְחָ֛ה וָנֶ֖סֶךְ מִבֵּ֣ית יְהוָ֑ה__יְהוָה אָֽבְלוּ֙ הַכֹּ֣הֲנִ֔ים מְשָׁרְתֵ֖י יְהוָֽה__יְהוָה 
Tanakh.Prophets.Joel.1.10
שֻׁדַּ֣ד שָׂדֶ֔ה אָבְלָ֖ה אֲדָמָ֑ה כִּ֚י שֻׁדַּ֣ד דָּגָ֔ן הֹובִ֥ישׁ תִּירֹ֖ושׁ אֻמְלַ֥ל יִצְהָֽר 
Tanakh.Prophets.Joel.1.11
הֹבִ֣ישׁוּ אִכָּרִ֗ים הֵילִ֨ילוּ֙ כֹּֽרְמִ֔ים עַל חִטָּ֖ה וְעַל שְׂעֹרָ֑ה כִּ֥י אָבַ֖ד קְצִ֥יר שָׂדֶֽה 
Tanakh.Prophets.Joel.1.12
הַגֶּ֣פֶן הֹובִ֔ישָׁה וְהַתְּאֵנָ֖ה אֻמְלָ֑לָה רִמֹּ֞ון גַּם תָּמָ֣ר וְתַפּ֗וּחַ כׇּל עֲצֵ֤י הַשָּׂדֶה֙ יָבֵ֔שׁוּ כִּֽי הֹבִ֥ישׁ שָׂשֹׂ֖ון מִן בְּנֵ֥י אָדָֽם 
Tanakh.Prophets.Joel.1.13
חִגְר֨וּ וְסִפְד֜וּ הַכֹּהֲנִ֗ים הֵילִ֨ילוּ֙ מְשָׁרְתֵ֣י מִזְבֵּ֔חַ בֹּ֚אוּ לִ֣ינוּ בַשַּׂקִּ֔ים מְשָׁרְתֵ֖י אֱלֹהָ֑י כִּ֥י נִמְנַ֛ע מִבֵּ֥ית אֱלֹהֵיכֶ֖ם מִנְחָ֥ה וָנָֽסֶךְ 
Tanakh.Prophets.Joel.1.14
קַדְּשׁוּ צֹום֙ קִרְא֣וּ עֲצָרָ֔ה אִסְפ֣וּ זְקֵנִ֗ים כֹּ֚ל יֹשְׁבֵ֣י הָאָ֔רֶץ בֵּ֖ית יְהוָ֣ה__יְהוָה אֱלֹהֵיכֶ֑ם וְזַעֲק֖וּ אֶל יְהוָֽה__יְהוָה 
Tanakh.Prophets.Joel.1.15
אֲהָ֖הּ לַיֹּ֑ום כִּ֤י קָרֹוב֙ יֹ֣ום יְהוָ֔ה__יְהוָה וּכְשֹׁ֖ד מִשַׁדַּ֥י__שַׁדַּי יָבֹֽוא 
Tanakh.Prophets.Joel.1.16
הֲלֹ֛וא נֶ֥גֶד עֵינֵ֖ינוּ אֹ֣כֶל נִכְרָ֑ת מִבֵּ֥ית אֱלֹהֵ֖ינוּ שִׂמְחָ֥ה וָגִֽיל 
Tanakh.Prophets.Joel.1.17
עָבְשׁ֣וּ פְרֻדֹ֗ות תַּ֚חַת מֶגְרְפֹ֣תֵיהֶ֔ם נָשַׁ֨מּוּ֙ אֹֽצָרֹ֔ות נֶהֶרְס֖וּ מַמְּגֻרֹ֑ות כִּ֥י הֹבִ֖ישׁ דָּגָֽן 
Tanakh.Prophets.Joel.1.18
מַה נֶּאֶנְחָ֣ה בְהֵמָ֗ה נָבֹ֨כוּ֙ עֶדְרֵ֣י בָקָ֔ר כִּ֛י אֵ֥ין מִרְעֶ֖ה לָהֶ֑ם גַּם עֶדְרֵ֥י הַצֹּ֖אן נֶאְשָֽׁמוּ 
Tanakh.Prophets.Joel.1.19
אֵלֶ֥יךָ יְהוָ֖ה__יְהוָה אֶקְרָ֑א כִּ֣י אֵ֗שׁ אָֽכְלָה֙ נְאֹ֣ות מִדְבָּ֔ר וְלֶ֣הָבָ֔ה לִהֲטָ֖ה כׇּל עֲצֵ֥י הַשָּׂדֶֽה 
Tanakh.Prophets.Joel.1.20
גַּם בַּהֲמֹ֥ות שָׂדֶ֖ה תַּעֲרֹ֣וג אֵלֶ֑יךָ כִּ֤י יָֽבְשׁוּ֙ אֲפִ֣יקֵי מָ֔יִם וְאֵ֕שׁ אָכְלָ֖ה נְאֹ֥ות הַמִּדְבָּֽר 
Tanakh.Prophets.Joel.2.1
תִּקְע֨וּ שֹׁופָ֜ר בְּצִיֹּ֗ון__צִיֹּון וְהָרִ֨יעוּ֙ בְּהַ֣ר קׇדְשִׁ֔י יִרְגְּז֕וּ כֹּ֖ל יֹשְׁבֵ֣י הָאָ֑רֶץ כִּֽי בָ֥א יֹום יְהוָ֖ה__יְהוָה כִּ֥י קָרֹֽוב 
Tanakh.Prophets.Joel.2.2
יֹ֧ום חֹ֣שֶׁךְ וַאֲפֵלָ֗ה יֹ֤ום עָנָן֙ וַעֲרָפֶ֔ל כְּשַׁ֖חַר פָּרֻ֣שׂ עַל הֶֽהָרִ֑ים עַ֚ם רַ֣ב וְעָצ֔וּם כָּמֹ֗הוּ לֹ֤א נִֽהְיָה֙ מִן הָ֣עֹולָ֔ם וְאַֽחֲרָיו֙ לֹ֣א יֹוסֵ֔ף עַד שְׁנֵ֖י דֹּ֥ור וָדֹֽור 
Tanakh.Prophets.Joel.2.3
לְפָנָיו֙ אָ֣כְלָה אֵ֔שׁ וְאַחֲרָ֖יו תְּלַהֵ֣ט לֶֽהָבָ֑ה כְּגַן עֵ֨דֶן__עֵדֶן הָאָ֜רֶץ לְפָנָ֗יו וְאַֽחֲרָיו֙ מִדְבַּ֣ר שְׁמָמָ֔ה וְגַם פְּלֵיטָ֖ה לֹא הָ֥יְתָה לֹּֽו 
Tanakh.Prophets.Joel.2.4
כְּמַרְאֵ֥ה סוּסִ֖ים מַרְאֵ֑הוּ וּכְפָרָשִׁ֖ים כֵּ֥ן יְרוּצֽוּן 
Tanakh.Prophets.Joel.2.5
כְּקֹ֣ול מַרְכָּבֹ֗ות עַל רָאשֵׁ֤י הֶֽהָרִים֙ יְרַקֵּד֔וּן כְּקֹול֙ לַ֣הַב אֵ֔שׁ אֹכְלָ֖ה קָ֑שׁ כְּעַ֣ם עָצ֔וּם עֱר֖וּךְ מִלְחָמָֽה 
Tanakh.Prophets.Joel.2.6
מִפָּנָ֖יו יָחִ֣ילוּ עַמִּ֑ים כׇּל פָּנִ֖ים קִבְּצ֥וּ פָארֽוּר 
Tanakh.Prophets.Joel.2.7
כְּגִבֹּורִ֣ים יְרֻצ֔וּן כְּאַנְשֵׁ֥י מִלְחָמָ֖ה יַעֲל֣וּ חֹומָ֑ה וְאִ֤ישׁ בִּדְרָכָיו֙ יֵֽלֵכ֔וּן וְלֹ֥א יְעַבְּט֖וּן אֹרְחֹותָֽם 
Tanakh.Prophets.Joel.2.8
וְאִ֤ישׁ אָחִיו֙ לֹ֣א יִדְחָק֔וּן גֶּ֥בֶר בִּמְסִלָּתֹ֖ו יֵֽלֵכ֑וּן וּבְעַ֥ד הַשֶּׁ֛לַח יִפֹּ֖לוּ לֹ֥א יִבְצָֽעוּ 
Tanakh.Prophets.Joel.2.9
בָּעִ֣יר יָשֹׁ֗קּוּ בַּֽחֹומָה֙ יְרֻצ֔וּן בַּבָּתִּ֖ים יַעֲל֑וּ בְּעַ֧ד הַחַלֹּונִ֛ים יָבֹ֖אוּ כַּגַּנָּֽב 
Tanakh.Prophets.Joel.2.10
לְפָנָיו֙ רָ֣גְזָה אֶ֔רֶץ רָעֲשׁ֖וּ שָׁמָ֑יִם שֶׁ֤מֶשׁ וְיָרֵ֨חַ֙ קָדָ֔רוּ וְכֹוכָבִ֖ים אָסְפ֥וּ נׇגְהָֽם 
Tanakh.Prophets.Joel.2.11
וַֽיהוָ֗ה__יְהוָה נָתַ֤ן קֹולֹו֙ לִפְנֵ֣י חֵילֹ֔ו כִּ֣י רַ֤ב מְאֹד֙ מַחֲנֵ֔הוּ כִּ֥י עָצ֖וּם עֹשֵׂ֣ה דְבָרֹ֑ו כִּֽי גָדֹ֧ול יֹום יְהוָ֛ה__יְהוָה וְנֹורָ֥א מְאֹ֖ד וּמִ֥י יְכִילֶֽנּוּ 
Tanakh.Prophets.Joel.2.12
וְגַם עַתָּה֙ נְאֻם יְהוָ֔ה__יְהוָה שֻׁ֥בוּ עָדַ֖י בְּכׇל לְבַבְכֶ֑ם וּבְצֹ֥ום וּבִבְכִ֖י וּבְמִסְפֵּֽד 
Tanakh.Prophets.Joel.2.13
וְקִרְע֤וּ לְבַבְכֶם֙ וְאַל בִּגְדֵיכֶ֔ם וְשׁ֖וּבוּ אֶל יְהוָ֣ה__יְהוָה אֱלֹֽהֵיכֶ֑ם כִּֽי חַנּ֤וּן וְרַחוּם֙ ה֔וּא אֶ֤רֶךְ אַפַּ֨יִם֙ וְרַב חֶ֔סֶד וְנִחָ֖ם עַל הָרָעָֽה 
Tanakh.Prophets.Joel.2.14
מִ֥י יֹודֵ֖עַ יָשׁ֣וּב וְנִחָ֑ם וְהִשְׁאִ֤יר אַֽחֲרָיו֙ בְּרָכָ֔ה מִנְחָ֣ה וָנֶ֔סֶךְ לַיהוָ֖ה__יְהוָה אֱלֹהֵיכֶֽם 
Tanakh.Prophets.Joel.2.15
תִּקְע֥וּ שֹׁופָ֖ר בְּצִיֹּ֑ון__צִיֹּון קַדְּשׁוּ צֹ֖ום קִרְא֥וּ עֲצָרָֽה 
Tanakh.Prophets.Joel.2.16
אִסְפוּ עָ֞ם קַדְּשׁ֤וּ קָהָל֙ קִבְצ֣וּ זְקֵנִ֔ים אִסְפוּ֙ עֹֽולָלִ֔ים וְיֹנְקֵ֖י שָׁדָ֑יִם יֵצֵ֤א חָתָן֙ מֵֽחֶדְרֹ֔ו וְכַלָּ֖ה מֵחֻפָּתָֽהּ 
Tanakh.Prophets.Joel.2.17
בֵּ֤ין הָאוּלָם֙ וְלַמִּזְבֵּ֔חַ יִבְכּוּ֙ הַכֹּ֣הֲנִ֔ים מְשָׁרְתֵ֖י יְהוָ֑ה__יְהוָה וְֽיֹאמְר֞וּ ח֧וּסָה יְהוָ֣ה__יְהוָה עַל עַמֶּ֗ךָ וְאַל תִּתֵּ֨ן נַחֲלָתְךָ֤ לְחֶרְפָּה֙ לִמְשׇׁל בָּ֣ם גֹּויִ֔ם לָ֚מָּה יֹאמְר֣וּ בָֽעַמִּ֔ים אַיֵּ֖ה אֱלֹהֵיהֶֽם 
Tanakh.Prophets.Joel.2.18
וַיְקַנֵּ֥א יְהוָ֖ה__יְהוָה לְאַרְצֹ֑ו וַיַּחְמֹ֖ל עַל עַמֹּֽו 
Tanakh.Prophets.Joel.2.19
וַיַּ֨עַן יְהוָ֜ה__יְהוָה וַיֹּ֣אמֶר לְעַמֹּ֗ו הִנְנִ֨י שֹׁלֵ֤חַ לָכֶם֙ אֶת הַדָּגָן֙ וְהַתִּירֹ֣ושׁ וְהַיִּצְהָ֔ר וּשְׂבַעְתֶּ֖ם אֹתֹ֑ו וְלֹא אֶתֵּ֨ן אֶתְכֶ֥ם עֹ֛וד חֶרְפָּ֖ה בַּגֹּויִֽם 
Tanakh.Prophets.Joel.2.20
וְֽאֶת הַצְּפֹונִ֞י אַרְחִ֣יק מֵעֲלֵיכֶ֗ם וְהִדַּחְתִּיו֮ אֶל אֶ֣רֶץ צִיָּ֣ה וּשְׁמָמָה֒ אֶת פָּנָ֗יו אֶל הַיָּם֙ הַקַּדְמֹנִ֔י וְסֹפֹ֖ו אֶל הַיָּ֣ם הָאַֽחֲרֹ֑ון וְעָלָ֣ה בׇאְשֹׁ֗ו וְתַ֨עַל֙ צַחֲנָתֹ֔ו כִּ֥י הִגְדִּ֖יל לַעֲשֹֽׂות 
Tanakh.Prophets.Joel.2.21
אַל תִּֽירְאִ֖י אֲדָמָ֑ה גִּ֣ילִי וּשְׂמָ֔חִי כִּֽי הִגְדִּ֥יל יְהוָ֖ה__יְהוָה לַעֲשֹֽׂות 
Tanakh.Prophets.Joel.2.22
אַל תִּֽירְאוּ֙ בַּהֲמֹ֣ות שָׂדַ֔י כִּ֥י דָשְׁא֖וּ נְאֹ֣ות מִדְבָּ֑ר כִּֽי עֵץ֙ נָשָׂ֣א פִרְיֹ֔ו תְּאֵנָ֥ה וָגֶ֖פֶן נָתְנ֥וּ חֵילָֽם 
Tanakh.Prophets.Joel.2.23
וּבְנֵ֣י צִיֹּ֗ון__צִיֹּון גִּ֤ילוּ וְשִׂמְחוּ֙ בַּיהוָ֣ה__יְהוָה אֱלֹֽהֵיכֶ֔ם כִּֽי נָתַ֥ן לָכֶ֛ם אֶת הַמֹּורֶ֖ה לִצְדָקָ֑ה וַיֹּ֣ורֶד לָכֶ֗ם גֶּ֛שֶׁם מֹורֶ֥ה וּמַלְקֹ֖ושׁ בָּרִאשֹֽׁון 
Tanakh.Prophets.Joel.2.24
וּמָלְא֥וּ הַגֳּרָנֹ֖ות בָּ֑ר וְהֵשִׁ֥יקוּ הַיְקָבִ֖ים תִּירֹ֥ושׁ וְיִצְהָֽר 
Tanakh.Prophets.Joel.2.25
וְשִׁלַּמְתִּ֤י לָכֶם֙ אֶת הַשָּׁנִ֔ים אֲשֶׁר֙ אָכַ֣ל הָֽאַרְבֶּ֔ה הַיֶּ֖לֶק וְהֶחָסִ֣יל וְהַגָּזָ֑ם חֵילִי֙ הַגָּדֹ֔ול אֲשֶׁ֥ר שִׁלַּ֖חְתִּי בָּכֶֽם 
Tanakh.Prophets.Joel.2.26
וַאֲכַלְתֶּ֤ם אָכֹול֙ וְשָׂבֹ֔ועַ וְהִלַּלְתֶּ֗ם אֶת שֵׁ֤ם יְהוָה֙__יְהוָה אֱלֹ֣הֵיכֶ֔ם אֲשֶׁר עָשָׂ֥ה עִמָּכֶ֖ם לְהַפְלִ֑יא וְלֹא יֵבֹ֥שׁוּ עַמִּ֖י לְעֹולָֽם 
Tanakh.Prophets.Joel.2.27
וִידַעְתֶּ֗ם כִּ֣י בְקֶ֤רֶב יִשְׂרָאֵל֙__יִשְׂרָאֵל אָ֔נִי וַאֲנִ֛י יְהוָ֥ה__יְהוָה אֱלֹהֵיכֶ֖ם וְאֵ֣ין עֹ֑וד וְלֹא יֵבֹ֥שׁוּ עַמִּ֖י לְעֹולָֽם 
Tanakh.Prophets.Joel.3.1
וְהָיָ֣ה אַֽחֲרֵי כֵ֗ן אֶשְׁפֹּ֤וךְ אֶת רוּחִי֙ עַל כׇּל בָּשָׂ֔ר וְנִבְּא֖וּ בְּנֵיכֶ֣ם וּבְנֹֽותֵיכֶ֑ם זִקְנֵיכֶם֙ חֲלֹמֹ֣ות יַחֲלֹמ֔וּן בַּח֣וּרֵיכֶ֔ם חֶזְיֹנֹ֖ות יִרְאֽוּ 
Tanakh.Prophets.Joel.3.2
וְגַ֥ם עַל הָֽעֲבָדִ֖ים וְעַל הַשְּׁפָחֹ֑ות בַּיָּמִ֣ים הָהֵ֔מָּה אֶשְׁפֹּ֖וךְ אֶת רוּחִֽי 
Tanakh.Prophets.Joel.3.3
וְנָֽתַתִּי֙ מֹֽופְתִ֔ים בַּשָּׁמַ֖יִם וּבָאָ֑רֶץ דָּ֣ם וָאֵ֔שׁ וְתִֽימֲרֹ֖ות עָשָֽׁן 
Tanakh.Prophets.Joel.3.4
הַשֶּׁ֨מֶשׁ֙ יֵהָפֵ֣ךְ לְחֹ֔שֶׁךְ וְהַיָּרֵ֖חַ לְדָ֑ם לִפְנֵ֗י בֹּ֚וא יֹ֣ום יְהוָ֔ה__יְהוָה הַגָּדֹ֖ול וְהַנֹּורָֽא 
Tanakh.Prophets.Joel.3.5
וְהָיָ֗ה כֹּ֧ל אֲשֶׁר יִקְרָ֛א בְּשֵׁ֥ם יְהוָ֖ה__יְהוָה יִמָּלֵ֑ט כִּ֠י בְּהַר צִיֹּ֨ון__צִיֹּון וּבִירוּשָׁלִַ֜ם__יְרוּשָׁלִַם תִּֽהְיֶ֣ה פְלֵיטָ֗ה כַּֽאֲשֶׁר֙ אָמַ֣ר יְהוָ֔ה__יְהוָה וּבַ֨שְּׂרִידִ֔ים אֲשֶׁ֥ר יְהוָ֖ה__יְהוָה קֹרֵֽא 
Tanakh.Prophets.Joel.4.1
כִּ֗י הִנֵּ֛ה בַּיָּמִ֥ים הָהֵ֖מָּה וּבָעֵ֣ת הַהִ֑יא אֲשֶׁ֥ר אָשִׁ֛יב אֶת שְׁב֥וּת יְהוּדָ֖ה__יְהוּדָה וִירוּשָׁלִָֽם__יְרוּשָׁלִַם 
Tanakh.Prophets.Joel.4.2
וְקִבַּצְתִּי֙ אֶת כׇּל הַגֹּויִ֔ם וְהֹ֣ורַדְתִּ֔ים אֶל עֵ֖מֶק יְהֹֽושָׁפָ֑ט__יְהֹושָׁפָט וְנִשְׁפַּטְתִּ֨י עִמָּ֜ם שָׁ֗ם עַל עַמִּ֨י וְנַחֲלָתִ֤י יִשְׂרָאֵל֙__יִשְׂרָאֵל אֲשֶׁ֣ר פִּזְּר֣וּ בַגֹּויִ֔ם וְאֶת אַרְצִ֖י חִלֵּֽקוּ 
Tanakh.Prophets.Joel.4.3
וְאֶל עַמִּ֖י יַדּ֣וּ גֹורָ֑ל וַיִּתְּנ֤וּ הַיֶּ֨לֶד֙ בַּזֹּונָ֔ה וְהַיַּלְדָּ֛ה מָכְר֥וּ בַיַּ֖יִן וַיִּשְׁתּֽוּ 
Tanakh.Prophets.Joel.4.4
וְ֠גַם מָה אַתֶּ֥ם לִי֙ צֹ֣ר__צֹר וְצִידֹ֔ון__צִידֹון וְכֹ֖ל גְּלִילֹ֣ות פְּלָ֑שֶׁת__פְּלֶשֶׁת הַגְּמ֗וּל אַתֶּם֙ מְשַׁלְּמִ֣ים עָלָ֔י וְאִם גֹּמְלִ֤ים אַתֶּם֙ עָלַ֔י קַ֣ל מְהֵרָ֔ה אָשִׁ֥יב גְּמֻלְכֶ֖ם בְּרֹאשְׁכֶֽם 
Tanakh.Prophets.Joel.4.5
אֲשֶׁר כַּסְפִּ֥י וּזְהָבִ֖י לְקַחְתֶּ֑ם וּמַֽחֲמַדַּי֙ הַטֹּבִ֔ים הֲבֵאתֶ֖ם לְהֵיכְלֵיכֶֽם 
Tanakh.Prophets.Joel.4.6
וּבְנֵ֤י יְהוּדָה֙__יְהוּדָה וּבְנֵ֣י יְרוּשָׁלִַ֔ם__יְרוּשָׁלִַם מְכַרְתֶּ֖ם לִבְנֵ֣י הַיְּוָנִ֑ים לְמַ֥עַן הַרְחִיקָ֖ם מֵעַ֥ל גְּבוּלָֽם 
Tanakh.Prophets.Joel.4.7
הִנְנִ֣י מְעִירָ֔ם מִן הַ֨מָּקֹ֔ום אֲשֶׁר מְכַרְתֶּ֥ם אֹתָ֖ם שָׁ֑מָּה וַהֲשִׁבֹתִ֥י גְמֻלְכֶ֖ם בְּרֹאשְׁכֶֽם 
Tanakh.Prophets.Joel.4.8
וּמָכַרְתִּ֞י אֶת בְּנֵיכֶ֣ם וְאֶת בְּנֹֽותֵיכֶ֗ם בְּיַד֙ בְּנֵ֣י יְהוּדָ֔ה__יְהוּדָה וּמְכָר֥וּם לִשְׁבָאיִ֖ם__שְׁבָאִים אֶל גֹּ֣וי רָחֹ֑וק כִּ֥י יְהוָ֖ה__יְהוָה דִּבֵּֽר 
Tanakh.Prophets.Joel.4.9
קִרְאוּ זֹאת֙ בַּגֹּויִ֔ם קַדְּשׁ֖וּ מִלְחָמָ֑ה הָעִ֨ירוּ֙ הַגִּבֹּורִ֔ים יִגְּשׁ֣וּ יַֽעֲל֔וּ כֹּ֖ל אַנְשֵׁ֥י הַמִּלְחָמָֽה 
Tanakh.Prophets.Joel.4.10
כֹּ֤תּוּ אִתֵּיכֶם֙ לַֽחֲרָבֹ֔ות וּמַזְמְרֹֽתֵיכֶ֖ם לִרְמָחִ֑ים הַֽחַלָּ֔שׁ יֹאמַ֖ר גִּבֹּ֥ור אָֽנִי 
Tanakh.Prophets.Joel.4.11
ע֣וּשׁוּ וָבֹ֧אוּ כׇֽל הַגֹּויִ֛ם מִסָּבִ֖יב וְנִקְבָּ֑צוּ שָׁ֕מָּה הַֽנְחַ֥ת יְהוָ֖ה__יְהוָה גִּבֹּורֶֽיךָ 
Tanakh.Prophets.Joel.4.12
יֵעֹ֨ורוּ֙ וְיַעֲל֣וּ הַגֹּויִ֔ם אֶל עֵ֖מֶק יְהֹֽושָׁפָ֑ט__יְהֹושָׁפָט כִּ֣י שָׁ֗ם אֵשֵׁ֛ב לִשְׁפֹּ֥ט אֶת כׇּל הַגֹּויִ֖ם מִסָּבִֽיב 
Tanakh.Prophets.Joel.4.13
שִׁלְח֣וּ מַגָּ֔ל כִּ֥י בָשַׁ֖ל קָצִ֑יר בֹּ֤אֽוּ רְדוּ֙ כִּֽי מָ֣לְאָה גַּ֔ת הֵשִׁ֨יקוּ֙ הַיְקָבִ֔ים כִּ֥י רַבָּ֖ה רָעָתָֽם 
Tanakh.Prophets.Joel.4.14
הֲמֹונִ֣ים הֲמֹונִ֔ים בְּעֵ֖מֶק הֶֽחָר֑וּץ כִּ֤י קָרֹוב֙ יֹ֣ום יְהוָ֔ה__יְהוָה בְּעֵ֖מֶק הֶחָרֽוּץ 
Tanakh.Prophets.Joel.4.15
שֶׁ֥מֶשׁ וְיָרֵ֖חַ קָדָ֑רוּ וְכֹוכָבִ֖ים אָסְפ֥וּ נׇגְהָֽם 
Tanakh.Prophets.Joel.4.16
וַיהוָ֞ה__יְהוָה מִצִּיֹּ֣ון__צִיֹּון יִשְׁאָ֗ג וּמִירוּשָׁלִַ֨ם֙__יְרוּשָׁלִַם יִתֵּ֣ן קֹולֹ֔ו וְרָעֲשׁ֖וּ שָׁמַ֣יִם וָאָ֑רֶץ וַֽיהוָה֙__יְהוָה מַֽחֲסֶ֣ה לְעַמֹּ֔ו וּמָעֹ֖וז לִבְנֵ֥י יִשְׂרָאֵֽל__יִשְׂרָאֵל 
Tanakh.Prophets.Joel.4.17
וִֽידַעְתֶּ֗ם כִּ֣י אֲנִ֤י יְהוָה֙__יְהוָה אֱלֹ֣הֵיכֶ֔ם שֹׁכֵ֖ן בְּצִיֹּ֣ון__צִיֹּון הַר קׇדְשִׁ֑י וְהָיְתָ֤ה יְרוּשָׁלִַ֨ם֙__יְרוּשָׁלִַם קֹ֔דֶשׁ וְזָרִ֥ים לֹא יַֽעַבְרוּ בָ֖הּ עֹֽוד 
Tanakh.Prophets.Joel.4.18
וְהָיָה֩ בַיֹּ֨ום הַה֜וּא יִטְּפ֧וּ הֶהָרִ֣ים עָסִ֗יס וְהַגְּבָעֹות֙ תֵּלַ֣כְנָה חָלָ֔ב וְכׇל אֲפִיקֵ֥י יְהוּדָ֖ה__יְהוּדָה יֵ֣לְכוּ מָ֑יִם וּמַעְיָ֗ן מִבֵּ֤ית יְהוָה֙__יְהוָה יֵצֵ֔א וְהִשְׁקָ֖ה אֶת נַ֥חַל הַשִּׁטִּֽים__שִׁטִּים 
Tanakh.Prophets.Joel.4.19
מִצְרַ֨יִם֙__מִצְרַיִם לִשְׁמָמָ֣ה תִֽהְיֶ֔ה וֶאֱדֹ֕ום__אֱדֹום לְמִדְבַּ֥ר שְׁמָמָ֖ה תִּֽהְיֶ֑ה מֵֽחֲמַס֙ בְּנֵ֣י יְהוּדָ֔ה__יְהוּדָה אֲשֶׁר שָׁפְכ֥וּ דָם נָקִ֖יא בְּאַרְצָֽם 
Tanakh.Prophets.Joel.4.20
וִיהוּדָ֖ה__יְהוּדָה לְעֹולָ֣ם תֵּשֵׁ֑ב וִירוּשָׁלִַ֖ם__יְרוּשָׁלִַם לְדֹ֥ור וָדֹֽור 
Tanakh.Prophets.Joel.4.21
וְנִקֵּ֖יתִי דָּמָ֣ם לֹֽא נִקֵּ֑יתִי וַֽיהוָ֖ה__יְהוָה שֹׁכֵ֥ן בְּצִיֹּֽון__צִיֹּון 
Tanakh.Prophets.Joel.1.1
דְּבַר יְהוָה֙__יְהוָה אֲשֶׁ֣ר הָיָ֔ה אֶל יֹואֵ֖ל__יֹואֵל בֶּן פְּתוּאֵֽל__פְּתוּאֵל 
Tanakh.Prophets.Joel.1.2
שִׁמְעוּ זֹאת֙ הַזְּקֵנִ֔ים וְהַֽאֲזִ֔ינוּ כֹּ֖ל יֹושְׁבֵ֣י הָאָ֑רֶץ הֶהָ֤יְתָה זֹּאת֙ בִּֽימֵיכֶ֔ם וְאִ֖ם בִּימֵ֥י אֲבֹֽתֵיכֶֽם 
Tanakh.Prophets.Joel.1.3
עָלֶ֖יהָ לִבְנֵיכֶ֣ם סַפֵּ֑רוּ וּבְנֵיכֶם֙ לִבְנֵיהֶ֔ם וּבְנֵיהֶ֖ם לְדֹ֥ור אַחֵֽר 
Tanakh.Prophets.Joel.1.4
יֶ֤תֶר הַגָּזָם֙ אָכַ֣ל הָֽאַרְבֶּ֔ה וְיֶ֥תֶר הָאַרְבֶּ֖ה אָכַ֣ל הַיָּ֑לֶק וְיֶ֣תֶר הַיֶּ֔לֶק אָכַ֖ל הֶחָסִֽיל 
Tanakh.Prophets.Joel.1.5
הָקִ֤יצוּ שִׁכֹּורִים֙ וּבְכ֔וּ וְהֵילִ֖לוּ כׇּל שֹׁ֣תֵי יָ֑יִן עַל עָסִ֕יס כִּ֥י נִכְרַ֖ת מִפִּיכֶֽם 
Tanakh.Prophets.Joel.1.6
כִּֽי גֹוי֙ עָלָ֣ה עַל אַרְצִ֔י עָצ֖וּם וְאֵ֣ין מִסְפָּ֑ר שִׁנָּיו֙ שִׁנֵּ֣י אַרְיֵ֔ה וּֽמְתַלְּעֹ֥ות לָבִ֖יא לֹֽו 
Tanakh.Prophets.Joel.1.7
שָׂ֤ם גַּפְנִי֙ לְשַׁמָּ֔ה וּתְאֵנָתִ֖י לִקְצָפָ֑ה חָשֹׂ֤ף חֲשָׂפָהּ֙ וְהִשְׁלִ֔יךְ הִלְבִּ֖ינוּ שָׂרִיגֶֽיהָ 
Tanakh.Prophets.Joel.1.8
אֱלִ֕י כִּבְתוּלָ֥ה חֲגֻֽרַת שַׂ֖ק עַל בַּ֥עַל נְעוּרֶֽיהָ 
Tanakh.Prophets.Joel.1.9
הׇכְרַ֥ת מִנְחָ֛ה וָנֶ֖סֶךְ מִבֵּ֣ית יְהוָ֑ה__יְהוָה אָֽבְלוּ֙ הַכֹּ֣הֲנִ֔ים מְשָׁרְתֵ֖י יְהוָֽה__יְהוָה 
Tanakh.Prophets.Joel.1.10
שֻׁדַּ֣ד שָׂדֶ֔ה אָבְלָ֖ה אֲדָמָ֑ה כִּ֚י שֻׁדַּ֣ד דָּגָ֔ן הֹובִ֥ישׁ תִּירֹ֖ושׁ אֻמְלַ֥ל יִצְהָֽר 
Tanakh.Prophets.Joel.1.11
הֹבִ֣ישׁוּ אִכָּרִ֗ים הֵילִ֨ילוּ֙ כֹּֽרְמִ֔ים עַל חִטָּ֖ה וְעַל שְׂעֹרָ֑ה כִּ֥י אָבַ֖ד קְצִ֥יר שָׂדֶֽה 
Tanakh.Prophets.Joel.1.12
הַגֶּ֣פֶן הֹובִ֔ישָׁה וְהַתְּאֵנָ֖ה אֻמְלָ֑לָה רִמֹּ֞ון גַּם תָּמָ֣ר וְתַפּ֗וּחַ כׇּל עֲצֵ֤י הַשָּׂדֶה֙ יָבֵ֔שׁוּ כִּֽי הֹבִ֥ישׁ שָׂשֹׂ֖ון מִן בְּנֵ֥י אָדָֽם 
Tanakh.Prophets.Joel.1.13
חִגְר֨וּ וְסִפְד֜וּ הַכֹּהֲנִ֗ים הֵילִ֨ילוּ֙ מְשָׁרְתֵ֣י מִזְבֵּ֔חַ בֹּ֚אוּ לִ֣ינוּ בַשַּׂקִּ֔ים מְשָׁרְתֵ֖י אֱלֹהָ֑י כִּ֥י נִמְנַ֛ע מִבֵּ֥ית אֱלֹהֵיכֶ֖ם מִנְחָ֥ה וָנָֽסֶךְ 
Tanakh.Prophets.Joel.1.14
קַדְּשׁוּ צֹום֙ קִרְא֣וּ עֲצָרָ֔ה אִסְפ֣וּ זְקֵנִ֗ים כֹּ֚ל יֹשְׁבֵ֣י הָאָ֔רֶץ בֵּ֖ית יְהוָ֣ה__יְהוָה אֱלֹהֵיכֶ֑ם וְזַעֲק֖וּ אֶל יְהוָֽה__יְהוָה 
Tanakh.Prophets.Joel.1.15
אֲהָ֖הּ לַיֹּ֑ום כִּ֤י קָרֹוב֙ יֹ֣ום יְהוָ֔ה__יְהוָה וּכְשֹׁ֖ד מִשַׁדַּ֥י__שַׁדַּי יָבֹֽוא 
Tanakh.Prophets.Joel.1.16
הֲלֹ֛וא נֶ֥גֶד עֵינֵ֖ינוּ אֹ֣כֶל נִכְרָ֑ת מִבֵּ֥ית אֱלֹהֵ֖ינוּ שִׂמְחָ֥ה וָגִֽיל 
Tanakh.Prophets.Joel.1.17
עָבְשׁ֣וּ פְרֻדֹ֗ות תַּ֚חַת מֶגְרְפֹ֣תֵיהֶ֔ם נָשַׁ֨מּוּ֙ אֹֽצָרֹ֔ות נֶהֶרְס֖וּ מַמְּגֻרֹ֑ות כִּ֥י הֹבִ֖ישׁ דָּגָֽן 
Tanakh.Prophets.Joel.1.18
מַה נֶּאֶנְחָ֣ה בְהֵמָ֗ה נָבֹ֨כוּ֙ עֶדְרֵ֣י בָקָ֔ר כִּ֛י אֵ֥ין מִרְעֶ֖ה לָהֶ֑ם גַּם עֶדְרֵ֥י הַצֹּ֖אן נֶאְשָֽׁמוּ 
Tanakh.Prophets.Joel.1.19
אֵלֶ֥יךָ יְהוָ֖ה__יְהוָה אֶקְרָ֑א כִּ֣י אֵ֗שׁ אָֽכְלָה֙ נְאֹ֣ות מִדְבָּ֔ר וְלֶ֣הָבָ֔ה לִהֲטָ֖ה כׇּל עֲצֵ֥י הַשָּׂדֶֽה 
Tanakh.Prophets.Joel.1.20
גַּם בַּהֲמֹ֥ות שָׂדֶ֖ה תַּעֲרֹ֣וג אֵלֶ֑יךָ כִּ֤י יָֽבְשׁוּ֙ אֲפִ֣יקֵי מָ֔יִם וְאֵ֕שׁ אָכְלָ֖ה נְאֹ֥ות הַמִּדְבָּֽר 
Tanakh.Prophets.Joel.2.1
תִּקְע֨וּ שֹׁופָ֜ר בְּצִיֹּ֗ון__צִיֹּון וְהָרִ֨יעוּ֙ בְּהַ֣ר קׇדְשִׁ֔י יִרְגְּז֕וּ כֹּ֖ל יֹשְׁבֵ֣י הָאָ֑רֶץ כִּֽי בָ֥א יֹום יְהוָ֖ה__יְהוָה כִּ֥י קָרֹֽוב 
Tanakh.Prophets.Joel.2.2
יֹ֧ום חֹ֣שֶׁךְ וַאֲפֵלָ֗ה יֹ֤ום עָנָן֙ וַעֲרָפֶ֔ל כְּשַׁ֖חַר פָּרֻ֣שׂ עַל הֶֽהָרִ֑ים עַ֚ם רַ֣ב וְעָצ֔וּם כָּמֹ֗הוּ לֹ֤א נִֽהְיָה֙ מִן הָ֣עֹולָ֔ם וְאַֽחֲרָיו֙ לֹ֣א יֹוסֵ֔ף עַד שְׁנֵ֖י דֹּ֥ור וָדֹֽור 
Tanakh.Prophets.Joel.2.3
לְפָנָיו֙ אָ֣כְלָה אֵ֔שׁ וְאַחֲרָ֖יו תְּלַהֵ֣ט לֶֽהָבָ֑ה כְּגַן עֵ֨דֶן__עֵדֶן הָאָ֜רֶץ לְפָנָ֗יו וְאַֽחֲרָיו֙ מִדְבַּ֣ר שְׁמָמָ֔ה וְגַם פְּלֵיטָ֖ה לֹא הָ֥יְתָה לֹּֽו 
Tanakh.Prophets.Joel.2.4
כְּמַרְאֵ֥ה סוּסִ֖ים מַרְאֵ֑הוּ וּכְפָרָשִׁ֖ים כֵּ֥ן יְרוּצֽוּן 
Tanakh.Prophets.Joel.2.5
כְּקֹ֣ול מַרְכָּבֹ֗ות עַל רָאשֵׁ֤י הֶֽהָרִים֙ יְרַקֵּד֔וּן כְּקֹול֙ לַ֣הַב אֵ֔שׁ אֹכְלָ֖ה קָ֑שׁ כְּעַ֣ם עָצ֔וּם עֱר֖וּךְ מִלְחָמָֽה 
Tanakh.Prophets.Joel.2.6
מִפָּנָ֖יו יָחִ֣ילוּ עַמִּ֑ים כׇּל פָּנִ֖ים קִבְּצ֥וּ פָארֽוּר 
Tanakh.Prophets.Joel.2.7
כְּגִבֹּורִ֣ים יְרֻצ֔וּן כְּאַנְשֵׁ֥י מִלְחָמָ֖ה יַעֲל֣וּ חֹומָ֑ה וְאִ֤ישׁ בִּדְרָכָיו֙ יֵֽלֵכ֔וּן וְלֹ֥א יְעַבְּט֖וּן אֹרְחֹותָֽם 
Tanakh.Prophets.Joel.2.8
וְאִ֤ישׁ אָחִיו֙ לֹ֣א יִדְחָק֔וּן גֶּ֥בֶר בִּמְסִלָּתֹ֖ו יֵֽלֵכ֑וּן וּבְעַ֥ד הַשֶּׁ֛לַח יִפֹּ֖לוּ לֹ֥א יִבְצָֽעוּ 
Tanakh.Prophets.Joel.2.9
בָּעִ֣יר יָשֹׁ֗קּוּ בַּֽחֹומָה֙ יְרֻצ֔וּן בַּבָּתִּ֖ים יַעֲל֑וּ בְּעַ֧ד הַחַלֹּונִ֛ים יָבֹ֖אוּ כַּגַּנָּֽב 
Tanakh.Prophets.Joel.2.10
לְפָנָיו֙ רָ֣גְזָה אֶ֔רֶץ רָעֲשׁ֖וּ שָׁמָ֑יִם שֶׁ֤מֶשׁ וְיָרֵ֨חַ֙ קָדָ֔רוּ וְכֹוכָבִ֖ים אָסְפ֥וּ נׇגְהָֽם 
Tanakh.Prophets.Joel.2.11
וַֽיהוָ֗ה__יְהוָה נָתַ֤ן קֹולֹו֙ לִפְנֵ֣י חֵילֹ֔ו כִּ֣י רַ֤ב מְאֹד֙ מַחֲנֵ֔הוּ כִּ֥י עָצ֖וּם עֹשֵׂ֣ה דְבָרֹ֑ו כִּֽי גָדֹ֧ול יֹום יְהוָ֛ה__יְהוָה וְנֹורָ֥א מְאֹ֖ד וּמִ֥י יְכִילֶֽנּוּ 
Tanakh.Prophets.Joel.2.12
וְגַם עַתָּה֙ נְאֻם יְהוָ֔ה__יְהוָה שֻׁ֥בוּ עָדַ֖י בְּכׇל לְבַבְכֶ֑ם וּבְצֹ֥ום וּבִבְכִ֖י וּבְמִסְפֵּֽד 
Tanakh.Prophets.Joel.2.13
וְקִרְע֤וּ לְבַבְכֶם֙ וְאַל בִּגְדֵיכֶ֔ם וְשׁ֖וּבוּ אֶל יְהוָ֣ה__יְהוָה אֱלֹֽהֵיכֶ֑ם כִּֽי חַנּ֤וּן וְרַחוּם֙ ה֔וּא אֶ֤רֶךְ אַפַּ֨יִם֙ וְרַב חֶ֔סֶד וְנִחָ֖ם עַל הָרָעָֽה 
Tanakh.Prophets.Joel.2.14
מִ֥י יֹודֵ֖עַ יָשׁ֣וּב וְנִחָ֑ם וְהִשְׁאִ֤יר אַֽחֲרָיו֙ בְּרָכָ֔ה מִנְחָ֣ה וָנֶ֔סֶךְ לַיהוָ֖ה__יְהוָה אֱלֹהֵיכֶֽם 
Tanakh.Prophets.Joel.2.15
תִּקְע֥וּ שֹׁופָ֖ר בְּצִיֹּ֑ון__צִיֹּון קַדְּשׁוּ צֹ֖ום קִרְא֥וּ עֲצָרָֽה 
Tanakh.Prophets.Joel.2.16
אִסְפוּ עָ֞ם קַדְּשׁ֤וּ קָהָל֙ קִבְצ֣וּ זְקֵנִ֔ים אִסְפוּ֙ עֹֽולָלִ֔ים וְיֹנְקֵ֖י שָׁדָ֑יִם יֵצֵ֤א חָתָן֙ מֵֽחֶדְרֹ֔ו וְכַלָּ֖ה מֵחֻפָּתָֽהּ 
Tanakh.Prophets.Joel.2.17
בֵּ֤ין הָאוּלָם֙ וְלַמִּזְבֵּ֔חַ יִבְכּוּ֙ הַכֹּ֣הֲנִ֔ים מְשָׁרְתֵ֖י יְהוָ֑ה__יְהוָה וְֽיֹאמְר֞וּ ח֧וּסָה יְהוָ֣ה__יְהוָה עַל עַמֶּ֗ךָ וְאַל תִּתֵּ֨ן נַחֲלָתְךָ֤ לְחֶרְפָּה֙ לִמְשׇׁל בָּ֣ם גֹּויִ֔ם לָ֚מָּה יֹאמְר֣וּ בָֽעַמִּ֔ים אַיֵּ֖ה אֱלֹהֵיהֶֽם 
Tanakh.Prophets.Joel.2.18
וַיְקַנֵּ֥א יְהוָ֖ה__יְהוָה לְאַרְצֹ֑ו וַיַּחְמֹ֖ל עַל עַמֹּֽו 
Tanakh.Prophets.Joel.2.19
וַיַּ֨עַן יְהוָ֜ה__יְהוָה וַיֹּ֣אמֶר לְעַמֹּ֗ו הִנְנִ֨י שֹׁלֵ֤חַ לָכֶם֙ אֶת הַדָּגָן֙ וְהַתִּירֹ֣ושׁ וְהַיִּצְהָ֔ר וּשְׂבַעְתֶּ֖ם אֹתֹ֑ו וְלֹא אֶתֵּ֨ן אֶתְכֶ֥ם עֹ֛וד חֶרְפָּ֖ה בַּגֹּויִֽם 
Tanakh.Prophets.Joel.2.20
וְֽאֶת הַצְּפֹונִ֞י אַרְחִ֣יק מֵעֲלֵיכֶ֗ם וְהִדַּחְתִּיו֮ אֶל אֶ֣רֶץ צִיָּ֣ה וּשְׁמָמָה֒ אֶת פָּנָ֗יו אֶל הַיָּם֙ הַקַּדְמֹנִ֔י וְסֹפֹ֖ו אֶל הַיָּ֣ם הָאַֽחֲרֹ֑ון וְעָלָ֣ה בׇאְשֹׁ֗ו וְתַ֨עַל֙ צַחֲנָתֹ֔ו כִּ֥י הִגְדִּ֖יל לַעֲשֹֽׂות 
Tanakh.Prophets.Joel.2.21
אַל תִּֽירְאִ֖י אֲדָמָ֑ה גִּ֣ילִי וּשְׂמָ֔חִי כִּֽי הִגְדִּ֥יל יְהוָ֖ה__יְהוָה לַעֲשֹֽׂות 
Tanakh.Prophets.Joel.2.22
אַל תִּֽירְאוּ֙ בַּהֲמֹ֣ות שָׂדַ֔י כִּ֥י דָשְׁא֖וּ נְאֹ֣ות מִדְבָּ֑ר כִּֽי עֵץ֙ נָשָׂ֣א פִרְיֹ֔ו תְּאֵנָ֥ה וָגֶ֖פֶן נָתְנ֥וּ חֵילָֽם 
Tanakh.Prophets.Joel.2.23
וּבְנֵ֣י צִיֹּ֗ון__צִיֹּון גִּ֤ילוּ וְשִׂמְחוּ֙ בַּיהוָ֣ה__יְהוָה אֱלֹֽהֵיכֶ֔ם כִּֽי נָתַ֥ן לָכֶ֛ם אֶת הַמֹּורֶ֖ה לִצְדָקָ֑ה וַיֹּ֣ורֶד לָכֶ֗ם גֶּ֛שֶׁם מֹורֶ֥ה וּמַלְקֹ֖ושׁ בָּרִאשֹֽׁון 
Tanakh.Prophets.Joel.2.24
וּמָלְא֥וּ הַגֳּרָנֹ֖ות בָּ֑ר וְהֵשִׁ֥יקוּ הַיְקָבִ֖ים תִּירֹ֥ושׁ וְיִצְהָֽר 
Tanakh.Prophets.Joel.2.25
וְשִׁלַּמְתִּ֤י לָכֶם֙ אֶת הַשָּׁנִ֔ים אֲשֶׁר֙ אָכַ֣ל הָֽאַרְבֶּ֔ה הַיֶּ֖לֶק וְהֶחָסִ֣יל וְהַגָּזָ֑ם חֵילִי֙ הַגָּדֹ֔ול אֲשֶׁ֥ר שִׁלַּ֖חְתִּי בָּכֶֽם 
Tanakh.Prophets.Joel.2.26
וַאֲכַלְתֶּ֤ם אָכֹול֙ וְשָׂבֹ֔ועַ וְהִלַּלְתֶּ֗ם אֶת שֵׁ֤ם יְהוָה֙__יְהוָה אֱלֹ֣הֵיכֶ֔ם אֲשֶׁר עָשָׂ֥ה עִמָּכֶ֖ם לְהַפְלִ֑יא וְלֹא יֵבֹ֥שׁוּ עַמִּ֖י לְעֹולָֽם 
Tanakh.Prophets.Joel.2.27
וִידַעְתֶּ֗ם כִּ֣י בְקֶ֤רֶב יִשְׂרָאֵל֙__יִשְׂרָאֵל אָ֔נִי וַאֲנִ֛י יְהוָ֥ה__יְהוָה אֱלֹהֵיכֶ֖ם וְאֵ֣ין עֹ֑וד וְלֹא יֵבֹ֥שׁוּ עַמִּ֖י לְעֹולָֽם 
Tanakh.Prophets.Joel.3.1
וְהָיָ֣ה אַֽחֲרֵי כֵ֗ן אֶשְׁפֹּ֤וךְ אֶת רוּחִי֙ עַל כׇּל בָּשָׂ֔ר וְנִבְּא֖וּ בְּנֵיכֶ֣ם וּבְנֹֽותֵיכֶ֑ם זִקְנֵיכֶם֙ חֲלֹמֹ֣ות יַחֲלֹמ֔וּן בַּח֣וּרֵיכֶ֔ם חֶזְיֹנֹ֖ות יִרְאֽוּ 
Tanakh.Prophets.Joel.3.2
וְגַ֥ם עַל הָֽעֲבָדִ֖ים וְעַל הַשְּׁפָחֹ֑ות בַּיָּמִ֣ים הָהֵ֔מָּה אֶשְׁפֹּ֖וךְ אֶת רוּחִֽי 
Tanakh.Prophets.Joel.3.3
וְנָֽתַתִּי֙ מֹֽופְתִ֔ים בַּשָּׁמַ֖יִם וּבָאָ֑רֶץ דָּ֣ם וָאֵ֔שׁ וְתִֽימֲרֹ֖ות עָשָֽׁן 
Tanakh.Prophets.Joel.3.4
הַשֶּׁ֨מֶשׁ֙ יֵהָפֵ֣ךְ לְחֹ֔שֶׁךְ וְהַיָּרֵ֖חַ לְדָ֑ם לִפְנֵ֗י בֹּ֚וא יֹ֣ום יְהוָ֔ה__יְהוָה הַגָּדֹ֖ול וְהַנֹּורָֽא 
Tanakh.Prophets.Joel.3.5
וְהָיָ֗ה כֹּ֧ל אֲשֶׁר יִקְרָ֛א בְּשֵׁ֥ם יְהוָ֖ה__יְהוָה יִמָּלֵ֑ט כִּ֠י בְּהַר צִיֹּ֨ון__צִיֹּון וּבִירוּשָׁלִַ֜ם__יְרוּשָׁלִַם תִּֽהְיֶ֣ה פְלֵיטָ֗ה כַּֽאֲשֶׁר֙ אָמַ֣ר יְהוָ֔ה__יְהוָה וּבַ֨שְּׂרִידִ֔ים אֲשֶׁ֥ר יְהוָ֖ה__יְהוָה קֹרֵֽא 
Tanakh.Prophets.Joel.4.1
כִּ֗י הִנֵּ֛ה בַּיָּמִ֥ים הָהֵ֖מָּה וּבָעֵ֣ת הַהִ֑יא אֲשֶׁ֥ר אָשִׁ֛יב אֶת שְׁב֥וּת יְהוּדָ֖ה__יְהוּדָה וִירוּשָׁלִָֽם__יְרוּשָׁלִַם 
Tanakh.Prophets.Joel.4.2
וְקִבַּצְתִּי֙ אֶת כׇּל הַגֹּויִ֔ם וְהֹ֣ורַדְתִּ֔ים אֶל עֵ֖מֶק יְהֹֽושָׁפָ֑ט__יְהֹושָׁפָט וְנִשְׁפַּטְתִּ֨י עִמָּ֜ם שָׁ֗ם עַל עַמִּ֨י וְנַחֲלָתִ֤י יִשְׂרָאֵל֙__יִשְׂרָאֵל אֲשֶׁ֣ר פִּזְּר֣וּ בַגֹּויִ֔ם וְאֶת אַרְצִ֖י חִלֵּֽקוּ 
Tanakh.Prophets.Joel.4.3
וְאֶל עַמִּ֖י יַדּ֣וּ גֹורָ֑ל וַיִּתְּנ֤וּ הַיֶּ֨לֶד֙ בַּזֹּונָ֔ה וְהַיַּלְדָּ֛ה מָכְר֥וּ בַיַּ֖יִן וַיִּשְׁתּֽוּ 
Tanakh.Prophets.Joel.4.4
וְ֠גַם מָה אַתֶּ֥ם לִי֙ צֹ֣ר__צֹר וְצִידֹ֔ון__צִידֹון וְכֹ֖ל גְּלִילֹ֣ות פְּלָ֑שֶׁת__פְּלֶשֶׁת הַגְּמ֗וּל אַתֶּם֙ מְשַׁלְּמִ֣ים עָלָ֔י וְאִם גֹּמְלִ֤ים אַתֶּם֙ עָלַ֔י קַ֣ל מְהֵרָ֔ה אָשִׁ֥יב גְּמֻלְכֶ֖ם בְּרֹאשְׁכֶֽם 
Tanakh.Prophets.Joel.4.5
אֲשֶׁר כַּסְפִּ֥י וּזְהָבִ֖י לְקַחְתֶּ֑ם וּמַֽחֲמַדַּי֙ הַטֹּבִ֔ים הֲבֵאתֶ֖ם לְהֵיכְלֵיכֶֽם 
Tanakh.Prophets.Joel.4.6
וּבְנֵ֤י יְהוּדָה֙__יְהוּדָה וּבְנֵ֣י יְרוּשָׁלִַ֔ם__יְרוּשָׁלִַם מְכַרְתֶּ֖ם לִבְנֵ֣י הַיְּוָנִ֑ים לְמַ֥עַן הַרְחִיקָ֖ם מֵעַ֥ל גְּבוּלָֽם 
Tanakh.Prophets.Joel.4.7
הִנְנִ֣י מְעִירָ֔ם מִן הַ֨מָּקֹ֔ום אֲשֶׁר מְכַרְתֶּ֥ם אֹתָ֖ם שָׁ֑מָּה וַהֲשִׁבֹתִ֥י גְמֻלְכֶ֖ם בְּרֹאשְׁכֶֽם 
Tanakh.Prophets.Joel.4.8
וּמָכַרְתִּ֞י אֶת בְּנֵיכֶ֣ם וְאֶת בְּנֹֽותֵיכֶ֗ם בְּיַד֙ בְּנֵ֣י יְהוּדָ֔ה__יְהוּדָה וּמְכָר֥וּם לִשְׁבָאיִ֖ם__שְׁבָאִים אֶל גֹּ֣וי רָחֹ֑וק כִּ֥י יְהוָ֖ה__יְהוָה דִּבֵּֽר 
Tanakh.Prophets.Joel.4.9
קִרְאוּ זֹאת֙ בַּגֹּויִ֔ם קַדְּשׁ֖וּ מִלְחָמָ֑ה הָעִ֨ירוּ֙ הַגִּבֹּורִ֔ים יִגְּשׁ֣וּ יַֽעֲל֔וּ כֹּ֖ל אַנְשֵׁ֥י הַמִּלְחָמָֽה 
Tanakh.Prophets.Joel.4.10
כֹּ֤תּוּ אִתֵּיכֶם֙ לַֽחֲרָבֹ֔ות וּמַזְמְרֹֽתֵיכֶ֖ם לִרְמָחִ֑ים הַֽחַלָּ֔שׁ יֹאמַ֖ר גִּבֹּ֥ור אָֽנִי 
Tanakh.Prophets.Joel.4.11
ע֣וּשׁוּ וָבֹ֧אוּ כׇֽל הַגֹּויִ֛ם מִסָּבִ֖יב וְנִקְבָּ֑צוּ שָׁ֕מָּה הַֽנְחַ֥ת יְהוָ֖ה__יְהוָה גִּבֹּורֶֽיךָ 
Tanakh.Prophets.Joel.4.12
יֵעֹ֨ורוּ֙ וְיַעֲל֣וּ הַגֹּויִ֔ם אֶל עֵ֖מֶק יְהֹֽושָׁפָ֑ט__יְהֹושָׁפָט כִּ֣י שָׁ֗ם אֵשֵׁ֛ב לִשְׁפֹּ֥ט אֶת כׇּל הַגֹּויִ֖ם מִסָּבִֽיב 
Tanakh.Prophets.Joel.4.13
שִׁלְח֣וּ מַגָּ֔ל כִּ֥י בָשַׁ֖ל קָצִ֑יר בֹּ֤אֽוּ רְדוּ֙ כִּֽי מָ֣לְאָה גַּ֔ת הֵשִׁ֨יקוּ֙ הַיְקָבִ֔ים כִּ֥י רַבָּ֖ה רָעָתָֽם 
Tanakh.Prophets.Joel.4.14
הֲמֹונִ֣ים הֲמֹונִ֔ים בְּעֵ֖מֶק הֶֽחָר֑וּץ כִּ֤י קָרֹוב֙ יֹ֣ום יְהוָ֔ה__יְהוָה בְּעֵ֖מֶק הֶחָרֽוּץ 
Tanakh.Prophets.Joel.4.15
שֶׁ֥מֶשׁ וְיָרֵ֖חַ קָדָ֑רוּ וְכֹוכָבִ֖ים אָסְפ֥וּ נׇגְהָֽם 
Tanakh.Prophets.Joel.4.16
וַיהוָ֞ה__יְהוָה מִצִּיֹּ֣ון__צִיֹּון יִשְׁאָ֗ג וּמִירוּשָׁלִַ֨ם֙__יְרוּשָׁלִַם יִתֵּ֣ן קֹולֹ֔ו וְרָעֲשׁ֖וּ שָׁמַ֣יִם וָאָ֑רֶץ וַֽיהוָה֙__יְהוָה מַֽחֲסֶ֣ה לְעַמֹּ֔ו וּמָעֹ֖וז לִבְנֵ֥י יִשְׂרָאֵֽל__יִשְׂרָאֵל 
Tanakh.Prophets.Joel.4.17
וִֽידַעְתֶּ֗ם כִּ֣י אֲנִ֤י יְהוָה֙__יְהוָה אֱלֹ֣הֵיכֶ֔ם שֹׁכֵ֖ן בְּצִיֹּ֣ון__צִיֹּון הַר קׇדְשִׁ֑י וְהָיְתָ֤ה יְרוּשָׁלִַ֨ם֙__יְרוּשָׁלִַם קֹ֔דֶשׁ וְזָרִ֥ים לֹא יַֽעַבְרוּ בָ֖הּ עֹֽוד 
Tanakh.Prophets.Joel.4.18
וְהָיָה֩ בַיֹּ֨ום הַה֜וּא יִטְּפ֧וּ הֶהָרִ֣ים עָסִ֗יס וְהַגְּבָעֹות֙ תֵּלַ֣כְנָה חָלָ֔ב וְכׇל אֲפִיקֵ֥י יְהוּדָ֖ה__יְהוּדָה יֵ֣לְכוּ מָ֑יִם וּמַעְיָ֗ן מִבֵּ֤ית יְהוָה֙__יְהוָה יֵצֵ֔א וְהִשְׁקָ֖ה אֶת נַ֥חַל הַשִּׁטִּֽים__שִׁטִּים 
Tanakh.Prophets.Joel.4.19
מִצְרַ֨יִם֙__מִצְרַיִם לִשְׁמָמָ֣ה תִֽהְיֶ֔ה וֶאֱדֹ֕ום__אֱדֹום לְמִדְבַּ֥ר שְׁמָמָ֖ה תִּֽהְיֶ֑ה מֵֽחֲמַס֙ בְּנֵ֣י יְהוּדָ֔ה__יְהוּדָה אֲשֶׁר שָׁפְכ֥וּ דָם נָקִ֖יא בְּאַרְצָֽם 
Tanakh.Prophets.Joel.4.20
וִיהוּדָ֖ה__יְהוּדָה לְעֹולָ֣ם תֵּשֵׁ֑ב וִירוּשָׁלִַ֖ם__יְרוּשָׁלִַם לְדֹ֥ור וָדֹֽור 
Tanakh.Prophets.Joel.4.21
וְנִקֵּ֖יתִי דָּמָ֣ם לֹֽא נִקֵּ֑יתִי וַֽיהוָ֖ה__יְהוָה שֹׁכֵ֥ן בְּצִיֹּֽון__צִיֹּון 
Tanakh.Prophets.Joel.1.1
דְּבַר יְהוָה֙__יְהוָה אֲשֶׁ֣ר הָיָ֔ה אֶל יֹואֵ֖ל__יֹואֵל בֶּן פְּתוּאֵֽל__פְּתוּאֵל 
Tanakh.Prophets.Joel.1.2
שִׁמְעוּ זֹאת֙ הַזְּקֵנִ֔ים וְהַֽאֲזִ֔ינוּ כֹּ֖ל יֹושְׁבֵ֣י הָאָ֑רֶץ הֶהָ֤יְתָה זֹּאת֙ בִּֽימֵיכֶ֔ם וְאִ֖ם בִּימֵ֥י אֲבֹֽתֵיכֶֽם 
Tanakh.Prophets.Joel.1.3
עָלֶ֖יהָ לִבְנֵיכֶ֣ם סַפֵּ֑רוּ וּבְנֵיכֶם֙ לִבְנֵיהֶ֔ם וּבְנֵיהֶ֖ם לְדֹ֥ור אַחֵֽר 
Tanakh.Prophets.Joel.1.4
יֶ֤תֶר הַגָּזָם֙ אָכַ֣ל הָֽאַרְבֶּ֔ה וְיֶ֥תֶר הָאַרְבֶּ֖ה אָכַ֣ל הַיָּ֑לֶק וְיֶ֣תֶר הַיֶּ֔לֶק אָכַ֖ל הֶחָסִֽיל 
Tanakh.Prophets.Joel.1.5
הָקִ֤יצוּ שִׁכֹּורִים֙ וּבְכ֔וּ וְהֵילִ֖לוּ כׇּל שֹׁ֣תֵי יָ֑יִן עַל עָסִ֕יס כִּ֥י נִכְרַ֖ת מִפִּיכֶֽם 
Tanakh.Prophets.Joel.1.6
כִּֽי גֹוי֙ עָלָ֣ה עַל אַרְצִ֔י עָצ֖וּם וְאֵ֣ין מִסְפָּ֑ר שִׁנָּיו֙ שִׁנֵּ֣י אַרְיֵ֔ה וּֽמְתַלְּעֹ֥ות לָבִ֖יא לֹֽו 
Tanakh.Prophets.Joel.1.7
שָׂ֤ם גַּפְנִי֙ לְשַׁמָּ֔ה וּתְאֵנָתִ֖י לִקְצָפָ֑ה חָשֹׂ֤ף חֲשָׂפָהּ֙ וְהִשְׁלִ֔יךְ הִלְבִּ֖ינוּ שָׂרִיגֶֽיהָ 
Tanakh.Prophets.Joel.1.8
אֱלִ֕י כִּבְתוּלָ֥ה חֲגֻֽרַת שַׂ֖ק עַל בַּ֥עַל נְעוּרֶֽיהָ 
Tanakh.Prophets.Joel.1.9
הׇכְרַ֥ת מִנְחָ֛ה וָנֶ֖סֶךְ מִבֵּ֣ית יְהוָ֑ה__יְהוָה אָֽבְלוּ֙ הַכֹּ֣הֲנִ֔ים מְשָׁרְתֵ֖י יְהוָֽה__יְהוָה 
Tanakh.Prophets.Joel.1.10
שֻׁדַּ֣ד שָׂדֶ֔ה אָבְלָ֖ה אֲדָמָ֑ה כִּ֚י שֻׁדַּ֣ד דָּגָ֔ן הֹובִ֥ישׁ תִּירֹ֖ושׁ אֻמְלַ֥ל יִצְהָֽר 
Tanakh.Prophets.Joel.1.11
הֹבִ֣ישׁוּ אִכָּרִ֗ים הֵילִ֨ילוּ֙ כֹּֽרְמִ֔ים עַל חִטָּ֖ה וְעַל שְׂעֹרָ֑ה כִּ֥י אָבַ֖ד קְצִ֥יר שָׂדֶֽה 
Tanakh.Prophets.Joel.1.12
הַגֶּ֣פֶן הֹובִ֔ישָׁה וְהַתְּאֵנָ֖ה אֻמְלָ֑לָה רִמֹּ֞ון גַּם תָּמָ֣ר וְתַפּ֗וּחַ כׇּל עֲצֵ֤י הַשָּׂדֶה֙ יָבֵ֔שׁוּ כִּֽי הֹבִ֥ישׁ שָׂשֹׂ֖ון מִן בְּנֵ֥י אָדָֽם 
Tanakh.Prophets.Joel.1.13
חִגְר֨וּ וְסִפְד֜וּ הַכֹּהֲנִ֗ים הֵילִ֨ילוּ֙ מְשָׁרְתֵ֣י מִזְבֵּ֔חַ בֹּ֚אוּ לִ֣ינוּ בַשַּׂקִּ֔ים מְשָׁרְתֵ֖י אֱלֹהָ֑י כִּ֥י נִמְנַ֛ע מִבֵּ֥ית אֱלֹהֵיכֶ֖ם מִנְחָ֥ה וָנָֽסֶךְ 
Tanakh.Prophets.Joel.1.14
קַדְּשׁוּ צֹום֙ קִרְא֣וּ עֲצָרָ֔ה אִסְפ֣וּ זְקֵנִ֗ים כֹּ֚ל יֹשְׁבֵ֣י הָאָ֔רֶץ בֵּ֖ית יְהוָ֣ה__יְהוָה אֱלֹהֵיכֶ֑ם וְזַעֲק֖וּ אֶל יְהוָֽה__יְהוָה 
Tanakh.Prophets.Joel.1.15
אֲהָ֖הּ לַיֹּ֑ום כִּ֤י קָרֹוב֙ יֹ֣ום יְהוָ֔ה__יְהוָה וּכְשֹׁ֖ד מִשַׁדַּ֥י__שַׁדַּי יָבֹֽוא 
Tanakh.Prophets.Joel.1.16
הֲלֹ֛וא נֶ֥גֶד עֵינֵ֖ינוּ אֹ֣כֶל נִכְרָ֑ת מִבֵּ֥ית אֱלֹהֵ֖ינוּ שִׂמְחָ֥ה וָגִֽיל 
Tanakh.Prophets.Joel.1.17
עָבְשׁ֣וּ פְרֻדֹ֗ות תַּ֚חַת מֶגְרְפֹ֣תֵיהֶ֔ם נָשַׁ֨מּוּ֙ אֹֽצָרֹ֔ות נֶהֶרְס֖וּ מַמְּגֻרֹ֑ות כִּ֥י הֹבִ֖ישׁ דָּגָֽן 
Tanakh.Prophets.Joel.1.18
מַה נֶּאֶנְחָ֣ה בְהֵמָ֗ה נָבֹ֨כוּ֙ עֶדְרֵ֣י בָקָ֔ר כִּ֛י אֵ֥ין מִרְעֶ֖ה לָהֶ֑ם גַּם עֶדְרֵ֥י הַצֹּ֖אן נֶאְשָֽׁמוּ 
Tanakh.Prophets.Joel.1.19
אֵלֶ֥יךָ יְהוָ֖ה__יְהוָה אֶקְרָ֑א כִּ֣י אֵ֗שׁ אָֽכְלָה֙ נְאֹ֣ות מִדְבָּ֔ר וְלֶ֣הָבָ֔ה לִהֲטָ֖ה כׇּל עֲצֵ֥י הַשָּׂדֶֽה 
Tanakh.Prophets.Joel.1.20
גַּם בַּהֲמֹ֥ות שָׂדֶ֖ה תַּעֲרֹ֣וג אֵלֶ֑יךָ כִּ֤י יָֽבְשׁוּ֙ אֲפִ֣יקֵי מָ֔יִם וְאֵ֕שׁ אָכְלָ֖ה נְאֹ֥ות הַמִּדְבָּֽר 
Tanakh.Prophets.Joel.2.1
תִּקְע֨וּ שֹׁופָ֜ר בְּצִיֹּ֗ון__צִיֹּון וְהָרִ֨יעוּ֙ בְּהַ֣ר קׇדְשִׁ֔י יִרְגְּז֕וּ כֹּ֖ל יֹשְׁבֵ֣י הָאָ֑רֶץ כִּֽי בָ֥א יֹום יְהוָ֖ה__יְהוָה כִּ֥י קָרֹֽוב 
Tanakh.Prophets.Joel.2.2
יֹ֧ום חֹ֣שֶׁךְ וַאֲפֵלָ֗ה יֹ֤ום עָנָן֙ וַעֲרָפֶ֔ל כְּשַׁ֖חַר פָּרֻ֣שׂ עַל הֶֽהָרִ֑ים עַ֚ם רַ֣ב וְעָצ֔וּם כָּמֹ֗הוּ לֹ֤א נִֽהְיָה֙ מִן הָ֣עֹולָ֔ם וְאַֽחֲרָיו֙ לֹ֣א יֹוסֵ֔ף עַד שְׁנֵ֖י דֹּ֥ור וָדֹֽור 
Tanakh.Prophets.Joel.2.3
לְפָנָיו֙ אָ֣כְלָה אֵ֔שׁ וְאַחֲרָ֖יו תְּלַהֵ֣ט לֶֽהָבָ֑ה כְּגַן עֵ֨דֶן__עֵדֶן הָאָ֜רֶץ לְפָנָ֗יו וְאַֽחֲרָיו֙ מִדְבַּ֣ר שְׁמָמָ֔ה וְגַם פְּלֵיטָ֖ה לֹא הָ֥יְתָה לֹּֽו 
Tanakh.Prophets.Joel.2.4
כְּמַרְאֵ֥ה סוּסִ֖ים מַרְאֵ֑הוּ וּכְפָרָשִׁ֖ים כֵּ֥ן יְרוּצֽוּן 
Tanakh.Prophets.Joel.2.5
כְּקֹ֣ול מַרְכָּבֹ֗ות עַל רָאשֵׁ֤י הֶֽהָרִים֙ יְרַקֵּד֔וּן כְּקֹול֙ לַ֣הַב אֵ֔שׁ אֹכְלָ֖ה קָ֑שׁ כְּעַ֣ם עָצ֔וּם עֱר֖וּךְ מִלְחָמָֽה 
Tanakh.Prophets.Joel.2.6
מִפָּנָ֖יו יָחִ֣ילוּ עַמִּ֑ים כׇּל פָּנִ֖ים קִבְּצ֥וּ פָארֽוּר 
Tanakh.Prophets.Joel.2.7
כְּגִבֹּורִ֣ים יְרֻצ֔וּן כְּאַנְשֵׁ֥י מִלְחָמָ֖ה יַעֲל֣וּ חֹומָ֑ה וְאִ֤ישׁ בִּדְרָכָיו֙ יֵֽלֵכ֔וּן וְלֹ֥א יְעַבְּט֖וּן אֹרְחֹותָֽם 
Tanakh.Prophets.Joel.2.8
וְאִ֤ישׁ אָחִיו֙ לֹ֣א יִדְחָק֔וּן גֶּ֥בֶר בִּמְסִלָּתֹ֖ו יֵֽלֵכ֑וּן וּבְעַ֥ד הַשֶּׁ֛לַח יִפֹּ֖לוּ לֹ֥א יִבְצָֽעוּ 
Tanakh.Prophets.Joel.2.9
בָּעִ֣יר יָשֹׁ֗קּוּ בַּֽחֹומָה֙ יְרֻצ֔וּן בַּבָּתִּ֖ים יַעֲל֑וּ בְּעַ֧ד הַחַלֹּונִ֛ים יָבֹ֖אוּ כַּגַּנָּֽב 
Tanakh.Prophets.Joel.2.10
לְפָנָיו֙ רָ֣גְזָה אֶ֔רֶץ רָעֲשׁ֖וּ שָׁמָ֑יִם שֶׁ֤מֶשׁ וְיָרֵ֨חַ֙ קָדָ֔רוּ וְכֹוכָבִ֖ים אָסְפ֥וּ נׇגְהָֽם 
Tanakh.Prophets.Joel.2.11
וַֽיהוָ֗ה__יְהוָה נָתַ֤ן קֹולֹו֙ לִפְנֵ֣י חֵילֹ֔ו כִּ֣י רַ֤ב מְאֹד֙ מַחֲנֵ֔הוּ כִּ֥י עָצ֖וּם עֹשֵׂ֣ה דְבָרֹ֑ו כִּֽי גָדֹ֧ול יֹום יְהוָ֛ה__יְהוָה וְנֹורָ֥א מְאֹ֖ד וּמִ֥י יְכִילֶֽנּוּ 
Tanakh.Prophets.Joel.2.12
וְגַם עַתָּה֙ נְאֻם יְהוָ֔ה__יְהוָה שֻׁ֥בוּ עָדַ֖י בְּכׇל לְבַבְכֶ֑ם וּבְצֹ֥ום וּבִבְכִ֖י וּבְמִסְפֵּֽד 
Tanakh.Prophets.Joel.2.13
וְקִרְע֤וּ לְבַבְכֶם֙ וְאַל בִּגְדֵיכֶ֔ם וְשׁ֖וּבוּ אֶל יְהוָ֣ה__יְהוָה אֱלֹֽהֵיכֶ֑ם כִּֽי חַנּ֤וּן וְרַחוּם֙ ה֔וּא אֶ֤רֶךְ אַפַּ֨יִם֙ וְרַב חֶ֔סֶד וְנִחָ֖ם עַל הָרָעָֽה 
Tanakh.Prophets.Joel.2.14
מִ֥י יֹודֵ֖עַ יָשׁ֣וּב וְנִחָ֑ם וְהִשְׁאִ֤יר אַֽחֲרָיו֙ בְּרָכָ֔ה מִנְחָ֣ה וָנֶ֔סֶךְ לַיהוָ֖ה__יְהוָה אֱלֹהֵיכֶֽם 
Tanakh.Prophets.Joel.2.15
תִּקְע֥וּ שֹׁופָ֖ר בְּצִיֹּ֑ון__צִיֹּון קַדְּשׁוּ צֹ֖ום קִרְא֥וּ עֲצָרָֽה 
Tanakh.Prophets.Joel.2.16
אִסְפוּ עָ֞ם קַדְּשׁ֤וּ קָהָל֙ קִבְצ֣וּ זְקֵנִ֔ים אִסְפוּ֙ עֹֽולָלִ֔ים וְיֹנְקֵ֖י שָׁדָ֑יִם יֵצֵ֤א חָתָן֙ מֵֽחֶדְרֹ֔ו וְכַלָּ֖ה מֵחֻפָּתָֽהּ 
Tanakh.Prophets.Joel.2.17
בֵּ֤ין הָאוּלָם֙ וְלַמִּזְבֵּ֔חַ יִבְכּוּ֙ הַכֹּ֣הֲנִ֔ים מְשָׁרְתֵ֖י יְהוָ֑ה__יְהוָה וְֽיֹאמְר֞וּ ח֧וּסָה יְהוָ֣ה__יְהוָה עַל עַמֶּ֗ךָ וְאַל תִּתֵּ֨ן נַחֲלָתְךָ֤ לְחֶרְפָּה֙ לִמְשׇׁל בָּ֣ם גֹּויִ֔ם לָ֚מָּה יֹאמְר֣וּ בָֽעַמִּ֔ים אַיֵּ֖ה אֱלֹהֵיהֶֽם 
Tanakh.Prophets.Joel.2.18
וַיְקַנֵּ֥א יְהוָ֖ה__יְהוָה לְאַרְצֹ֑ו וַיַּחְמֹ֖ל עַל עַמֹּֽו 
Tanakh.Prophets.Joel.2.19
וַיַּ֨עַן יְהוָ֜ה__יְהוָה וַיֹּ֣אמֶר לְעַמֹּ֗ו הִנְנִ֨י שֹׁלֵ֤חַ לָכֶם֙ אֶת הַדָּגָן֙ וְהַתִּירֹ֣ושׁ וְהַיִּצְהָ֔ר וּשְׂבַעְתֶּ֖ם אֹתֹ֑ו וְלֹא אֶתֵּ֨ן אֶתְכֶ֥ם עֹ֛וד חֶרְפָּ֖ה בַּגֹּויִֽם 
Tanakh.Prophets.Joel.2.20
וְֽאֶת הַצְּפֹונִ֞י אַרְחִ֣יק מֵעֲלֵיכֶ֗ם וְהִדַּחְתִּיו֮ אֶל אֶ֣רֶץ צִיָּ֣ה וּשְׁמָמָה֒ אֶת פָּנָ֗יו אֶל הַיָּם֙ הַקַּדְמֹנִ֔י וְסֹפֹ֖ו אֶל הַיָּ֣ם הָאַֽחֲרֹ֑ון וְעָלָ֣ה בׇאְשֹׁ֗ו וְתַ֨עַל֙ צַחֲנָתֹ֔ו כִּ֥י הִגְדִּ֖יל לַעֲשֹֽׂות 
Tanakh.Prophets.Joel.2.21
אַל תִּֽירְאִ֖י אֲדָמָ֑ה גִּ֣ילִי וּשְׂמָ֔חִי כִּֽי הִגְדִּ֥יל יְהוָ֖ה__יְהוָה לַעֲשֹֽׂות 
Tanakh.Prophets.Joel.2.22
אַל תִּֽירְאוּ֙ בַּהֲמֹ֣ות שָׂדַ֔י כִּ֥י דָשְׁא֖וּ נְאֹ֣ות מִדְבָּ֑ר כִּֽי עֵץ֙ נָשָׂ֣א פִרְיֹ֔ו תְּאֵנָ֥ה וָגֶ֖פֶן נָתְנ֥וּ חֵילָֽם 
Tanakh.Prophets.Joel.2.23
וּבְנֵ֣י צִיֹּ֗ון__צִיֹּון גִּ֤ילוּ וְשִׂמְחוּ֙ בַּיהוָ֣ה__יְהוָה אֱלֹֽהֵיכֶ֔ם כִּֽי נָתַ֥ן לָכֶ֛ם אֶת הַמֹּורֶ֖ה לִצְדָקָ֑ה וַיֹּ֣ורֶד לָכֶ֗ם גֶּ֛שֶׁם מֹורֶ֥ה וּמַלְקֹ֖ושׁ בָּרִאשֹֽׁון 
Tanakh.Prophets.Joel.2.24
וּמָלְא֥וּ הַגֳּרָנֹ֖ות בָּ֑ר וְהֵשִׁ֥יקוּ הַיְקָבִ֖ים תִּירֹ֥ושׁ וְיִצְהָֽר 
Tanakh.Prophets.Joel.2.25
וְשִׁלַּמְתִּ֤י לָכֶם֙ אֶת הַשָּׁנִ֔ים אֲשֶׁר֙ אָכַ֣ל הָֽאַרְבֶּ֔ה הַיֶּ֖לֶק וְהֶחָסִ֣יל וְהַגָּזָ֑ם חֵילִי֙ הַגָּדֹ֔ול אֲשֶׁ֥ר שִׁלַּ֖חְתִּי בָּכֶֽם 
Tanakh.Prophets.Joel.2.26
וַאֲכַלְתֶּ֤ם אָכֹול֙ וְשָׂבֹ֔ועַ וְהִלַּלְתֶּ֗ם אֶת שֵׁ֤ם יְהוָה֙__יְהוָה אֱלֹ֣הֵיכֶ֔ם אֲשֶׁר עָשָׂ֥ה עִמָּכֶ֖ם לְהַפְלִ֑יא וְלֹא יֵבֹ֥שׁוּ עַמִּ֖י לְעֹולָֽם 
Tanakh.Prophets.Joel.2.27
וִידַעְתֶּ֗ם כִּ֣י בְקֶ֤רֶב יִשְׂרָאֵל֙__יִשְׂרָאֵל אָ֔נִי וַאֲנִ֛י יְהוָ֥ה__יְהוָה אֱלֹהֵיכֶ֖ם וְאֵ֣ין עֹ֑וד וְלֹא יֵבֹ֥שׁוּ עַמִּ֖י לְעֹולָֽם 
Tanakh.Prophets.Joel.3.1
וְהָיָ֣ה אַֽחֲרֵי כֵ֗ן אֶשְׁפֹּ֤וךְ אֶת רוּחִי֙ עַל כׇּל בָּשָׂ֔ר וְנִבְּא֖וּ בְּנֵיכֶ֣ם וּבְנֹֽותֵיכֶ֑ם זִקְנֵיכֶם֙ חֲלֹמֹ֣ות יַחֲלֹמ֔וּן בַּח֣וּרֵיכֶ֔ם חֶזְיֹנֹ֖ות יִרְאֽוּ 
Tanakh.Prophets.Joel.3.2
וְגַ֥ם עַל הָֽעֲבָדִ֖ים וְעַל הַשְּׁפָחֹ֑ות בַּיָּמִ֣ים הָהֵ֔מָּה אֶשְׁפֹּ֖וךְ אֶת רוּחִֽי 
Tanakh.Prophets.Joel.3.3
וְנָֽתַתִּי֙ מֹֽופְתִ֔ים בַּשָּׁמַ֖יִם וּבָאָ֑רֶץ דָּ֣ם וָאֵ֔שׁ וְתִֽימֲרֹ֖ות עָשָֽׁן 
Tanakh.Prophets.Joel.3.4
הַשֶּׁ֨מֶשׁ֙ יֵהָפֵ֣ךְ לְחֹ֔שֶׁךְ וְהַיָּרֵ֖חַ לְדָ֑ם לִפְנֵ֗י בֹּ֚וא יֹ֣ום יְהוָ֔ה__יְהוָה הַגָּדֹ֖ול וְהַנֹּורָֽא 
Tanakh.Prophets.Joel.3.5
וְהָיָ֗ה כֹּ֧ל אֲשֶׁר יִקְרָ֛א בְּשֵׁ֥ם יְהוָ֖ה__יְהוָה יִמָּלֵ֑ט כִּ֠י בְּהַר צִיֹּ֨ון__צִיֹּון וּבִירוּשָׁלִַ֜ם__יְרוּשָׁלִַם תִּֽהְיֶ֣ה פְלֵיטָ֗ה כַּֽאֲשֶׁר֙ אָמַ֣ר יְהוָ֔ה__יְהוָה וּבַ֨שְּׂרִידִ֔ים אֲשֶׁ֥ר יְהוָ֖ה__יְהוָה קֹרֵֽא 
Tanakh.Prophets.Joel.4.1
כִּ֗י הִנֵּ֛ה בַּיָּמִ֥ים הָהֵ֖מָּה וּבָעֵ֣ת הַהִ֑יא אֲשֶׁ֥ר אָשִׁ֛יב אֶת שְׁב֥וּת יְהוּדָ֖ה__יְהוּדָה וִירוּשָׁלִָֽם__יְרוּשָׁלִַם 
Tanakh.Prophets.Joel.4.2
וְקִבַּצְתִּי֙ אֶת כׇּל הַגֹּויִ֔ם וְהֹ֣ורַדְתִּ֔ים אֶל עֵ֖מֶק יְהֹֽושָׁפָ֑ט__יְהֹושָׁפָט וְנִשְׁפַּטְתִּ֨י עִמָּ֜ם שָׁ֗ם עַל עַמִּ֨י וְנַחֲלָתִ֤י יִשְׂרָאֵל֙__יִשְׂרָאֵל אֲשֶׁ֣ר פִּזְּר֣וּ בַגֹּויִ֔ם וְאֶת אַרְצִ֖י חִלֵּֽקוּ 
Tanakh.Prophets.Joel.4.3
וְאֶל עַמִּ֖י יַדּ֣וּ גֹורָ֑ל וַיִּתְּנ֤וּ הַיֶּ֨לֶד֙ בַּזֹּונָ֔ה וְהַיַּלְדָּ֛ה מָכְר֥וּ בַיַּ֖יִן וַיִּשְׁתּֽוּ 
Tanakh.Prophets.Joel.4.4
וְ֠גַם מָה אַתֶּ֥ם לִי֙ צֹ֣ר__צֹר וְצִידֹ֔ון__צִידֹון וְכֹ֖ל גְּלִילֹ֣ות פְּלָ֑שֶׁת__פְּלֶשֶׁת הַגְּמ֗וּל אַתֶּם֙ מְשַׁלְּמִ֣ים עָלָ֔י וְאִם גֹּמְלִ֤ים אַתֶּם֙ עָלַ֔י קַ֣ל מְהֵרָ֔ה אָשִׁ֥יב גְּמֻלְכֶ֖ם בְּרֹאשְׁכֶֽם 
Tanakh.Prophets.Joel.4.5
אֲשֶׁר כַּסְפִּ֥י וּזְהָבִ֖י לְקַחְתֶּ֑ם וּמַֽחֲמַדַּי֙ הַטֹּבִ֔ים הֲבֵאתֶ֖ם לְהֵיכְלֵיכֶֽם 
Tanakh.Prophets.Joel.4.6
וּבְנֵ֤י יְהוּדָה֙__יְהוּדָה וּבְנֵ֣י יְרוּשָׁלִַ֔ם__יְרוּשָׁלִַם מְכַרְתֶּ֖ם לִבְנֵ֣י הַיְּוָנִ֑ים לְמַ֥עַן הַרְחִיקָ֖ם מֵעַ֥ל גְּבוּלָֽם 
Tanakh.Prophets.Joel.4.7
הִנְנִ֣י מְעִירָ֔ם מִן הַ֨מָּקֹ֔ום אֲשֶׁר מְכַרְתֶּ֥ם אֹתָ֖ם שָׁ֑מָּה וַהֲשִׁבֹתִ֥י גְמֻלְכֶ֖ם בְּרֹאשְׁכֶֽם 
Tanakh.Prophets.Joel.4.8
וּמָכַרְתִּ֞י אֶת בְּנֵיכֶ֣ם וְאֶת בְּנֹֽותֵיכֶ֗ם בְּיַד֙ בְּנֵ֣י יְהוּדָ֔ה__יְהוּדָה וּמְכָר֥וּם לִשְׁבָאיִ֖ם__שְׁבָאִים אֶל גֹּ֣וי רָחֹ֑וק כִּ֥י יְהוָ֖ה__יְהוָה דִּבֵּֽר 
Tanakh.Prophets.Joel.4.9
קִרְאוּ זֹאת֙ בַּגֹּויִ֔ם קַדְּשׁ֖וּ מִלְחָמָ֑ה הָעִ֨ירוּ֙ הַגִּבֹּורִ֔ים יִגְּשׁ֣וּ יַֽעֲל֔וּ כֹּ֖ל אַנְשֵׁ֥י הַמִּלְחָמָֽה 
Tanakh.Prophets.Joel.4.10
כֹּ֤תּוּ אִתֵּיכֶם֙ לַֽחֲרָבֹ֔ות וּמַזְמְרֹֽתֵיכֶ֖ם לִרְמָחִ֑ים הַֽחַלָּ֔שׁ יֹאמַ֖ר גִּבֹּ֥ור אָֽנִי 
Tanakh.Prophets.Joel.4.11
ע֣וּשׁוּ וָבֹ֧אוּ כׇֽל הַגֹּויִ֛ם מִסָּבִ֖יב וְנִקְבָּ֑צוּ שָׁ֕מָּה הַֽנְחַ֥ת יְהוָ֖ה__יְהוָה גִּבֹּורֶֽיךָ 
Tanakh.Prophets.Joel.4.12
יֵעֹ֨ורוּ֙ וְיַעֲל֣וּ הַגֹּויִ֔ם אֶל עֵ֖מֶק יְהֹֽושָׁפָ֑ט__יְהֹושָׁפָט כִּ֣י שָׁ֗ם אֵשֵׁ֛ב לִשְׁפֹּ֥ט אֶת כׇּל הַגֹּויִ֖ם מִסָּבִֽיב 
Tanakh.Prophets.Joel.4.13
שִׁלְח֣וּ מַגָּ֔ל כִּ֥י בָשַׁ֖ל קָצִ֑יר בֹּ֤אֽוּ רְדוּ֙ כִּֽי מָ֣לְאָה גַּ֔ת הֵשִׁ֨יקוּ֙ הַיְקָבִ֔ים כִּ֥י רַבָּ֖ה רָעָתָֽם 
Tanakh.Prophets.Joel.4.14
הֲמֹונִ֣ים הֲמֹונִ֔ים בְּעֵ֖מֶק הֶֽחָר֑וּץ כִּ֤י קָרֹוב֙ יֹ֣ום יְהוָ֔ה__יְהוָה בְּעֵ֖מֶק הֶחָרֽוּץ 
Tanakh.Prophets.Joel.4.15
שֶׁ֥מֶשׁ וְיָרֵ֖חַ קָדָ֑רוּ וְכֹוכָבִ֖ים אָסְפ֥וּ נׇגְהָֽם 
Tanakh.Prophets.Joel.4.16
וַיהוָ֞ה__יְהוָה מִצִּיֹּ֣ון__צִיֹּון יִשְׁאָ֗ג וּמִירוּשָׁלִַ֨ם֙__יְרוּשָׁלִַם יִתֵּ֣ן קֹולֹ֔ו וְרָעֲשׁ֖וּ שָׁמַ֣יִם וָאָ֑רֶץ וַֽיהוָה֙__יְהוָה מַֽחֲסֶ֣ה לְעַמֹּ֔ו וּמָעֹ֖וז לִבְנֵ֥י יִשְׂרָאֵֽל__יִשְׂרָאֵל 
Tanakh.Prophets.Joel.4.17
וִֽידַעְתֶּ֗ם כִּ֣י אֲנִ֤י יְהוָה֙__יְהוָה אֱלֹ֣הֵיכֶ֔ם שֹׁכֵ֖ן בְּצִיֹּ֣ון__צִיֹּון הַר קׇדְשִׁ֑י וְהָיְתָ֤ה יְרוּשָׁלִַ֨ם֙__יְרוּשָׁלִַם קֹ֔דֶשׁ וְזָרִ֥ים לֹא יַֽעַבְרוּ בָ֖הּ עֹֽוד 
Tanakh.Prophets.Joel.4.18
וְהָיָה֩ בַיֹּ֨ום הַה֜וּא יִטְּפ֧וּ הֶהָרִ֣ים עָסִ֗יס וְהַגְּבָעֹות֙ תֵּלַ֣כְנָה חָלָ֔ב וְכׇל אֲפִיקֵ֥י יְהוּדָ֖ה__יְהוּדָה יֵ֣לְכוּ מָ֑יִם וּמַעְיָ֗ן מִבֵּ֤ית יְהוָה֙__יְהוָה יֵצֵ֔א וְהִשְׁקָ֖ה אֶת נַ֥חַל הַשִּׁטִּֽים__שִׁטִּים 
Tanakh.Prophets.Joel.4.19
מִצְרַ֨יִם֙__מִצְרַיִם לִשְׁמָמָ֣ה תִֽהְיֶ֔ה וֶאֱדֹ֕ום__אֱדֹום לְמִדְבַּ֥ר שְׁמָמָ֖ה תִּֽהְיֶ֑ה מֵֽחֲמַס֙ בְּנֵ֣י יְהוּדָ֔ה__יְהוּדָה אֲשֶׁר שָׁפְכ֥וּ דָם נָקִ֖יא בְּאַרְצָֽם 
Tanakh.Prophets.Joel.4.20
וִיהוּדָ֖ה__יְהוּדָה לְעֹולָ֣ם תֵּשֵׁ֑ב וִירוּשָׁלִַ֖ם__יְרוּשָׁלִַם לְדֹ֥ור וָדֹֽור 
Tanakh.Prophets.Joel.4.21
וְנִקֵּ֖יתִי דָּמָ֣ם לֹֽא נִקֵּ֑יתִי וַֽיהוָ֖ה__יְהוָה שֹׁכֵ֥ן בְּצִיֹּֽון__צִיֹּון 
Tanakh.Prophets.Joel.1.1
דְּבַר יְהוָה֙__יְהוָה אֲשֶׁ֣ר הָיָ֔ה אֶל יֹואֵ֖ל__יֹואֵל בֶּן פְּתוּאֵֽל__פְּתוּאֵל 
Tanakh.Prophets.Joel.1.2
שִׁמְעוּ זֹאת֙ הַזְּקֵנִ֔ים וְהַֽאֲזִ֔ינוּ כֹּ֖ל יֹושְׁבֵ֣י הָאָ֑רֶץ הֶהָ֤יְתָה זֹּאת֙ בִּֽימֵיכֶ֔ם וְאִ֖ם בִּימֵ֥י אֲבֹֽתֵיכֶֽם 
Tanakh.Prophets.Joel.1.3
עָלֶ֖יהָ לִבְנֵיכֶ֣ם סַפֵּ֑רוּ וּבְנֵיכֶם֙ לִבְנֵיהֶ֔ם וּבְנֵיהֶ֖ם לְדֹ֥ור אַחֵֽר 
Tanakh.Prophets.Joel.1.4
יֶ֤תֶר הַגָּזָם֙ אָכַ֣ל הָֽאַרְבֶּ֔ה וְיֶ֥תֶר הָאַרְבֶּ֖ה אָכַ֣ל הַיָּ֑לֶק וְיֶ֣תֶר הַיֶּ֔לֶק אָכַ֖ל הֶחָסִֽיל 
Tanakh.Prophets.Joel.1.5
הָקִ֤יצוּ שִׁכֹּורִים֙ וּבְכ֔וּ וְהֵילִ֖לוּ כׇּל שֹׁ֣תֵי יָ֑יִן עַל עָסִ֕יס כִּ֥י נִכְרַ֖ת מִפִּיכֶֽם 
Tanakh.Prophets.Joel.1.6
כִּֽי גֹוי֙ עָלָ֣ה עַל אַרְצִ֔י עָצ֖וּם וְאֵ֣ין מִסְפָּ֑ר שִׁנָּיו֙ שִׁנֵּ֣י אַרְיֵ֔ה וּֽמְתַלְּעֹ֥ות לָבִ֖יא לֹֽו 
Tanakh.Prophets.Joel.1.7
שָׂ֤ם גַּפְנִי֙ לְשַׁמָּ֔ה וּתְאֵנָתִ֖י לִקְצָפָ֑ה חָשֹׂ֤ף חֲשָׂפָהּ֙ וְהִשְׁלִ֔יךְ הִלְבִּ֖ינוּ שָׂרִיגֶֽיהָ 
Tanakh.Prophets.Joel.1.8
אֱלִ֕י כִּבְתוּלָ֥ה חֲגֻֽרַת שַׂ֖ק עַל בַּ֥עַל נְעוּרֶֽיהָ 
Tanakh.Prophets.Joel.1.9
הׇכְרַ֥ת מִנְחָ֛ה וָנֶ֖סֶךְ מִבֵּ֣ית יְהוָ֑ה__יְהוָה אָֽבְלוּ֙ הַכֹּ֣הֲנִ֔ים מְשָׁרְתֵ֖י יְהוָֽה__יְהוָה 
Tanakh.Prophets.Joel.1.10
שֻׁדַּ֣ד שָׂדֶ֔ה אָבְלָ֖ה אֲדָמָ֑ה כִּ֚י שֻׁדַּ֣ד דָּגָ֔ן הֹובִ֥ישׁ תִּירֹ֖ושׁ אֻמְלַ֥ל יִצְהָֽר 
Tanakh.Prophets.Joel.1.11
הֹבִ֣ישׁוּ אִכָּרִ֗ים הֵילִ֨ילוּ֙ כֹּֽרְמִ֔ים עַל חִטָּ֖ה וְעַל שְׂעֹרָ֑ה כִּ֥י אָבַ֖ד קְצִ֥יר שָׂדֶֽה 
Tanakh.Prophets.Joel.1.12
הַגֶּ֣פֶן הֹובִ֔ישָׁה וְהַתְּאֵנָ֖ה אֻמְלָ֑לָה רִמֹּ֞ון גַּם תָּמָ֣ר וְתַפּ֗וּחַ כׇּל עֲצֵ֤י הַשָּׂדֶה֙ יָבֵ֔שׁוּ כִּֽי הֹבִ֥ישׁ שָׂשֹׂ֖ון מִן בְּנֵ֥י אָדָֽם 
Tanakh.Prophets.Joel.1.13
חִגְר֨וּ וְסִפְד֜וּ הַכֹּהֲנִ֗ים הֵילִ֨ילוּ֙ מְשָׁרְתֵ֣י מִזְבֵּ֔חַ בֹּ֚אוּ לִ֣ינוּ בַשַּׂקִּ֔ים מְשָׁרְתֵ֖י אֱלֹהָ֑י כִּ֥י נִמְנַ֛ע מִבֵּ֥ית אֱלֹהֵיכֶ֖ם מִנְחָ֥ה וָנָֽסֶךְ 
Tanakh.Prophets.Joel.1.14
קַדְּשׁוּ צֹום֙ קִרְא֣וּ עֲצָרָ֔ה אִסְפ֣וּ זְקֵנִ֗ים כֹּ֚ל יֹשְׁבֵ֣י הָאָ֔רֶץ בֵּ֖ית יְהוָ֣ה__יְהוָה אֱלֹהֵיכֶ֑ם וְזַעֲק֖וּ אֶל יְהוָֽה__יְהוָה 
Tanakh.Prophets.Joel.1.15
אֲהָ֖הּ לַיֹּ֑ום כִּ֤י קָרֹוב֙ יֹ֣ום יְהוָ֔ה__יְהוָה וּכְשֹׁ֖ד מִשַׁדַּ֥י__שַׁדַּי יָבֹֽוא 
Tanakh.Prophets.Joel.1.16
הֲלֹ֛וא נֶ֥גֶד עֵינֵ֖ינוּ אֹ֣כֶל נִכְרָ֑ת מִבֵּ֥ית אֱלֹהֵ֖ינוּ שִׂמְחָ֥ה וָגִֽיל 
Tanakh.Prophets.Joel.1.17
עָבְשׁ֣וּ פְרֻדֹ֗ות תַּ֚חַת מֶגְרְפֹ֣תֵיהֶ֔ם נָשַׁ֨מּוּ֙ אֹֽצָרֹ֔ות נֶהֶרְס֖וּ מַמְּגֻרֹ֑ות כִּ֥י הֹבִ֖ישׁ דָּגָֽן 
Tanakh.Prophets.Joel.1.18
מַה נֶּאֶנְחָ֣ה בְהֵמָ֗ה נָבֹ֨כוּ֙ עֶדְרֵ֣י בָקָ֔ר כִּ֛י אֵ֥ין מִרְעֶ֖ה לָהֶ֑ם גַּם עֶדְרֵ֥י הַצֹּ֖אן נֶאְשָֽׁמוּ 
Tanakh.Prophets.Joel.1.19
אֵלֶ֥יךָ יְהוָ֖ה__יְהוָה אֶקְרָ֑א כִּ֣י אֵ֗שׁ אָֽכְלָה֙ נְאֹ֣ות מִדְבָּ֔ר וְלֶ֣הָבָ֔ה לִהֲטָ֖ה כׇּל עֲצֵ֥י הַשָּׂדֶֽה 
Tanakh.Prophets.Joel.1.20
גַּם בַּהֲמֹ֥ות שָׂדֶ֖ה תַּעֲרֹ֣וג אֵלֶ֑יךָ כִּ֤י יָֽבְשׁוּ֙ אֲפִ֣יקֵי מָ֔יִם וְאֵ֕שׁ אָכְלָ֖ה נְאֹ֥ות הַמִּדְבָּֽר 
Tanakh.Prophets.Joel.2.1
תִּקְע֨וּ שֹׁופָ֜ר בְּצִיֹּ֗ון__צִיֹּון וְהָרִ֨יעוּ֙ בְּהַ֣ר קׇדְשִׁ֔י יִרְגְּז֕וּ כֹּ֖ל יֹשְׁבֵ֣י הָאָ֑רֶץ כִּֽי בָ֥א יֹום יְהוָ֖ה__יְהוָה כִּ֥י קָרֹֽוב 
Tanakh.Prophets.Joel.2.2
יֹ֧ום חֹ֣שֶׁךְ וַאֲפֵלָ֗ה יֹ֤ום עָנָן֙ וַעֲרָפֶ֔ל כְּשַׁ֖חַר פָּרֻ֣שׂ עַל הֶֽהָרִ֑ים עַ֚ם רַ֣ב וְעָצ֔וּם כָּמֹ֗הוּ לֹ֤א נִֽהְיָה֙ מִן הָ֣עֹולָ֔ם וְאַֽחֲרָיו֙ לֹ֣א יֹוסֵ֔ף עַד שְׁנֵ֖י דֹּ֥ור וָדֹֽור 
Tanakh.Prophets.Joel.2.3
לְפָנָיו֙ אָ֣כְלָה אֵ֔שׁ וְאַחֲרָ֖יו תְּלַהֵ֣ט לֶֽהָבָ֑ה כְּגַן עֵ֨דֶן__עֵדֶן הָאָ֜רֶץ לְפָנָ֗יו וְאַֽחֲרָיו֙ מִדְבַּ֣ר שְׁמָמָ֔ה וְגַם פְּלֵיטָ֖ה לֹא הָ֥יְתָה לֹּֽו 
Tanakh.Prophets.Joel.2.4
כְּמַרְאֵ֥ה סוּסִ֖ים מַרְאֵ֑הוּ וּכְפָרָשִׁ֖ים כֵּ֥ן יְרוּצֽוּן 
Tanakh.Prophets.Joel.2.5
כְּקֹ֣ול מַרְכָּבֹ֗ות עַל רָאשֵׁ֤י הֶֽהָרִים֙ יְרַקֵּד֔וּן כְּקֹול֙ לַ֣הַב אֵ֔שׁ אֹכְלָ֖ה קָ֑שׁ כְּעַ֣ם עָצ֔וּם עֱר֖וּךְ מִלְחָמָֽה 
Tanakh.Prophets.Joel.2.6
מִפָּנָ֖יו יָחִ֣ילוּ עַמִּ֑ים כׇּל פָּנִ֖ים קִבְּצ֥וּ פָארֽוּר 
Tanakh.Prophets.Joel.2.7
כְּגִבֹּורִ֣ים יְרֻצ֔וּן כְּאַנְשֵׁ֥י מִלְחָמָ֖ה יַעֲל֣וּ חֹומָ֑ה וְאִ֤ישׁ בִּדְרָכָיו֙ יֵֽלֵכ֔וּן וְלֹ֥א יְעַבְּט֖וּן אֹרְחֹותָֽם 
Tanakh.Prophets.Joel.2.8
וְאִ֤ישׁ אָחִיו֙ לֹ֣א יִדְחָק֔וּן גֶּ֥בֶר בִּמְסִלָּתֹ֖ו יֵֽלֵכ֑וּן וּבְעַ֥ד הַשֶּׁ֛לַח יִפֹּ֖לוּ לֹ֥א יִבְצָֽעוּ 
Tanakh.Prophets.Joel.2.9
בָּעִ֣יר יָשֹׁ֗קּוּ בַּֽחֹומָה֙ יְרֻצ֔וּן בַּבָּתִּ֖ים יַעֲל֑וּ בְּעַ֧ד הַחַלֹּונִ֛ים יָבֹ֖אוּ כַּגַּנָּֽב 
Tanakh.Prophets.Joel.2.10
לְפָנָיו֙ רָ֣גְזָה אֶ֔רֶץ רָעֲשׁ֖וּ שָׁמָ֑יִם שֶׁ֤מֶשׁ וְיָרֵ֨חַ֙ קָדָ֔רוּ וְכֹוכָבִ֖ים אָסְפ֥וּ נׇגְהָֽם 
Tanakh.Prophets.Joel.2.11
וַֽיהוָ֗ה__יְהוָה נָתַ֤ן קֹולֹו֙ לִפְנֵ֣י חֵילֹ֔ו כִּ֣י רַ֤ב מְאֹד֙ מַחֲנֵ֔הוּ כִּ֥י עָצ֖וּם עֹשֵׂ֣ה דְבָרֹ֑ו כִּֽי גָדֹ֧ול יֹום יְהוָ֛ה__יְהוָה וְנֹורָ֥א מְאֹ֖ד וּמִ֥י יְכִילֶֽנּוּ 
Tanakh.Prophets.Joel.2.12
וְגַם עַתָּה֙ נְאֻם יְהוָ֔ה__יְהוָה שֻׁ֥בוּ עָדַ֖י בְּכׇל לְבַבְכֶ֑ם וּבְצֹ֥ום וּבִבְכִ֖י וּבְמִסְפֵּֽד 
Tanakh.Prophets.Joel.2.13
וְקִרְע֤וּ לְבַבְכֶם֙ וְאַל בִּגְדֵיכֶ֔ם וְשׁ֖וּבוּ אֶל יְהוָ֣ה__יְהוָה אֱלֹֽהֵיכֶ֑ם כִּֽי חַנּ֤וּן וְרַחוּם֙ ה֔וּא אֶ֤רֶךְ אַפַּ֨יִם֙ וְרַב חֶ֔סֶד וְנִחָ֖ם עַל הָרָעָֽה 
Tanakh.Prophets.Joel.2.14
מִ֥י יֹודֵ֖עַ יָשׁ֣וּב וְנִחָ֑ם וְהִשְׁאִ֤יר אַֽחֲרָיו֙ בְּרָכָ֔ה מִנְחָ֣ה וָנֶ֔סֶךְ לַיהוָ֖ה__יְהוָה אֱלֹהֵיכֶֽם 
Tanakh.Prophets.Joel.2.15
תִּקְע֥וּ שֹׁופָ֖ר בְּצִיֹּ֑ון__צִיֹּון קַדְּשׁוּ צֹ֖ום קִרְא֥וּ עֲצָרָֽה 
Tanakh.Prophets.Joel.2.16
אִסְפוּ עָ֞ם קַדְּשׁ֤וּ קָהָל֙ קִבְצ֣וּ זְקֵנִ֔ים אִסְפוּ֙ עֹֽולָלִ֔ים וְיֹנְקֵ֖י שָׁדָ֑יִם יֵצֵ֤א חָתָן֙ מֵֽחֶדְרֹ֔ו וְכַלָּ֖ה מֵחֻפָּתָֽהּ 
Tanakh.Prophets.Joel.2.17
בֵּ֤ין הָאוּלָם֙ וְלַמִּזְבֵּ֔חַ יִבְכּוּ֙ הַכֹּ֣הֲנִ֔ים מְשָׁרְתֵ֖י יְהוָ֑ה__יְהוָה וְֽיֹאמְר֞וּ ח֧וּסָה יְהוָ֣ה__יְהוָה עַל עַמֶּ֗ךָ וְאַל תִּתֵּ֨ן נַחֲלָתְךָ֤ לְחֶרְפָּה֙ לִמְשׇׁל בָּ֣ם גֹּויִ֔ם לָ֚מָּה יֹאמְר֣וּ בָֽעַמִּ֔ים אַיֵּ֖ה אֱלֹהֵיהֶֽם 
Tanakh.Prophets.Joel.2.18
וַיְקַנֵּ֥א יְהוָ֖ה__יְהוָה לְאַרְצֹ֑ו וַיַּחְמֹ֖ל עַל עַמֹּֽו 
Tanakh.Prophets.Joel.2.19
וַיַּ֨עַן יְהוָ֜ה__יְהוָה וַיֹּ֣אמֶר לְעַמֹּ֗ו הִנְנִ֨י שֹׁלֵ֤חַ לָכֶם֙ אֶת הַדָּגָן֙ וְהַתִּירֹ֣ושׁ וְהַיִּצְהָ֔ר וּשְׂבַעְתֶּ֖ם אֹתֹ֑ו וְלֹא אֶתֵּ֨ן אֶתְכֶ֥ם עֹ֛וד חֶרְפָּ֖ה בַּגֹּויִֽם 
Tanakh.Prophets.Joel.2.20
וְֽאֶת הַצְּפֹונִ֞י אַרְחִ֣יק מֵעֲלֵיכֶ֗ם וְהִדַּחְתִּיו֮ אֶל אֶ֣רֶץ צִיָּ֣ה וּשְׁמָמָה֒ אֶת פָּנָ֗יו אֶל הַיָּם֙ הַקַּדְמֹנִ֔י וְסֹפֹ֖ו אֶל הַיָּ֣ם הָאַֽחֲרֹ֑ון וְעָלָ֣ה בׇאְשֹׁ֗ו וְתַ֨עַל֙ צַחֲנָתֹ֔ו כִּ֥י הִגְדִּ֖יל לַעֲשֹֽׂות 
Tanakh.Prophets.Joel.2.21
אַל תִּֽירְאִ֖י אֲדָמָ֑ה גִּ֣ילִי וּשְׂמָ֔חִי כִּֽי הִגְדִּ֥יל יְהוָ֖ה__יְהוָה לַעֲשֹֽׂות 
Tanakh.Prophets.Joel.2.22
אַל תִּֽירְאוּ֙ בַּהֲמֹ֣ות שָׂדַ֔י כִּ֥י דָשְׁא֖וּ נְאֹ֣ות מִדְבָּ֑ר כִּֽי עֵץ֙ נָשָׂ֣א פִרְיֹ֔ו תְּאֵנָ֥ה וָגֶ֖פֶן נָתְנ֥וּ חֵילָֽם 
Tanakh.Prophets.Joel.2.23
וּבְנֵ֣י צִיֹּ֗ון__צִיֹּון גִּ֤ילוּ וְשִׂמְחוּ֙ בַּיהוָ֣ה__יְהוָה אֱלֹֽהֵיכֶ֔ם כִּֽי נָתַ֥ן לָכֶ֛ם אֶת הַמֹּורֶ֖ה לִצְדָקָ֑ה וַיֹּ֣ורֶד לָכֶ֗ם גֶּ֛שֶׁם מֹורֶ֥ה וּמַלְקֹ֖ושׁ בָּרִאשֹֽׁון 
Tanakh.Prophets.Joel.2.24
וּמָלְא֥וּ הַגֳּרָנֹ֖ות בָּ֑ר וְהֵשִׁ֥יקוּ הַיְקָבִ֖ים תִּירֹ֥ושׁ וְיִצְהָֽר 
Tanakh.Prophets.Joel.2.25
וְשִׁלַּמְתִּ֤י לָכֶם֙ אֶת הַשָּׁנִ֔ים אֲשֶׁר֙ אָכַ֣ל הָֽאַרְבֶּ֔ה הַיֶּ֖לֶק וְהֶחָסִ֣יל וְהַגָּזָ֑ם חֵילִי֙ הַגָּדֹ֔ול אֲשֶׁ֥ר שִׁלַּ֖חְתִּי בָּכֶֽם 
Tanakh.Prophets.Joel.2.26
וַאֲכַלְתֶּ֤ם אָכֹול֙ וְשָׂבֹ֔ועַ וְהִלַּלְתֶּ֗ם אֶת שֵׁ֤ם יְהוָה֙__יְהוָה אֱלֹ֣הֵיכֶ֔ם אֲשֶׁר עָשָׂ֥ה עִמָּכֶ֖ם לְהַפְלִ֑יא וְלֹא יֵבֹ֥שׁוּ עַמִּ֖י לְעֹולָֽם 
Tanakh.Prophets.Joel.2.27
וִידַעְתֶּ֗ם כִּ֣י בְקֶ֤רֶב יִשְׂרָאֵל֙__יִשְׂרָאֵל אָ֔נִי וַאֲנִ֛י יְהוָ֥ה__יְהוָה אֱלֹהֵיכֶ֖ם וְאֵ֣ין עֹ֑וד וְלֹא יֵבֹ֥שׁוּ עַמִּ֖י לְעֹולָֽם 
Tanakh.Prophets.Joel.3.1
וְהָיָ֣ה אַֽחֲרֵי כֵ֗ן אֶשְׁפֹּ֤וךְ אֶת רוּחִי֙ עַל כׇּל בָּשָׂ֔ר וְנִבְּא֖וּ בְּנֵיכֶ֣ם וּבְנֹֽותֵיכֶ֑ם זִקְנֵיכֶם֙ חֲלֹמֹ֣ות יַחֲלֹמ֔וּן בַּח֣וּרֵיכֶ֔ם חֶזְיֹנֹ֖ות יִרְאֽוּ 
Tanakh.Prophets.Joel.3.2
וְגַ֥ם עַל הָֽעֲבָדִ֖ים וְעַל הַשְּׁפָחֹ֑ות בַּיָּמִ֣ים הָהֵ֔מָּה אֶשְׁפֹּ֖וךְ אֶת רוּחִֽי 
Tanakh.Prophets.Joel.3.3
וְנָֽתַתִּי֙ מֹֽופְתִ֔ים בַּשָּׁמַ֖יִם וּבָאָ֑רֶץ דָּ֣ם וָאֵ֔שׁ וְתִֽימֲרֹ֖ות עָשָֽׁן 
Tanakh.Prophets.Joel.3.4
הַשֶּׁ֨מֶשׁ֙ יֵהָפֵ֣ךְ לְחֹ֔שֶׁךְ וְהַיָּרֵ֖חַ לְדָ֑ם לִפְנֵ֗י בֹּ֚וא יֹ֣ום יְהוָ֔ה__יְהוָה הַגָּדֹ֖ול וְהַנֹּורָֽא 
Tanakh.Prophets.Joel.3.5
וְהָיָ֗ה כֹּ֧ל אֲשֶׁר יִקְרָ֛א בְּשֵׁ֥ם יְהוָ֖ה__יְהוָה יִמָּלֵ֑ט כִּ֠י בְּהַר צִיֹּ֨ון__צִיֹּון וּבִירוּשָׁלִַ֜ם__יְרוּשָׁלִַם תִּֽהְיֶ֣ה פְלֵיטָ֗ה כַּֽאֲשֶׁר֙ אָמַ֣ר יְהוָ֔ה__יְהוָה וּבַ֨שְּׂרִידִ֔ים אֲשֶׁ֥ר יְהוָ֖ה__יְהוָה קֹרֵֽא 
Tanakh.Prophets.Joel.4.1
כִּ֗י הִנֵּ֛ה בַּיָּמִ֥ים הָהֵ֖מָּה וּבָעֵ֣ת הַהִ֑יא אֲשֶׁ֥ר אָשִׁ֛יב אֶת שְׁב֥וּת יְהוּדָ֖ה__יְהוּדָה וִירוּשָׁלִָֽם__יְרוּשָׁלִַם 
Tanakh.Prophets.Joel.4.2
וְקִבַּצְתִּי֙ אֶת כׇּל הַגֹּויִ֔ם וְהֹ֣ורַדְתִּ֔ים אֶל עֵ֖מֶק יְהֹֽושָׁפָ֑ט__יְהֹושָׁפָט וְנִשְׁפַּטְתִּ֨י עִמָּ֜ם שָׁ֗ם עַל עַמִּ֨י וְנַחֲלָתִ֤י יִשְׂרָאֵל֙__יִשְׂרָאֵל אֲשֶׁ֣ר פִּזְּר֣וּ בַגֹּויִ֔ם וְאֶת אַרְצִ֖י חִלֵּֽקוּ 
Tanakh.Prophets.Joel.4.3
וְאֶל עַמִּ֖י יַדּ֣וּ גֹורָ֑ל וַיִּתְּנ֤וּ הַיֶּ֨לֶד֙ בַּזֹּונָ֔ה וְהַיַּלְדָּ֛ה מָכְר֥וּ בַיַּ֖יִן וַיִּשְׁתּֽוּ 
Tanakh.Prophets.Joel.4.4
וְ֠גַם מָה אַתֶּ֥ם לִי֙ צֹ֣ר__צֹר וְצִידֹ֔ון__צִידֹון וְכֹ֖ל גְּלִילֹ֣ות פְּלָ֑שֶׁת__פְּלֶשֶׁת הַגְּמ֗וּל אַתֶּם֙ מְשַׁלְּמִ֣ים עָלָ֔י וְאִם גֹּמְלִ֤ים אַתֶּם֙ עָלַ֔י קַ֣ל מְהֵרָ֔ה אָשִׁ֥יב גְּמֻלְכֶ֖ם בְּרֹאשְׁכֶֽם 
Tanakh.Prophets.Joel.4.5
אֲשֶׁר כַּסְפִּ֥י וּזְהָבִ֖י לְקַחְתֶּ֑ם וּמַֽחֲמַדַּי֙ הַטֹּבִ֔ים הֲבֵאתֶ֖ם לְהֵיכְלֵיכֶֽם 
Tanakh.Prophets.Joel.4.6
וּבְנֵ֤י יְהוּדָה֙__יְהוּדָה וּבְנֵ֣י יְרוּשָׁלִַ֔ם__יְרוּשָׁלִַם מְכַרְתֶּ֖ם לִבְנֵ֣י הַיְּוָנִ֑ים לְמַ֥עַן הַרְחִיקָ֖ם מֵעַ֥ל גְּבוּלָֽם 
Tanakh.Prophets.Joel.4.7
הִנְנִ֣י מְעִירָ֔ם מִן הַ֨מָּקֹ֔ום אֲשֶׁר מְכַרְתֶּ֥ם אֹתָ֖ם שָׁ֑מָּה וַהֲשִׁבֹתִ֥י גְמֻלְכֶ֖ם בְּרֹאשְׁכֶֽם 
Tanakh.Prophets.Joel.4.8
וּמָכַרְתִּ֞י אֶת בְּנֵיכֶ֣ם וְאֶת בְּנֹֽותֵיכֶ֗ם בְּיַד֙ בְּנֵ֣י יְהוּדָ֔ה__יְהוּדָה וּמְכָר֥וּם לִשְׁבָאיִ֖ם__שְׁבָאִים אֶל גֹּ֣וי רָחֹ֑וק כִּ֥י יְהוָ֖ה__יְהוָה דִּבֵּֽר 
Tanakh.Prophets.Joel.4.9
קִרְאוּ זֹאת֙ בַּגֹּויִ֔ם קַדְּשׁ֖וּ מִלְחָמָ֑ה הָעִ֨ירוּ֙ הַגִּבֹּורִ֔ים יִגְּשׁ֣וּ יַֽעֲל֔וּ כֹּ֖ל אַנְשֵׁ֥י הַמִּלְחָמָֽה 
Tanakh.Prophets.Joel.4.10
כֹּ֤תּוּ אִתֵּיכֶם֙ לַֽחֲרָבֹ֔ות וּמַזְמְרֹֽתֵיכֶ֖ם לִרְמָחִ֑ים הַֽחַלָּ֔שׁ יֹאמַ֖ר גִּבֹּ֥ור אָֽנִי 
Tanakh.Prophets.Joel.4.11
ע֣וּשׁוּ וָבֹ֧אוּ כׇֽל הַגֹּויִ֛ם מִסָּבִ֖יב וְנִקְבָּ֑צוּ שָׁ֕מָּה הַֽנְחַ֥ת יְהוָ֖ה__יְהוָה גִּבֹּורֶֽיךָ 
Tanakh.Prophets.Joel.4.12
יֵעֹ֨ורוּ֙ וְיַעֲל֣וּ הַגֹּויִ֔ם אֶל עֵ֖מֶק יְהֹֽושָׁפָ֑ט__יְהֹושָׁפָט כִּ֣י שָׁ֗ם אֵשֵׁ֛ב לִשְׁפֹּ֥ט אֶת כׇּל הַגֹּויִ֖ם מִסָּבִֽיב 
Tanakh.Prophets.Joel.4.13
שִׁלְח֣וּ מַגָּ֔ל כִּ֥י בָשַׁ֖ל קָצִ֑יר בֹּ֤אֽוּ רְדוּ֙ כִּֽי מָ֣לְאָה גַּ֔ת הֵשִׁ֨יקוּ֙ הַיְקָבִ֔ים כִּ֥י רַבָּ֖ה רָעָתָֽם 
Tanakh.Prophets.Joel.4.14
הֲמֹונִ֣ים הֲמֹונִ֔ים בְּעֵ֖מֶק הֶֽחָר֑וּץ כִּ֤י קָרֹוב֙ יֹ֣ום יְהוָ֔ה__יְהוָה בְּעֵ֖מֶק הֶחָרֽוּץ 
Tanakh.Prophets.Joel.4.15
שֶׁ֥מֶשׁ וְיָרֵ֖חַ קָדָ֑רוּ וְכֹוכָבִ֖ים אָסְפ֥וּ נׇגְהָֽם 
Tanakh.Prophets.Joel.4.16
וַיהוָ֞ה__יְהוָה מִצִּיֹּ֣ון__צִיֹּון יִשְׁאָ֗ג וּמִירוּשָׁלִַ֨ם֙__יְרוּשָׁלִַם יִתֵּ֣ן קֹולֹ֔ו וְרָעֲשׁ֖וּ שָׁמַ֣יִם וָאָ֑רֶץ וַֽיהוָה֙__יְהוָה מַֽחֲסֶ֣ה לְעַמֹּ֔ו וּמָעֹ֖וז לִבְנֵ֥י יִשְׂרָאֵֽל__יִשְׂרָאֵל 
Tanakh.Prophets.Joel.4.17
וִֽידַעְתֶּ֗ם כִּ֣י אֲנִ֤י יְהוָה֙__יְהוָה אֱלֹ֣הֵיכֶ֔ם שֹׁכֵ֖ן בְּצִיֹּ֣ון__צִיֹּון הַר קׇדְשִׁ֑י וְהָיְתָ֤ה יְרוּשָׁלִַ֨ם֙__יְרוּשָׁלִַם קֹ֔דֶשׁ וְזָרִ֥ים לֹא יַֽעַבְרוּ בָ֖הּ עֹֽוד 
Tanakh.Prophets.Joel.4.18
וְהָיָה֩ בַיֹּ֨ום הַה֜וּא יִטְּפ֧וּ הֶהָרִ֣ים עָסִ֗יס וְהַגְּבָעֹות֙ תֵּלַ֣כְנָה חָלָ֔ב וְכׇל אֲפִיקֵ֥י יְהוּדָ֖ה__יְהוּדָה יֵ֣לְכוּ מָ֑יִם וּמַעְיָ֗ן מִבֵּ֤ית יְהוָה֙__יְהוָה יֵצֵ֔א וְהִשְׁקָ֖ה אֶת נַ֥חַל הַשִּׁטִּֽים__שִׁטִּים 
Tanakh.Prophets.Joel.4.19
מִצְרַ֨יִם֙__מִצְרַיִם לִשְׁמָמָ֣ה תִֽהְיֶ֔ה וֶאֱדֹ֕ום__אֱדֹום לְמִדְבַּ֥ר שְׁמָמָ֖ה תִּֽהְיֶ֑ה מֵֽחֲמַס֙ בְּנֵ֣י יְהוּדָ֔ה__יְהוּדָה אֲשֶׁר שָׁפְכ֥וּ דָם נָקִ֖יא בְּאַרְצָֽם 
Tanakh.Prophets.Joel.4.20
וִיהוּדָ֖ה__יְהוּדָה לְעֹולָ֣ם תֵּשֵׁ֑ב וִירוּשָׁלִַ֖ם__יְרוּשָׁלִַם לְדֹ֥ור וָדֹֽור 
Tanakh.Prophets.Joel.4.21
וְנִקֵּ֖יתִי דָּמָ֣ם לֹֽא נִקֵּ֑יתִי וַֽיהוָ֖ה__יְהוָה שֹׁכֵ֥ן בְּצִיֹּֽון__צִיֹּון 