
Tanakh.Prophets.Zephaniah.1.1
דְּבַר יְהוָ֣ה__יְהוָה אֲשֶׁ֣ר הָיָ֗ה אֶל צְפַנְיָה֙__צְפַנְיָה בֶּן כּוּשִׁ֣י__כּוּשִׁי בֶן גְּדַלְיָ֔ה__גְּדַלְיָה בֶּן אֲמַרְיָ֖ה__אֲמַרְיָה בֶּן חִזְקִיָּ֑ה__חִזְקִיָּה בִּימֵ֛י יֹאשִׁיָּ֥הוּ__יֹאשִׁיָּהוּ בֶן אָמֹ֖ון__אָמֹון מֶ֥לֶךְ יְהוּדָֽה__יְהוּדָה 
Tanakh.Prophets.Zephaniah.1.2
אָסֹ֨ף אָסֵ֜ף כֹּ֗ל מֵעַ֛ל פְּנֵ֥י הָאֲדָמָ֖ה נְאֻם יְהוָֽה__יְהוָה 
Tanakh.Prophets.Zephaniah.1.3
אָסֵ֨ף אָדָ֜ם וּבְהֵמָ֗ה אָסֵ֤ף עֹוף הַשָּׁמַ֨יִם֙ וּדְגֵ֣י הַיָּ֔ם וְהַמַּכְשֵׁלֹ֖ות אֶת הָרְשָׁעִ֑ים וְהִכְרַתִּ֣י אֶת הָאָדָ֗ם מֵעַ֛ל פְּנֵ֥י הָאֲדָמָ֖ה נְאֻם יְהוָֽה__יְהוָה 
Tanakh.Prophets.Zephaniah.1.4
וְנָטִ֤יתִי יָדִי֙ עַל יְהוּדָ֔ה__יְהוּדָה וְעַ֖ל כׇּל יֹושְׁבֵ֣י יְרוּשָׁלִָ֑ם__יְרוּשָׁלִַם וְהִכְרַתִּ֞י מִן הַמָּקֹ֤ום הַזֶּה֙ אֶת שְׁאָ֣ר הַבַּ֔עַל אֶת שֵׁ֥ם הַכְּמָרִ֖ים עִם הַכֹּהֲנִֽים 
Tanakh.Prophets.Zephaniah.1.5
וְאֶת הַמִּשְׁתַּחֲוִ֥ים עַל הַגַּגֹּ֖ות לִצְבָ֣א הַשָּׁמָ֑יִם וְאֶת הַמִּֽשְׁתַּחֲוִים֙ הַנִּשְׁבָּעִ֣ים לַֽיהוָ֔ה__יְהוָה וְהַנִּשְׁבָּעִ֖ים בְּמַלְכָּֽם__מַלְכָּם 
Tanakh.Prophets.Zephaniah.1.6
וְאֶת הַנְּסֹוגִ֖ים מֵאַחֲרֵ֣י יְהוָ֑ה__יְהוָה וַאֲשֶׁ֛ר לֹֽא בִקְשׁ֥וּ אֶת יְהוָ֖ה__יְהוָה וְלֹ֥א דְרָשֻֽׁהוּ 
Tanakh.Prophets.Zephaniah.1.7
הַ֕ס מִפְּנֵ֖י אֲדֹנָ֣י__אֲדֹנָי יְהוִ֑ה__יְהוָה כִּ֤י קָרֹוב֙ יֹ֣ום יְהוָ֔ה__יְהוָה כִּֽי הֵכִ֧ין יְהוָ֛ה__יְהוָה זֶ֖בַח הִקְדִּ֥ישׁ קְרֻאָֽיו 
Tanakh.Prophets.Zephaniah.1.8
וְהָיָ֗ה בְּיֹום֙ זֶ֣בַח יְהוָ֔ה__יְהוָה וּפָקַדְתִּ֥י עַל הַשָּׂרִ֖ים וְעַל בְּנֵ֣י הַמֶּ֑לֶךְ וְעַ֥ל כׇּל הַלֹּבְשִׁ֖ים מַלְבּ֥וּשׁ נׇכְרִֽי 
Tanakh.Prophets.Zephaniah.1.9
וּפָקַדְתִּ֗י עַ֧ל כׇּל הַדֹּולֵ֛ג עַל הַמִּפְתָּ֖ן בַּיֹּ֣ום הַה֑וּא הַֽמְמַלְאִ֛ים בֵּ֥ית אֲדֹנֵיהֶ֖ם חָמָ֥ס וּמִרְמָֽה 
Tanakh.Prophets.Zephaniah.1.10
וְהָיָה֩ בַיֹּ֨ום הַה֜וּא נְאֻם יְהוָ֗ה__יְהוָה קֹ֤ול צְעָקָה֙ מִשַּׁ֣עַר הַדָּגִ֔ים וִֽילָלָ֖ה מִן הַמִּשְׁנֶ֑ה וְשֶׁ֥בֶר גָּדֹ֖ול מֵהַגְּבָעֹֽות 
Tanakh.Prophets.Zephaniah.1.11
הֵילִ֖ילוּ יֹשְׁבֵ֣י הַמַּכְתֵּ֑שׁ כִּ֤י נִדְמָה֙ כׇּל עַ֣ם כְּנַ֔עַן__כְּנַעַן נִכְרְת֖וּ כׇּל נְטִ֥ילֵי כָֽסֶף 
Tanakh.Prophets.Zephaniah.1.12
וְהָיָה֙ בָּעֵ֣ת הַהִ֔יא אֲחַפֵּ֥שׂ אֶת יְרוּשָׁלִַ֖ם__יְרוּשָׁלִַם בַּנֵּרֹ֑ות וּפָקַדְתִּ֣י עַל הָאֲנָשִׁ֗ים הַקֹּֽפְאִים֙ עַל שִׁמְרֵיהֶ֔ם הָאֹֽמְרִים֙ בִּלְבָבָ֔ם לֹֽא יֵיטִ֥יב יְהוָ֖ה__יְהוָה וְלֹ֥א יָרֵֽעַ 
Tanakh.Prophets.Zephaniah.1.13
וְהָיָ֤ה חֵילָם֙ לִמְשִׁסָּ֔ה וּבָתֵּיהֶ֖ם לִשְׁמָמָ֑ה וּבָנ֤וּ בָתִּים֙ וְלֹ֣א יֵשֵׁ֔בוּ וְנָטְע֣וּ כְרָמִ֔ים וְלֹ֥א יִשְׁתּ֖וּ אֶת יֵינָֽם 
Tanakh.Prophets.Zephaniah.1.14
קָרֹ֤וב יֹום יְהוָה֙__יְהוָה הַגָּדֹ֔ול קָרֹ֖וב וּמַהֵ֣ר מְאֹ֑ד קֹ֚ול יֹ֣ום יְהוָ֔ה__יְהוָה מַ֥ר צֹרֵ֖חַ שָׁ֥ם גִּבֹּֽור 
Tanakh.Prophets.Zephaniah.1.15
יֹ֥ום עֶבְרָ֖ה הַיֹּ֣ום הַה֑וּא יֹ֧ום צָרָ֣ה וּמְצוּקָ֗ה יֹ֤ום שֹׁאָה֙ וּמְשֹׁואָ֔ה יֹ֥ום חֹ֨שֶׁךְ֙ וַאֲפֵלָ֔ה יֹ֥ום עָנָ֖ן וַעֲרָפֶֽל 
Tanakh.Prophets.Zephaniah.1.16
יֹ֥ום שֹׁופָ֖ר וּתְרוּעָ֑ה עַ֚ל הֶעָרִ֣ים הַבְּצֻרֹ֔ות וְעַ֖ל הַפִּנֹּ֥ות הַגְּבֹהֹֽות 
Tanakh.Prophets.Zephaniah.1.17
וַהֲצֵרֹ֣תִי לָאָדָ֗ם וְהָֽלְכוּ֙ כַּֽעִוְרִ֔ים כִּ֥י לַֽיהוָ֖ה__יְהוָה חָטָ֑אוּ וְשֻׁפַּ֤ךְ דָּמָם֙ כֶּֽעָפָ֔ר וּלְחֻמָ֖ם כַּגְּלָלִֽים 
Tanakh.Prophets.Zephaniah.1.18
גַּם כַּסְפָּ֨ם גַּם זְהָבָ֜ם לֹֽא יוּכַ֣ל לְהַצִּילָ֗ם בְּיֹום֙ עֶבְרַ֣ת יְהוָ֔ה__יְהוָה וּבְאֵשׁ֙ קִנְאָתֹ֔ו תֵּאָכֵ֖ל כׇּל הָאָ֑רֶץ כִּֽי כָלָ֤ה אַךְ נִבְהָלָה֙ יַֽעֲשֶׂ֔ה אֵ֥ת כׇּל יֹשְׁבֵ֖י הָאָֽרֶץ 
Tanakh.Prophets.Zephaniah.2.1
הִֽתְקֹושְׁשׁ֖וּ וָקֹ֑ושּׁוּ הַגֹּ֖וי לֹ֥א נִכְסָֽף 
Tanakh.Prophets.Zephaniah.2.2
בְּטֶ֨רֶם֙ לֶ֣דֶת חֹ֔ק כְּמֹ֖ץ עָ֣בַר יֹ֑ום בְּטֶ֣רֶם לֹא יָבֹ֣וא עֲלֵיכֶ֗ם חֲרֹון֙ אַף יְהוָ֔ה__יְהוָה בְּטֶ֨רֶם֙ לֹא יָבֹ֣וא עֲלֵיכֶ֔ם יֹ֖ום אַף יְהוָֽה__יְהוָה 
Tanakh.Prophets.Zephaniah.2.3
בַּקְּשׁ֤וּ אֶת יְהוָה֙__יְהוָה כׇּל עַנְוֵ֣י הָאָ֔רֶץ אֲשֶׁ֥ר מִשְׁפָּטֹ֖ו פָּעָ֑לוּ בַּקְּשׁוּ צֶ֨דֶק֙ בַּקְּשׁ֣וּ עֲנָוָ֔ה אוּלַי֙ תִּסָּ֣תְר֔וּ בְּיֹ֖ום אַף יְהוָֽה__יְהוָה 
Tanakh.Prophets.Zephaniah.2.4
כִּ֤י עַזָּה֙__עַזָּה עֲזוּבָ֣ה תִֽהְיֶ֔ה וְאַשְׁקְלֹ֖ון__אַשְׁקְלֹון לִשְׁמָמָ֑ה אַשְׁדֹּ֗וד__אַשְׁדֹּוד בַּֽצׇּהֳרַ֨יִם֙ יְגָ֣רְשׁ֔וּהָ וְעֶקְרֹ֖ון__עֶקְרֹון תֵּעָקֵֽר 
Tanakh.Prophets.Zephaniah.2.5
הֹ֗וי יֹֽשְׁבֵ֛י חֶ֥בֶל הַיָּ֖ם גֹּ֣וי כְּרֵתִ֑ים דְּבַר יְהוָ֣ה__יְהוָה עֲלֵיכֶ֗ם כְּנַ֨עַן֙__כְּנַעַן אֶ֣רֶץ פְּלִשְׁתִּ֔ים וְהַאֲבַדְתִּ֖יךְ מֵאֵ֥ין יֹושֵֽׁב 
Tanakh.Prophets.Zephaniah.2.6
וְֽהָיְתָ֞ה חֶ֣בֶל הַיָּ֗ם נְוֹ֛ת כְּרֹ֥ת רֹעִ֖ים וְגִדְרֹ֥ות צֹֽאן 
Tanakh.Prophets.Zephaniah.2.7
וְהָ֣יָה חֶ֗בֶל לִשְׁאֵרִ֛ית בֵּ֥ית יְהוּדָ֖ה__יְהוּדָה עֲלֵיהֶ֣ם יִרְע֑וּן בְּבָתֵּ֣י אַשְׁקְלֹ֗ון__אַשְׁקְלֹון בָּעֶ֨רֶב֙ יִרְבָּצ֔וּן כִּ֧י יִפְקְדֵ֛ם יְהוָ֥ה__יְהוָה אֱלֹהֵיהֶ֖ם וְשָׁ֥ב שְׁבִיתָֽם 
Tanakh.Prophets.Zephaniah.2.8
שָׁמַ֨עְתִּי֙ חֶרְפַּ֣ת מֹואָ֔ב__מֹואָב וְגִדּוּפֵ֖י בְּנֵ֣י עַמֹּ֑ון__עַמֹּון אֲשֶׁ֤ר חֵֽרְפוּ֙ אֶת עַמִּ֔י וַיַּגְדִּ֖ילוּ עַל גְּבוּלָֽם 
Tanakh.Prophets.Zephaniah.2.9
לָכֵ֣ן חַי אָ֡נִי נְאֻם֩ יְהוָ֨ה__יְהוָה צְבָאֹ֜ות אֱלֹהֵ֣י יִשְׂרָאֵ֗ל__יִשְׂרָאֵל כִּֽי מֹואָ֞ב__מֹואָב כִּסְדֹ֤ם__סְדֹם תִּֽהְיֶה֙ וּבְנֵ֤י עַמֹּון֙__עַמֹּון כַּֽעֲמֹרָ֔ה__עֲמֹרָה מִמְשַׁ֥ק חָר֛וּל וּמִכְרֵה מֶ֥לַח וּשְׁמָמָ֖ה עַד עֹולָ֑ם שְׁאֵרִ֤ית עַמִּי֙ יְבָזּ֔וּם וְיֶ֥תֶר גֹּויִ֖י יִנְחָלֽוּם 
Tanakh.Prophets.Zephaniah.2.10
זֹ֥את לָהֶ֖ם תַּ֣חַת גְּאֹונָ֑ם כִּ֤י חֵֽרְפוּ֙ וַיַּגְדִּ֔לוּ עַל עַ֖ם יְהוָ֥ה__יְהוָה צְבָאֹֽות 
Tanakh.Prophets.Zephaniah.2.11
נֹורָ֤א יְהוָה֙__יְהוָה עֲלֵיהֶ֔ם כִּ֣י רָזָ֔ה אֵ֖ת כׇּל אֱלֹהֵ֣י הָאָ֑רֶץ וְיִשְׁתַּֽחֲווּ לֹו֙ אִ֣ישׁ מִמְּקֹומֹ֔ו כֹּ֖ל אִיֵּ֥י הַגֹּויִֽם 
Tanakh.Prophets.Zephaniah.2.12
גַּם אַתֶּ֣ם כּוּשִׁ֔ים חַֽלְלֵ֥י חַרְבִּ֖י הֵֽמָּה 
Tanakh.Prophets.Zephaniah.2.13
וְיֵ֤ט יָדֹו֙ עַל צָפֹ֔ון וִֽיאַבֵּ֖ד אֶת אַשּׁ֑וּר__אַשּׁוּר וְיָשֵׂ֤ם אֶת נִֽינְוֵה֙__נִינְוֵה לִשְׁמָמָ֔ה צִיָּ֖ה כַּמִּדְבָּֽר 
Tanakh.Prophets.Zephaniah.2.14
וְרָבְצ֨וּ בְתֹוכָ֤הּ עֲדָרִים֙ כׇּל חַיְתֹו גֹ֔וי גַּם קָאַת֙ גַּם קִפֹּ֔ד בְּכַפְתֹּרֶ֖יהָ יָלִ֑ינוּ קֹ֠ול יְשֹׁורֵ֤ר בַּֽחַלֹּון֙ חֹ֣רֶב בַּסַּ֔ף כִּ֥י אַרְזָ֖ה עֵרָֽה 
Tanakh.Prophets.Zephaniah.2.15
זֹ֞֠את הָעִ֤יר הָעַלִּיזָה֙ הַיֹּושֶׁ֣בֶת לָבֶ֔טַח הָאֹֽמְרָה֙ בִּלְבָבָ֔הּ אֲנִ֖י וְאַפְסִ֣י עֹ֑וד אֵ֣יךְ הָיְתָ֣ה לְשַׁמָּ֗ה מַרְבֵּץ֙ לַֽחַיָּ֔ה כֹּ֚ל עֹובֵ֣ר עָלֶ֔יהָ יִשְׁרֹ֖ק יָנִ֥יעַ יָדֹֽו 
Tanakh.Prophets.Zephaniah.3.1
הֹ֥וי מֹרְאָ֖ה וְנִגְאָלָ֑ה הָעִ֖יר הַיֹּונָֽה 
Tanakh.Prophets.Zephaniah.3.2
לֹ֤א שָֽׁמְעָה֙ בְּקֹ֔ול לֹ֥א לָקְחָ֖ה מוּסָ֑ר בַּֽיהוָה֙__יְהוָה לֹ֣א בָטָ֔חָה אֶל אֱלֹהֶ֖יהָ לֹ֥א קָרֵֽבָה 
Tanakh.Prophets.Zephaniah.3.3
שָׂרֶ֣יהָ בְקִרְבָּ֔הּ אֲרָיֹ֖ות שֹֽׁאֲגִ֑ים שֹׁפְטֶ֨יהָ֙ זְאֵ֣בֵי עֶ֔רֶב לֹ֥א גָרְמ֖וּ לַבֹּֽקֶר 
Tanakh.Prophets.Zephaniah.3.4
נְבִיאֶ֨יהָ֙ פֹּֽחֲזִ֔ים אַנְשֵׁ֖י בֹּֽגְדֹ֑ות כֹּהֲנֶ֨יהָ֙ חִלְּלוּ קֹ֔דֶשׁ חָמְס֖וּ תֹּורָֽה 
Tanakh.Prophets.Zephaniah.3.5
יְהוָ֤ה__יְהוָה צַדִּיק֙ בְּקִרְבָּ֔הּ לֹ֥א יַעֲשֶׂ֖ה עַוְלָ֑ה בַּבֹּ֨קֶר בַּבֹּ֜קֶר מִשְׁפָּטֹ֨ו יִתֵּ֤ן לָאֹור֙ לֹ֣א נֶעְדָּ֔ר וְלֹֽא יֹודֵ֥עַ עַוָּ֖ל בֹּֽשֶׁת 
Tanakh.Prophets.Zephaniah.3.6
הִכְרַ֣תִּי גֹויִ֗ם נָשַׁ֨מּוּ֙ פִּנֹּותָ֔ם הֶחֱרַ֥בְתִּי חֽוּצֹותָ֖ם מִבְּלִ֣י עֹובֵ֑ר נִצְדּ֧וּ עָרֵיהֶ֛ם מִבְּלִי אִ֖ישׁ מֵאֵ֥ין יֹושֵֽׁב 
Tanakh.Prophets.Zephaniah.3.7
אָמַ֜רְתִּי אַךְ תִּירְאִ֤י אֹותִי֙ תִּקְחִ֣י מוּסָ֔ר וְלֹֽא יִכָּרֵ֣ת מְעֹונָ֔הּ כֹּ֥ל אֲשֶׁר פָּקַ֖דְתִּי עָלֶ֑יהָ אָכֵן֙ הִשְׁכִּ֣ימוּ הִשְׁחִ֔יתוּ כֹּ֖ל עֲלִילֹותָֽם 
Tanakh.Prophets.Zephaniah.3.8
לָכֵ֤ן חַכּוּ לִי֙ נְאֻם יְהוָ֔ה__יְהוָה לְיֹ֖ום קוּמִ֣י לְעַ֑ד כִּ֣י מִשְׁפָּטִי֩ לֶאֱסֹ֨ף גֹּויִ֜ם לְקׇבְצִ֣י מַמְלָכֹ֗ות לִשְׁפֹּ֨ךְ עֲלֵיהֶ֤ם זַעְמִי֙ כֹּ֚ל חֲרֹ֣ון אַפִּ֔י כִּ֚י בְּאֵ֣שׁ קִנְאָתִ֔י תֵּאָכֵ֖ל כׇּל הָאָֽרֶץ 
Tanakh.Prophets.Zephaniah.3.9
כִּֽי אָ֛ז אֶהְפֹּ֥ךְ אֶל עַמִּ֖ים שָׂפָ֣ה בְרוּרָ֑ה לִקְרֹ֤א כֻלָּם֙ בְּשֵׁ֣ם יְהוָ֔ה__יְהוָה לְעׇבְדֹ֖ו שְׁכֶ֥ם אֶחָֽד 
Tanakh.Prophets.Zephaniah.3.10
מֵעֵ֖בֶר לְנַֽהֲרֵי כ֑וּשׁ__כּוּשׁ עֲתָרַי֙ בַּת פּוּצַ֔י יֹובִל֖וּן מִנְחָתִֽי 
Tanakh.Prophets.Zephaniah.3.11
בַּיֹּ֣ום הַה֗וּא לֹ֤א תֵבֹ֨ושִׁי֙ מִכֹּ֣ל עֲלִילֹתַ֔יִךְ אֲשֶׁ֥ר פָּשַׁ֖עַתְּ בִּ֑י כִּי אָ֣ז אָסִ֣יר מִקִּרְבֵּ֗ךְ עַלִּיזֵי֙ גַּאֲוָתֵ֔ךְ וְלֹֽא תֹוסִ֧פִי לְגׇבְהָ֛ה עֹ֖וד בְּהַ֥ר קׇדְשִֽׁי 
Tanakh.Prophets.Zephaniah.3.12
וְהִשְׁאַרְתִּ֣י בְקִרְבֵּ֔ךְ עַ֥ם עָנִ֖י וָדָ֑ל וְחָס֖וּ בְּשֵׁ֥ם יְהוָֽה__יְהוָה 
Tanakh.Prophets.Zephaniah.3.13
שְׁאֵרִ֨ית יִשְׂרָאֵ֜ל__יִשְׂרָאֵל לֹֽא יַעֲשׂ֤וּ עַוְלָה֙ וְלֹא יְדַבְּר֣וּ כָזָ֔ב וְלֹֽא יִמָּצֵ֥א בְּפִיהֶ֖ם לְשֹׁ֣ון תַּרְמִ֑ית כִּֽי הֵ֛מָּה יִרְע֥וּ וְרָבְצ֖וּ וְאֵ֥ין מַחֲרִֽיד 
Tanakh.Prophets.Zephaniah.3.14
רׇנִּי֙ בַּת צִיֹּ֔ון__צִיֹּון הָרִ֖יעוּ יִשְׂרָאֵ֑ל__יִשְׂרָאֵל שִׂמְחִ֤י וְעׇלְזִי֙ בְּכׇל לֵ֔ב בַּ֖ת יְרוּשָׁלִָֽם__יְרוּשָׁלִַם 
Tanakh.Prophets.Zephaniah.3.15
הֵסִ֤יר יְהוָה֙__יְהוָה מִשְׁפָּטַ֔יִךְ פִּנָּ֖ה אֹֽיְבֵ֑ךְ מֶ֣לֶךְ יִשְׂרָאֵ֤ל__יִשְׂרָאֵל יְהוָה֙__יְהוָה בְּקִרְבֵּ֔ךְ לֹא תִֽירְאִ֥י רָ֖ע עֹֽוד 
Tanakh.Prophets.Zephaniah.3.16
בַּיֹּ֣ום הַה֔וּא יֵאָמֵ֥ר לִירֽוּשָׁלִַ֖ם__יְרוּשָׁלִַם אַל תִּירָ֑אִי צִיֹּ֖ון__צִיֹּון אַל יִרְפּ֥וּ יָדָֽיִךְ 
Tanakh.Prophets.Zephaniah.3.17
יְהוָ֧ה__יְהוָה אֱלֹהַ֛יִךְ בְּקִרְבֵּ֖ךְ גִּבֹּ֣ור יֹושִׁ֑יעַ יָשִׂ֨ישׂ עָלַ֜יִךְ בְּשִׂמְחָ֗ה יַחֲרִישׁ֙ בְּאַ֣הֲבָתֹ֔ו יָגִ֥יל עָלַ֖יִךְ בְּרִנָּֽה 
Tanakh.Prophets.Zephaniah.3.18
נוּגֵ֧י מִמֹּועֵ֛ד אָסַ֖פְתִּי מִמֵּ֣ךְ הָי֑וּ מַשְׂאֵ֥ת עָלֶ֖יהָ חֶרְפָּֽה 
Tanakh.Prophets.Zephaniah.3.19
הִנְנִ֥י עֹשֶׂ֛ה אֶת כׇּל מְעַנַּ֖יִךְ בָּעֵ֣ת הַהִ֑יא וְהֹושַׁעְתִּ֣י אֶת הַצֹּלֵעָ֗ה וְהַנִּדָּחָה֙ אֲקַבֵּ֔ץ וְשַׂמְתִּים֙ לִתְהִלָּ֣ה וּלְשֵׁ֔ם בְּכׇל הָאָ֖רֶץ בׇּשְׁתָּֽם 
Tanakh.Prophets.Zephaniah.3.20
בָּעֵ֤ת הַהִיא֙ אָבִ֣יא אֶתְכֶ֔ם וּבָעֵ֖ת קַבְּצִ֣י אֶתְכֶ֑ם כִּֽי אֶתֵּ֨ן אֶתְכֶ֜ם לְשֵׁ֣ם וְלִתְהִלָּ֗ה בְּכֹל֙ עַמֵּ֣י הָאָ֔רֶץ בְּשׁוּבִ֧י אֶת שְׁבוּתֵיכֶ֛ם לְעֵינֵיכֶ֖ם אָמַ֥ר יְהוָֽה__יְהוָה 
Tanakh.Prophets.Zephaniah.1.1
דְּבַר יְהוָ֣ה__יְהוָה אֲשֶׁ֣ר הָיָ֗ה אֶל צְפַנְיָה֙__צְפַנְיָה בֶּן כּוּשִׁ֣י__כּוּשִׁי בֶן גְּדַלְיָ֔ה__גְּדַלְיָה בֶּן אֲמַרְיָ֖ה__אֲמַרְיָה בֶּן חִזְקִיָּ֑ה__חִזְקִיָּה בִּימֵ֛י יֹאשִׁיָּ֥הוּ__יֹאשִׁיָּהוּ בֶן אָמֹ֖ון__אָמֹון מֶ֥לֶךְ יְהוּדָֽה__יְהוּדָה 
Tanakh.Prophets.Zephaniah.1.2
אָסֹ֨ף אָסֵ֜ף כֹּ֗ל מֵעַ֛ל פְּנֵ֥י הָאֲדָמָ֖ה נְאֻם יְהוָֽה__יְהוָה 
Tanakh.Prophets.Zephaniah.1.3
אָסֵ֨ף אָדָ֜ם וּבְהֵמָ֗ה אָסֵ֤ף עֹוף הַשָּׁמַ֨יִם֙ וּדְגֵ֣י הַיָּ֔ם וְהַמַּכְשֵׁלֹ֖ות אֶת הָרְשָׁעִ֑ים וְהִכְרַתִּ֣י אֶת הָאָדָ֗ם מֵעַ֛ל פְּנֵ֥י הָאֲדָמָ֖ה נְאֻם יְהוָֽה__יְהוָה 
Tanakh.Prophets.Zephaniah.1.4
וְנָטִ֤יתִי יָדִי֙ עַל יְהוּדָ֔ה__יְהוּדָה וְעַ֖ל כׇּל יֹושְׁבֵ֣י יְרוּשָׁלִָ֑ם__יְרוּשָׁלִַם וְהִכְרַתִּ֞י מִן הַמָּקֹ֤ום הַזֶּה֙ אֶת שְׁאָ֣ר הַבַּ֔עַל אֶת שֵׁ֥ם הַכְּמָרִ֖ים עִם הַכֹּהֲנִֽים 
Tanakh.Prophets.Zephaniah.1.5
וְאֶת הַמִּשְׁתַּחֲוִ֥ים עַל הַגַּגֹּ֖ות לִצְבָ֣א הַשָּׁמָ֑יִם וְאֶת הַמִּֽשְׁתַּחֲוִים֙ הַנִּשְׁבָּעִ֣ים לַֽיהוָ֔ה__יְהוָה וְהַנִּשְׁבָּעִ֖ים בְּמַלְכָּֽם__מַלְכָּם 
Tanakh.Prophets.Zephaniah.1.6
וְאֶת הַנְּסֹוגִ֖ים מֵאַחֲרֵ֣י יְהוָ֑ה__יְהוָה וַאֲשֶׁ֛ר לֹֽא בִקְשׁ֥וּ אֶת יְהוָ֖ה__יְהוָה וְלֹ֥א דְרָשֻֽׁהוּ 
Tanakh.Prophets.Zephaniah.1.7
הַ֕ס מִפְּנֵ֖י אֲדֹנָ֣י__אֲדֹנָי יְהוִ֑ה__יְהוָה כִּ֤י קָרֹוב֙ יֹ֣ום יְהוָ֔ה__יְהוָה כִּֽי הֵכִ֧ין יְהוָ֛ה__יְהוָה זֶ֖בַח הִקְדִּ֥ישׁ קְרֻאָֽיו 
Tanakh.Prophets.Zephaniah.1.8
וְהָיָ֗ה בְּיֹום֙ זֶ֣בַח יְהוָ֔ה__יְהוָה וּפָקַדְתִּ֥י עַל הַשָּׂרִ֖ים וְעַל בְּנֵ֣י הַמֶּ֑לֶךְ וְעַ֥ל כׇּל הַלֹּבְשִׁ֖ים מַלְבּ֥וּשׁ נׇכְרִֽי 
Tanakh.Prophets.Zephaniah.1.9
וּפָקַדְתִּ֗י עַ֧ל כׇּל הַדֹּולֵ֛ג עַל הַמִּפְתָּ֖ן בַּיֹּ֣ום הַה֑וּא הַֽמְמַלְאִ֛ים בֵּ֥ית אֲדֹנֵיהֶ֖ם חָמָ֥ס וּמִרְמָֽה 
Tanakh.Prophets.Zephaniah.1.10
וְהָיָה֩ בַיֹּ֨ום הַה֜וּא נְאֻם יְהוָ֗ה__יְהוָה קֹ֤ול צְעָקָה֙ מִשַּׁ֣עַר הַדָּגִ֔ים וִֽילָלָ֖ה מִן הַמִּשְׁנֶ֑ה וְשֶׁ֥בֶר גָּדֹ֖ול מֵהַגְּבָעֹֽות 
Tanakh.Prophets.Zephaniah.1.11
הֵילִ֖ילוּ יֹשְׁבֵ֣י הַמַּכְתֵּ֑שׁ כִּ֤י נִדְמָה֙ כׇּל עַ֣ם כְּנַ֔עַן__כְּנַעַן נִכְרְת֖וּ כׇּל נְטִ֥ילֵי כָֽסֶף 
Tanakh.Prophets.Zephaniah.1.12
וְהָיָה֙ בָּעֵ֣ת הַהִ֔יא אֲחַפֵּ֥שׂ אֶת יְרוּשָׁלִַ֖ם__יְרוּשָׁלִַם בַּנֵּרֹ֑ות וּפָקַדְתִּ֣י עַל הָאֲנָשִׁ֗ים הַקֹּֽפְאִים֙ עַל שִׁמְרֵיהֶ֔ם הָאֹֽמְרִים֙ בִּלְבָבָ֔ם לֹֽא יֵיטִ֥יב יְהוָ֖ה__יְהוָה וְלֹ֥א יָרֵֽעַ 
Tanakh.Prophets.Zephaniah.1.13
וְהָיָ֤ה חֵילָם֙ לִמְשִׁסָּ֔ה וּבָתֵּיהֶ֖ם לִשְׁמָמָ֑ה וּבָנ֤וּ בָתִּים֙ וְלֹ֣א יֵשֵׁ֔בוּ וְנָטְע֣וּ כְרָמִ֔ים וְלֹ֥א יִשְׁתּ֖וּ אֶת יֵינָֽם 
Tanakh.Prophets.Zephaniah.1.14
קָרֹ֤וב יֹום יְהוָה֙__יְהוָה הַגָּדֹ֔ול קָרֹ֖וב וּמַהֵ֣ר מְאֹ֑ד קֹ֚ול יֹ֣ום יְהוָ֔ה__יְהוָה מַ֥ר צֹרֵ֖חַ שָׁ֥ם גִּבֹּֽור 
Tanakh.Prophets.Zephaniah.1.15
יֹ֥ום עֶבְרָ֖ה הַיֹּ֣ום הַה֑וּא יֹ֧ום צָרָ֣ה וּמְצוּקָ֗ה יֹ֤ום שֹׁאָה֙ וּמְשֹׁואָ֔ה יֹ֥ום חֹ֨שֶׁךְ֙ וַאֲפֵלָ֔ה יֹ֥ום עָנָ֖ן וַעֲרָפֶֽל 
Tanakh.Prophets.Zephaniah.1.16
יֹ֥ום שֹׁופָ֖ר וּתְרוּעָ֑ה עַ֚ל הֶעָרִ֣ים הַבְּצֻרֹ֔ות וְעַ֖ל הַפִּנֹּ֥ות הַגְּבֹהֹֽות 
Tanakh.Prophets.Zephaniah.1.17
וַהֲצֵרֹ֣תִי לָאָדָ֗ם וְהָֽלְכוּ֙ כַּֽעִוְרִ֔ים כִּ֥י לַֽיהוָ֖ה__יְהוָה חָטָ֑אוּ וְשֻׁפַּ֤ךְ דָּמָם֙ כֶּֽעָפָ֔ר וּלְחֻמָ֖ם כַּגְּלָלִֽים 
Tanakh.Prophets.Zephaniah.1.18
גַּם כַּסְפָּ֨ם גַּם זְהָבָ֜ם לֹֽא יוּכַ֣ל לְהַצִּילָ֗ם בְּיֹום֙ עֶבְרַ֣ת יְהוָ֔ה__יְהוָה וּבְאֵשׁ֙ קִנְאָתֹ֔ו תֵּאָכֵ֖ל כׇּל הָאָ֑רֶץ כִּֽי כָלָ֤ה אַךְ נִבְהָלָה֙ יַֽעֲשֶׂ֔ה אֵ֥ת כׇּל יֹשְׁבֵ֖י הָאָֽרֶץ 
Tanakh.Prophets.Zephaniah.2.1
הִֽתְקֹושְׁשׁ֖וּ וָקֹ֑ושּׁוּ הַגֹּ֖וי לֹ֥א נִכְסָֽף 
Tanakh.Prophets.Zephaniah.2.2
בְּטֶ֨רֶם֙ לֶ֣דֶת חֹ֔ק כְּמֹ֖ץ עָ֣בַר יֹ֑ום בְּטֶ֣רֶם לֹא יָבֹ֣וא עֲלֵיכֶ֗ם חֲרֹון֙ אַף יְהוָ֔ה__יְהוָה בְּטֶ֨רֶם֙ לֹא יָבֹ֣וא עֲלֵיכֶ֔ם יֹ֖ום אַף יְהוָֽה__יְהוָה 
Tanakh.Prophets.Zephaniah.2.3
בַּקְּשׁ֤וּ אֶת יְהוָה֙__יְהוָה כׇּל עַנְוֵ֣י הָאָ֔רֶץ אֲשֶׁ֥ר מִשְׁפָּטֹ֖ו פָּעָ֑לוּ בַּקְּשׁוּ צֶ֨דֶק֙ בַּקְּשׁ֣וּ עֲנָוָ֔ה אוּלַי֙ תִּסָּ֣תְר֔וּ בְּיֹ֖ום אַף יְהוָֽה__יְהוָה 
Tanakh.Prophets.Zephaniah.2.4
כִּ֤י עַזָּה֙__עַזָּה עֲזוּבָ֣ה תִֽהְיֶ֔ה וְאַשְׁקְלֹ֖ון__אַשְׁקְלֹון לִשְׁמָמָ֑ה אַשְׁדֹּ֗וד__אַשְׁדֹּוד בַּֽצׇּהֳרַ֨יִם֙ יְגָ֣רְשׁ֔וּהָ וְעֶקְרֹ֖ון__עֶקְרֹון תֵּעָקֵֽר 
Tanakh.Prophets.Zephaniah.2.5
הֹ֗וי יֹֽשְׁבֵ֛י חֶ֥בֶל הַיָּ֖ם גֹּ֣וי כְּרֵתִ֑ים דְּבַר יְהוָ֣ה__יְהוָה עֲלֵיכֶ֗ם כְּנַ֨עַן֙__כְּנַעַן אֶ֣רֶץ פְּלִשְׁתִּ֔ים וְהַאֲבַדְתִּ֖יךְ מֵאֵ֥ין יֹושֵֽׁב 
Tanakh.Prophets.Zephaniah.2.6
וְֽהָיְתָ֞ה חֶ֣בֶל הַיָּ֗ם נְוֹ֛ת כְּרֹ֥ת רֹעִ֖ים וְגִדְרֹ֥ות צֹֽאן 
Tanakh.Prophets.Zephaniah.2.7
וְהָ֣יָה חֶ֗בֶל לִשְׁאֵרִ֛ית בֵּ֥ית יְהוּדָ֖ה__יְהוּדָה עֲלֵיהֶ֣ם יִרְע֑וּן בְּבָתֵּ֣י אַשְׁקְלֹ֗ון__אַשְׁקְלֹון בָּעֶ֨רֶב֙ יִרְבָּצ֔וּן כִּ֧י יִפְקְדֵ֛ם יְהוָ֥ה__יְהוָה אֱלֹהֵיהֶ֖ם וְשָׁ֥ב שְׁבִיתָֽם 
Tanakh.Prophets.Zephaniah.2.8
שָׁמַ֨עְתִּי֙ חֶרְפַּ֣ת מֹואָ֔ב__מֹואָב וְגִדּוּפֵ֖י בְּנֵ֣י עַמֹּ֑ון__עַמֹּון אֲשֶׁ֤ר חֵֽרְפוּ֙ אֶת עַמִּ֔י וַיַּגְדִּ֖ילוּ עַל גְּבוּלָֽם 
Tanakh.Prophets.Zephaniah.2.9
לָכֵ֣ן חַי אָ֡נִי נְאֻם֩ יְהוָ֨ה__יְהוָה צְבָאֹ֜ות אֱלֹהֵ֣י יִשְׂרָאֵ֗ל__יִשְׂרָאֵל כִּֽי מֹואָ֞ב__מֹואָב כִּסְדֹ֤ם__סְדֹם תִּֽהְיֶה֙ וּבְנֵ֤י עַמֹּון֙__עַמֹּון כַּֽעֲמֹרָ֔ה__עֲמֹרָה מִמְשַׁ֥ק חָר֛וּל וּמִכְרֵה מֶ֥לַח וּשְׁמָמָ֖ה עַד עֹולָ֑ם שְׁאֵרִ֤ית עַמִּי֙ יְבָזּ֔וּם וְיֶ֥תֶר גֹּויִ֖י יִנְחָלֽוּם 
Tanakh.Prophets.Zephaniah.2.10
זֹ֥את לָהֶ֖ם תַּ֣חַת גְּאֹונָ֑ם כִּ֤י חֵֽרְפוּ֙ וַיַּגְדִּ֔לוּ עַל עַ֖ם יְהוָ֥ה__יְהוָה צְבָאֹֽות 
Tanakh.Prophets.Zephaniah.2.11
נֹורָ֤א יְהוָה֙__יְהוָה עֲלֵיהֶ֔ם כִּ֣י רָזָ֔ה אֵ֖ת כׇּל אֱלֹהֵ֣י הָאָ֑רֶץ וְיִשְׁתַּֽחֲווּ לֹו֙ אִ֣ישׁ מִמְּקֹומֹ֔ו כֹּ֖ל אִיֵּ֥י הַגֹּויִֽם 
Tanakh.Prophets.Zephaniah.2.12
גַּם אַתֶּ֣ם כּוּשִׁ֔ים חַֽלְלֵ֥י חַרְבִּ֖י הֵֽמָּה 
Tanakh.Prophets.Zephaniah.2.13
וְיֵ֤ט יָדֹו֙ עַל צָפֹ֔ון וִֽיאַבֵּ֖ד אֶת אַשּׁ֑וּר__אַשּׁוּר וְיָשֵׂ֤ם אֶת נִֽינְוֵה֙__נִינְוֵה לִשְׁמָמָ֔ה צִיָּ֖ה כַּמִּדְבָּֽר 
Tanakh.Prophets.Zephaniah.2.14
וְרָבְצ֨וּ בְתֹוכָ֤הּ עֲדָרִים֙ כׇּל חַיְתֹו גֹ֔וי גַּם קָאַת֙ גַּם קִפֹּ֔ד בְּכַפְתֹּרֶ֖יהָ יָלִ֑ינוּ קֹ֠ול יְשֹׁורֵ֤ר בַּֽחַלֹּון֙ חֹ֣רֶב בַּסַּ֔ף כִּ֥י אַרְזָ֖ה עֵרָֽה 
Tanakh.Prophets.Zephaniah.2.15
זֹ֞֠את הָעִ֤יר הָעַלִּיזָה֙ הַיֹּושֶׁ֣בֶת לָבֶ֔טַח הָאֹֽמְרָה֙ בִּלְבָבָ֔הּ אֲנִ֖י וְאַפְסִ֣י עֹ֑וד אֵ֣יךְ הָיְתָ֣ה לְשַׁמָּ֗ה מַרְבֵּץ֙ לַֽחַיָּ֔ה כֹּ֚ל עֹובֵ֣ר עָלֶ֔יהָ יִשְׁרֹ֖ק יָנִ֥יעַ יָדֹֽו 
Tanakh.Prophets.Zephaniah.3.1
הֹ֥וי מֹרְאָ֖ה וְנִגְאָלָ֑ה הָעִ֖יר הַיֹּונָֽה 
Tanakh.Prophets.Zephaniah.3.2
לֹ֤א שָֽׁמְעָה֙ בְּקֹ֔ול לֹ֥א לָקְחָ֖ה מוּסָ֑ר בַּֽיהוָה֙__יְהוָה לֹ֣א בָטָ֔חָה אֶל אֱלֹהֶ֖יהָ לֹ֥א קָרֵֽבָה 
Tanakh.Prophets.Zephaniah.3.3
שָׂרֶ֣יהָ בְקִרְבָּ֔הּ אֲרָיֹ֖ות שֹֽׁאֲגִ֑ים שֹׁפְטֶ֨יהָ֙ זְאֵ֣בֵי עֶ֔רֶב לֹ֥א גָרְמ֖וּ לַבֹּֽקֶר 
Tanakh.Prophets.Zephaniah.3.4
נְבִיאֶ֨יהָ֙ פֹּֽחֲזִ֔ים אַנְשֵׁ֖י בֹּֽגְדֹ֑ות כֹּהֲנֶ֨יהָ֙ חִלְּלוּ קֹ֔דֶשׁ חָמְס֖וּ תֹּורָֽה 
Tanakh.Prophets.Zephaniah.3.5
יְהוָ֤ה__יְהוָה צַדִּיק֙ בְּקִרְבָּ֔הּ לֹ֥א יַעֲשֶׂ֖ה עַוְלָ֑ה בַּבֹּ֨קֶר בַּבֹּ֜קֶר מִשְׁפָּטֹ֨ו יִתֵּ֤ן לָאֹור֙ לֹ֣א נֶעְדָּ֔ר וְלֹֽא יֹודֵ֥עַ עַוָּ֖ל בֹּֽשֶׁת 
Tanakh.Prophets.Zephaniah.3.6
הִכְרַ֣תִּי גֹויִ֗ם נָשַׁ֨מּוּ֙ פִּנֹּותָ֔ם הֶחֱרַ֥בְתִּי חֽוּצֹותָ֖ם מִבְּלִ֣י עֹובֵ֑ר נִצְדּ֧וּ עָרֵיהֶ֛ם מִבְּלִי אִ֖ישׁ מֵאֵ֥ין יֹושֵֽׁב 
Tanakh.Prophets.Zephaniah.3.7
אָמַ֜רְתִּי אַךְ תִּירְאִ֤י אֹותִי֙ תִּקְחִ֣י מוּסָ֔ר וְלֹֽא יִכָּרֵ֣ת מְעֹונָ֔הּ כֹּ֥ל אֲשֶׁר פָּקַ֖דְתִּי עָלֶ֑יהָ אָכֵן֙ הִשְׁכִּ֣ימוּ הִשְׁחִ֔יתוּ כֹּ֖ל עֲלִילֹותָֽם 
Tanakh.Prophets.Zephaniah.3.8
לָכֵ֤ן חַכּוּ לִי֙ נְאֻם יְהוָ֔ה__יְהוָה לְיֹ֖ום קוּמִ֣י לְעַ֑ד כִּ֣י מִשְׁפָּטִי֩ לֶאֱסֹ֨ף גֹּויִ֜ם לְקׇבְצִ֣י מַמְלָכֹ֗ות לִשְׁפֹּ֨ךְ עֲלֵיהֶ֤ם זַעְמִי֙ כֹּ֚ל חֲרֹ֣ון אַפִּ֔י כִּ֚י בְּאֵ֣שׁ קִנְאָתִ֔י תֵּאָכֵ֖ל כׇּל הָאָֽרֶץ 
Tanakh.Prophets.Zephaniah.3.9
כִּֽי אָ֛ז אֶהְפֹּ֥ךְ אֶל עַמִּ֖ים שָׂפָ֣ה בְרוּרָ֑ה לִקְרֹ֤א כֻלָּם֙ בְּשֵׁ֣ם יְהוָ֔ה__יְהוָה לְעׇבְדֹ֖ו שְׁכֶ֥ם אֶחָֽד 
Tanakh.Prophets.Zephaniah.3.10
מֵעֵ֖בֶר לְנַֽהֲרֵי כ֑וּשׁ__כּוּשׁ עֲתָרַי֙ בַּת פּוּצַ֔י יֹובִל֖וּן מִנְחָתִֽי 
Tanakh.Prophets.Zephaniah.3.11
בַּיֹּ֣ום הַה֗וּא לֹ֤א תֵבֹ֨ושִׁי֙ מִכֹּ֣ל עֲלִילֹתַ֔יִךְ אֲשֶׁ֥ר פָּשַׁ֖עַתְּ בִּ֑י כִּי אָ֣ז אָסִ֣יר מִקִּרְבֵּ֗ךְ עַלִּיזֵי֙ גַּאֲוָתֵ֔ךְ וְלֹֽא תֹוסִ֧פִי לְגׇבְהָ֛ה עֹ֖וד בְּהַ֥ר קׇדְשִֽׁי 
Tanakh.Prophets.Zephaniah.3.12
וְהִשְׁאַרְתִּ֣י בְקִרְבֵּ֔ךְ עַ֥ם עָנִ֖י וָדָ֑ל וְחָס֖וּ בְּשֵׁ֥ם יְהוָֽה__יְהוָה 
Tanakh.Prophets.Zephaniah.3.13
שְׁאֵרִ֨ית יִשְׂרָאֵ֜ל__יִשְׂרָאֵל לֹֽא יַעֲשׂ֤וּ עַוְלָה֙ וְלֹא יְדַבְּר֣וּ כָזָ֔ב וְלֹֽא יִמָּצֵ֥א בְּפִיהֶ֖ם לְשֹׁ֣ון תַּרְמִ֑ית כִּֽי הֵ֛מָּה יִרְע֥וּ וְרָבְצ֖וּ וְאֵ֥ין מַחֲרִֽיד 
Tanakh.Prophets.Zephaniah.3.14
רׇנִּי֙ בַּת צִיֹּ֔ון__צִיֹּון הָרִ֖יעוּ יִשְׂרָאֵ֑ל__יִשְׂרָאֵל שִׂמְחִ֤י וְעׇלְזִי֙ בְּכׇל לֵ֔ב בַּ֖ת יְרוּשָׁלִָֽם__יְרוּשָׁלִַם 
Tanakh.Prophets.Zephaniah.3.15
הֵסִ֤יר יְהוָה֙__יְהוָה מִשְׁפָּטַ֔יִךְ פִּנָּ֖ה אֹֽיְבֵ֑ךְ מֶ֣לֶךְ יִשְׂרָאֵ֤ל__יִשְׂרָאֵל יְהוָה֙__יְהוָה בְּקִרְבֵּ֔ךְ לֹא תִֽירְאִ֥י רָ֖ע עֹֽוד 
Tanakh.Prophets.Zephaniah.3.16
בַּיֹּ֣ום הַה֔וּא יֵאָמֵ֥ר לִירֽוּשָׁלִַ֖ם__יְרוּשָׁלִַם אַל תִּירָ֑אִי צִיֹּ֖ון__צִיֹּון אַל יִרְפּ֥וּ יָדָֽיִךְ 
Tanakh.Prophets.Zephaniah.3.17
יְהוָ֧ה__יְהוָה אֱלֹהַ֛יִךְ בְּקִרְבֵּ֖ךְ גִּבֹּ֣ור יֹושִׁ֑יעַ יָשִׂ֨ישׂ עָלַ֜יִךְ בְּשִׂמְחָ֗ה יַחֲרִישׁ֙ בְּאַ֣הֲבָתֹ֔ו יָגִ֥יל עָלַ֖יִךְ בְּרִנָּֽה 
Tanakh.Prophets.Zephaniah.3.18
נוּגֵ֧י מִמֹּועֵ֛ד אָסַ֖פְתִּי מִמֵּ֣ךְ הָי֑וּ מַשְׂאֵ֥ת עָלֶ֖יהָ חֶרְפָּֽה 
Tanakh.Prophets.Zephaniah.3.19
הִנְנִ֥י עֹשֶׂ֛ה אֶת כׇּל מְעַנַּ֖יִךְ בָּעֵ֣ת הַהִ֑יא וְהֹושַׁעְתִּ֣י אֶת הַצֹּלֵעָ֗ה וְהַנִּדָּחָה֙ אֲקַבֵּ֔ץ וְשַׂמְתִּים֙ לִתְהִלָּ֣ה וּלְשֵׁ֔ם בְּכׇל הָאָ֖רֶץ בׇּשְׁתָּֽם 
Tanakh.Prophets.Zephaniah.3.20
בָּעֵ֤ת הַהִיא֙ אָבִ֣יא אֶתְכֶ֔ם וּבָעֵ֖ת קַבְּצִ֣י אֶתְכֶ֑ם כִּֽי אֶתֵּ֨ן אֶתְכֶ֜ם לְשֵׁ֣ם וְלִתְהִלָּ֗ה בְּכֹל֙ עַמֵּ֣י הָאָ֔רֶץ בְּשׁוּבִ֧י אֶת שְׁבוּתֵיכֶ֛ם לְעֵינֵיכֶ֖ם אָמַ֥ר יְהוָֽה__יְהוָה 
Tanakh.Prophets.Zephaniah.1.1
דְּבַר יְהוָ֣ה__יְהוָה אֲשֶׁ֣ר הָיָ֗ה אֶל צְפַנְיָה֙__צְפַנְיָה בֶּן כּוּשִׁ֣י__כּוּשִׁי בֶן גְּדַלְיָ֔ה__גְּדַלְיָה בֶּן אֲמַרְיָ֖ה__אֲמַרְיָה בֶּן חִזְקִיָּ֑ה__חִזְקִיָּה בִּימֵ֛י יֹאשִׁיָּ֥הוּ__יֹאשִׁיָּהוּ בֶן אָמֹ֖ון__אָמֹון מֶ֥לֶךְ יְהוּדָֽה__יְהוּדָה 
Tanakh.Prophets.Zephaniah.1.2
אָסֹ֨ף אָסֵ֜ף כֹּ֗ל מֵעַ֛ל פְּנֵ֥י הָאֲדָמָ֖ה נְאֻם יְהוָֽה__יְהוָה 
Tanakh.Prophets.Zephaniah.1.3
אָסֵ֨ף אָדָ֜ם וּבְהֵמָ֗ה אָסֵ֤ף עֹוף הַשָּׁמַ֨יִם֙ וּדְגֵ֣י הַיָּ֔ם וְהַמַּכְשֵׁלֹ֖ות אֶת הָרְשָׁעִ֑ים וְהִכְרַתִּ֣י אֶת הָאָדָ֗ם מֵעַ֛ל פְּנֵ֥י הָאֲדָמָ֖ה נְאֻם יְהוָֽה__יְהוָה 
Tanakh.Prophets.Zephaniah.1.4
וְנָטִ֤יתִי יָדִי֙ עַל יְהוּדָ֔ה__יְהוּדָה וְעַ֖ל כׇּל יֹושְׁבֵ֣י יְרוּשָׁלִָ֑ם__יְרוּשָׁלִַם וְהִכְרַתִּ֞י מִן הַמָּקֹ֤ום הַזֶּה֙ אֶת שְׁאָ֣ר הַבַּ֔עַל אֶת שֵׁ֥ם הַכְּמָרִ֖ים עִם הַכֹּהֲנִֽים 
Tanakh.Prophets.Zephaniah.1.5
וְאֶת הַמִּשְׁתַּחֲוִ֥ים עַל הַגַּגֹּ֖ות לִצְבָ֣א הַשָּׁמָ֑יִם וְאֶת הַמִּֽשְׁתַּחֲוִים֙ הַנִּשְׁבָּעִ֣ים לַֽיהוָ֔ה__יְהוָה וְהַנִּשְׁבָּעִ֖ים בְּמַלְכָּֽם__מַלְכָּם 
Tanakh.Prophets.Zephaniah.1.6
וְאֶת הַנְּסֹוגִ֖ים מֵאַחֲרֵ֣י יְהוָ֑ה__יְהוָה וַאֲשֶׁ֛ר לֹֽא בִקְשׁ֥וּ אֶת יְהוָ֖ה__יְהוָה וְלֹ֥א דְרָשֻֽׁהוּ 
Tanakh.Prophets.Zephaniah.1.7
הַ֕ס מִפְּנֵ֖י אֲדֹנָ֣י__אֲדֹנָי יְהוִ֑ה__יְהוָה כִּ֤י קָרֹוב֙ יֹ֣ום יְהוָ֔ה__יְהוָה כִּֽי הֵכִ֧ין יְהוָ֛ה__יְהוָה זֶ֖בַח הִקְדִּ֥ישׁ קְרֻאָֽיו 
Tanakh.Prophets.Zephaniah.1.8
וְהָיָ֗ה בְּיֹום֙ זֶ֣בַח יְהוָ֔ה__יְהוָה וּפָקַדְתִּ֥י עַל הַשָּׂרִ֖ים וְעַל בְּנֵ֣י הַמֶּ֑לֶךְ וְעַ֥ל כׇּל הַלֹּבְשִׁ֖ים מַלְבּ֥וּשׁ נׇכְרִֽי 
Tanakh.Prophets.Zephaniah.1.9
וּפָקַדְתִּ֗י עַ֧ל כׇּל הַדֹּולֵ֛ג עַל הַמִּפְתָּ֖ן בַּיֹּ֣ום הַה֑וּא הַֽמְמַלְאִ֛ים בֵּ֥ית אֲדֹנֵיהֶ֖ם חָמָ֥ס וּמִרְמָֽה 
Tanakh.Prophets.Zephaniah.1.10
וְהָיָה֩ בַיֹּ֨ום הַה֜וּא נְאֻם יְהוָ֗ה__יְהוָה קֹ֤ול צְעָקָה֙ מִשַּׁ֣עַר הַדָּגִ֔ים וִֽילָלָ֖ה מִן הַמִּשְׁנֶ֑ה וְשֶׁ֥בֶר גָּדֹ֖ול מֵהַגְּבָעֹֽות 
Tanakh.Prophets.Zephaniah.1.11
הֵילִ֖ילוּ יֹשְׁבֵ֣י הַמַּכְתֵּ֑שׁ כִּ֤י נִדְמָה֙ כׇּל עַ֣ם כְּנַ֔עַן__כְּנַעַן נִכְרְת֖וּ כׇּל נְטִ֥ילֵי כָֽסֶף 
Tanakh.Prophets.Zephaniah.1.12
וְהָיָה֙ בָּעֵ֣ת הַהִ֔יא אֲחַפֵּ֥שׂ אֶת יְרוּשָׁלִַ֖ם__יְרוּשָׁלִַם בַּנֵּרֹ֑ות וּפָקַדְתִּ֣י עַל הָאֲנָשִׁ֗ים הַקֹּֽפְאִים֙ עַל שִׁמְרֵיהֶ֔ם הָאֹֽמְרִים֙ בִּלְבָבָ֔ם לֹֽא יֵיטִ֥יב יְהוָ֖ה__יְהוָה וְלֹ֥א יָרֵֽעַ 
Tanakh.Prophets.Zephaniah.1.13
וְהָיָ֤ה חֵילָם֙ לִמְשִׁסָּ֔ה וּבָתֵּיהֶ֖ם לִשְׁמָמָ֑ה וּבָנ֤וּ בָתִּים֙ וְלֹ֣א יֵשֵׁ֔בוּ וְנָטְע֣וּ כְרָמִ֔ים וְלֹ֥א יִשְׁתּ֖וּ אֶת יֵינָֽם 
Tanakh.Prophets.Zephaniah.1.14
קָרֹ֤וב יֹום יְהוָה֙__יְהוָה הַגָּדֹ֔ול קָרֹ֖וב וּמַהֵ֣ר מְאֹ֑ד קֹ֚ול יֹ֣ום יְהוָ֔ה__יְהוָה מַ֥ר צֹרֵ֖חַ שָׁ֥ם גִּבֹּֽור 
Tanakh.Prophets.Zephaniah.1.15
יֹ֥ום עֶבְרָ֖ה הַיֹּ֣ום הַה֑וּא יֹ֧ום צָרָ֣ה וּמְצוּקָ֗ה יֹ֤ום שֹׁאָה֙ וּמְשֹׁואָ֔ה יֹ֥ום חֹ֨שֶׁךְ֙ וַאֲפֵלָ֔ה יֹ֥ום עָנָ֖ן וַעֲרָפֶֽל 
Tanakh.Prophets.Zephaniah.1.16
יֹ֥ום שֹׁופָ֖ר וּתְרוּעָ֑ה עַ֚ל הֶעָרִ֣ים הַבְּצֻרֹ֔ות וְעַ֖ל הַפִּנֹּ֥ות הַגְּבֹהֹֽות 
Tanakh.Prophets.Zephaniah.1.17
וַהֲצֵרֹ֣תִי לָאָדָ֗ם וְהָֽלְכוּ֙ כַּֽעִוְרִ֔ים כִּ֥י לַֽיהוָ֖ה__יְהוָה חָטָ֑אוּ וְשֻׁפַּ֤ךְ דָּמָם֙ כֶּֽעָפָ֔ר וּלְחֻמָ֖ם כַּגְּלָלִֽים 
Tanakh.Prophets.Zephaniah.1.18
גַּם כַּסְפָּ֨ם גַּם זְהָבָ֜ם לֹֽא יוּכַ֣ל לְהַצִּילָ֗ם בְּיֹום֙ עֶבְרַ֣ת יְהוָ֔ה__יְהוָה וּבְאֵשׁ֙ קִנְאָתֹ֔ו תֵּאָכֵ֖ל כׇּל הָאָ֑רֶץ כִּֽי כָלָ֤ה אַךְ נִבְהָלָה֙ יַֽעֲשֶׂ֔ה אֵ֥ת כׇּל יֹשְׁבֵ֖י הָאָֽרֶץ 
Tanakh.Prophets.Zephaniah.2.1
הִֽתְקֹושְׁשׁ֖וּ וָקֹ֑ושּׁוּ הַגֹּ֖וי לֹ֥א נִכְסָֽף 
Tanakh.Prophets.Zephaniah.2.2
בְּטֶ֨רֶם֙ לֶ֣דֶת חֹ֔ק כְּמֹ֖ץ עָ֣בַר יֹ֑ום בְּטֶ֣רֶם לֹא יָבֹ֣וא עֲלֵיכֶ֗ם חֲרֹון֙ אַף יְהוָ֔ה__יְהוָה בְּטֶ֨רֶם֙ לֹא יָבֹ֣וא עֲלֵיכֶ֔ם יֹ֖ום אַף יְהוָֽה__יְהוָה 
Tanakh.Prophets.Zephaniah.2.3
בַּקְּשׁ֤וּ אֶת יְהוָה֙__יְהוָה כׇּל עַנְוֵ֣י הָאָ֔רֶץ אֲשֶׁ֥ר מִשְׁפָּטֹ֖ו פָּעָ֑לוּ בַּקְּשׁוּ צֶ֨דֶק֙ בַּקְּשׁ֣וּ עֲנָוָ֔ה אוּלַי֙ תִּסָּ֣תְר֔וּ בְּיֹ֖ום אַף יְהוָֽה__יְהוָה 
Tanakh.Prophets.Zephaniah.2.4
כִּ֤י עַזָּה֙__עַזָּה עֲזוּבָ֣ה תִֽהְיֶ֔ה וְאַשְׁקְלֹ֖ון__אַשְׁקְלֹון לִשְׁמָמָ֑ה אַשְׁדֹּ֗וד__אַשְׁדֹּוד בַּֽצׇּהֳרַ֨יִם֙ יְגָ֣רְשׁ֔וּהָ וְעֶקְרֹ֖ון__עֶקְרֹון תֵּעָקֵֽר 
Tanakh.Prophets.Zephaniah.2.5
הֹ֗וי יֹֽשְׁבֵ֛י חֶ֥בֶל הַיָּ֖ם גֹּ֣וי כְּרֵתִ֑ים דְּבַר יְהוָ֣ה__יְהוָה עֲלֵיכֶ֗ם כְּנַ֨עַן֙__כְּנַעַן אֶ֣רֶץ פְּלִשְׁתִּ֔ים וְהַאֲבַדְתִּ֖יךְ מֵאֵ֥ין יֹושֵֽׁב 
Tanakh.Prophets.Zephaniah.2.6
וְֽהָיְתָ֞ה חֶ֣בֶל הַיָּ֗ם נְוֹ֛ת כְּרֹ֥ת רֹעִ֖ים וְגִדְרֹ֥ות צֹֽאן 
Tanakh.Prophets.Zephaniah.2.7
וְהָ֣יָה חֶ֗בֶל לִשְׁאֵרִ֛ית בֵּ֥ית יְהוּדָ֖ה__יְהוּדָה עֲלֵיהֶ֣ם יִרְע֑וּן בְּבָתֵּ֣י אַשְׁקְלֹ֗ון__אַשְׁקְלֹון בָּעֶ֨רֶב֙ יִרְבָּצ֔וּן כִּ֧י יִפְקְדֵ֛ם יְהוָ֥ה__יְהוָה אֱלֹהֵיהֶ֖ם וְשָׁ֥ב שְׁבִיתָֽם 
Tanakh.Prophets.Zephaniah.2.8
שָׁמַ֨עְתִּי֙ חֶרְפַּ֣ת מֹואָ֔ב__מֹואָב וְגִדּוּפֵ֖י בְּנֵ֣י עַמֹּ֑ון__עַמֹּון אֲשֶׁ֤ר חֵֽרְפוּ֙ אֶת עַמִּ֔י וַיַּגְדִּ֖ילוּ עַל גְּבוּלָֽם 
Tanakh.Prophets.Zephaniah.2.9
לָכֵ֣ן חַי אָ֡נִי נְאֻם֩ יְהוָ֨ה__יְהוָה צְבָאֹ֜ות אֱלֹהֵ֣י יִשְׂרָאֵ֗ל__יִשְׂרָאֵל כִּֽי מֹואָ֞ב__מֹואָב כִּסְדֹ֤ם__סְדֹם תִּֽהְיֶה֙ וּבְנֵ֤י עַמֹּון֙__עַמֹּון כַּֽעֲמֹרָ֔ה__עֲמֹרָה מִמְשַׁ֥ק חָר֛וּל וּמִכְרֵה מֶ֥לַח וּשְׁמָמָ֖ה עַד עֹולָ֑ם שְׁאֵרִ֤ית עַמִּי֙ יְבָזּ֔וּם וְיֶ֥תֶר גֹּויִ֖י יִנְחָלֽוּם 
Tanakh.Prophets.Zephaniah.2.10
זֹ֥את לָהֶ֖ם תַּ֣חַת גְּאֹונָ֑ם כִּ֤י חֵֽרְפוּ֙ וַיַּגְדִּ֔לוּ עַל עַ֖ם יְהוָ֥ה__יְהוָה צְבָאֹֽות 
Tanakh.Prophets.Zephaniah.2.11
נֹורָ֤א יְהוָה֙__יְהוָה עֲלֵיהֶ֔ם כִּ֣י רָזָ֔ה אֵ֖ת כׇּל אֱלֹהֵ֣י הָאָ֑רֶץ וְיִשְׁתַּֽחֲווּ לֹו֙ אִ֣ישׁ מִמְּקֹומֹ֔ו כֹּ֖ל אִיֵּ֥י הַגֹּויִֽם 
Tanakh.Prophets.Zephaniah.2.12
גַּם אַתֶּ֣ם כּוּשִׁ֔ים חַֽלְלֵ֥י חַרְבִּ֖י הֵֽמָּה 
Tanakh.Prophets.Zephaniah.2.13
וְיֵ֤ט יָדֹו֙ עַל צָפֹ֔ון וִֽיאַבֵּ֖ד אֶת אַשּׁ֑וּר__אַשּׁוּר וְיָשֵׂ֤ם אֶת נִֽינְוֵה֙__נִינְוֵה לִשְׁמָמָ֔ה צִיָּ֖ה כַּמִּדְבָּֽר 
Tanakh.Prophets.Zephaniah.2.14
וְרָבְצ֨וּ בְתֹוכָ֤הּ עֲדָרִים֙ כׇּל חַיְתֹו גֹ֔וי גַּם קָאַת֙ גַּם קִפֹּ֔ד בְּכַפְתֹּרֶ֖יהָ יָלִ֑ינוּ קֹ֠ול יְשֹׁורֵ֤ר בַּֽחַלֹּון֙ חֹ֣רֶב בַּסַּ֔ף כִּ֥י אַרְזָ֖ה עֵרָֽה 
Tanakh.Prophets.Zephaniah.2.15
זֹ֞֠את הָעִ֤יר הָעַלִּיזָה֙ הַיֹּושֶׁ֣בֶת לָבֶ֔טַח הָאֹֽמְרָה֙ בִּלְבָבָ֔הּ אֲנִ֖י וְאַפְסִ֣י עֹ֑וד אֵ֣יךְ הָיְתָ֣ה לְשַׁמָּ֗ה מַרְבֵּץ֙ לַֽחַיָּ֔ה כֹּ֚ל עֹובֵ֣ר עָלֶ֔יהָ יִשְׁרֹ֖ק יָנִ֥יעַ יָדֹֽו 
Tanakh.Prophets.Zephaniah.3.1
הֹ֥וי מֹרְאָ֖ה וְנִגְאָלָ֑ה הָעִ֖יר הַיֹּונָֽה 
Tanakh.Prophets.Zephaniah.3.2
לֹ֤א שָֽׁמְעָה֙ בְּקֹ֔ול לֹ֥א לָקְחָ֖ה מוּסָ֑ר בַּֽיהוָה֙__יְהוָה לֹ֣א בָטָ֔חָה אֶל אֱלֹהֶ֖יהָ לֹ֥א קָרֵֽבָה 
Tanakh.Prophets.Zephaniah.3.3
שָׂרֶ֣יהָ בְקִרְבָּ֔הּ אֲרָיֹ֖ות שֹֽׁאֲגִ֑ים שֹׁפְטֶ֨יהָ֙ זְאֵ֣בֵי עֶ֔רֶב לֹ֥א גָרְמ֖וּ לַבֹּֽקֶר 
Tanakh.Prophets.Zephaniah.3.4
נְבִיאֶ֨יהָ֙ פֹּֽחֲזִ֔ים אַנְשֵׁ֖י בֹּֽגְדֹ֑ות כֹּהֲנֶ֨יהָ֙ חִלְּלוּ קֹ֔דֶשׁ חָמְס֖וּ תֹּורָֽה 
Tanakh.Prophets.Zephaniah.3.5
יְהוָ֤ה__יְהוָה צַדִּיק֙ בְּקִרְבָּ֔הּ לֹ֥א יַעֲשֶׂ֖ה עַוְלָ֑ה בַּבֹּ֨קֶר בַּבֹּ֜קֶר מִשְׁפָּטֹ֨ו יִתֵּ֤ן לָאֹור֙ לֹ֣א נֶעְדָּ֔ר וְלֹֽא יֹודֵ֥עַ עַוָּ֖ל בֹּֽשֶׁת 
Tanakh.Prophets.Zephaniah.3.6
הִכְרַ֣תִּי גֹויִ֗ם נָשַׁ֨מּוּ֙ פִּנֹּותָ֔ם הֶחֱרַ֥בְתִּי חֽוּצֹותָ֖ם מִבְּלִ֣י עֹובֵ֑ר נִצְדּ֧וּ עָרֵיהֶ֛ם מִבְּלִי אִ֖ישׁ מֵאֵ֥ין יֹושֵֽׁב 
Tanakh.Prophets.Zephaniah.3.7
אָמַ֜רְתִּי אַךְ תִּירְאִ֤י אֹותִי֙ תִּקְחִ֣י מוּסָ֔ר וְלֹֽא יִכָּרֵ֣ת מְעֹונָ֔הּ כֹּ֥ל אֲשֶׁר פָּקַ֖דְתִּי עָלֶ֑יהָ אָכֵן֙ הִשְׁכִּ֣ימוּ הִשְׁחִ֔יתוּ כֹּ֖ל עֲלִילֹותָֽם 
Tanakh.Prophets.Zephaniah.3.8
לָכֵ֤ן חַכּוּ לִי֙ נְאֻם יְהוָ֔ה__יְהוָה לְיֹ֖ום קוּמִ֣י לְעַ֑ד כִּ֣י מִשְׁפָּטִי֩ לֶאֱסֹ֨ף גֹּויִ֜ם לְקׇבְצִ֣י מַמְלָכֹ֗ות לִשְׁפֹּ֨ךְ עֲלֵיהֶ֤ם זַעְמִי֙ כֹּ֚ל חֲרֹ֣ון אַפִּ֔י כִּ֚י בְּאֵ֣שׁ קִנְאָתִ֔י תֵּאָכֵ֖ל כׇּל הָאָֽרֶץ 
Tanakh.Prophets.Zephaniah.3.9
כִּֽי אָ֛ז אֶהְפֹּ֥ךְ אֶל עַמִּ֖ים שָׂפָ֣ה בְרוּרָ֑ה לִקְרֹ֤א כֻלָּם֙ בְּשֵׁ֣ם יְהוָ֔ה__יְהוָה לְעׇבְדֹ֖ו שְׁכֶ֥ם אֶחָֽד 
Tanakh.Prophets.Zephaniah.3.10
מֵעֵ֖בֶר לְנַֽהֲרֵי כ֑וּשׁ__כּוּשׁ עֲתָרַי֙ בַּת פּוּצַ֔י יֹובִל֖וּן מִנְחָתִֽי 
Tanakh.Prophets.Zephaniah.3.11
בַּיֹּ֣ום הַה֗וּא לֹ֤א תֵבֹ֨ושִׁי֙ מִכֹּ֣ל עֲלִילֹתַ֔יִךְ אֲשֶׁ֥ר פָּשַׁ֖עַתְּ בִּ֑י כִּי אָ֣ז אָסִ֣יר מִקִּרְבֵּ֗ךְ עַלִּיזֵי֙ גַּאֲוָתֵ֔ךְ וְלֹֽא תֹוסִ֧פִי לְגׇבְהָ֛ה עֹ֖וד בְּהַ֥ר קׇדְשִֽׁי 
Tanakh.Prophets.Zephaniah.3.12
וְהִשְׁאַרְתִּ֣י בְקִרְבֵּ֔ךְ עַ֥ם עָנִ֖י וָדָ֑ל וְחָס֖וּ בְּשֵׁ֥ם יְהוָֽה__יְהוָה 
Tanakh.Prophets.Zephaniah.3.13
שְׁאֵרִ֨ית יִשְׂרָאֵ֜ל__יִשְׂרָאֵל לֹֽא יַעֲשׂ֤וּ עַוְלָה֙ וְלֹא יְדַבְּר֣וּ כָזָ֔ב וְלֹֽא יִמָּצֵ֥א בְּפִיהֶ֖ם לְשֹׁ֣ון תַּרְמִ֑ית כִּֽי הֵ֛מָּה יִרְע֥וּ וְרָבְצ֖וּ וְאֵ֥ין מַחֲרִֽיד 
Tanakh.Prophets.Zephaniah.3.14
רׇנִּי֙ בַּת צִיֹּ֔ון__צִיֹּון הָרִ֖יעוּ יִשְׂרָאֵ֑ל__יִשְׂרָאֵל שִׂמְחִ֤י וְעׇלְזִי֙ בְּכׇל לֵ֔ב בַּ֖ת יְרוּשָׁלִָֽם__יְרוּשָׁלִַם 
Tanakh.Prophets.Zephaniah.3.15
הֵסִ֤יר יְהוָה֙__יְהוָה מִשְׁפָּטַ֔יִךְ פִּנָּ֖ה אֹֽיְבֵ֑ךְ מֶ֣לֶךְ יִשְׂרָאֵ֤ל__יִשְׂרָאֵל יְהוָה֙__יְהוָה בְּקִרְבֵּ֔ךְ לֹא תִֽירְאִ֥י רָ֖ע עֹֽוד 
Tanakh.Prophets.Zephaniah.3.16
בַּיֹּ֣ום הַה֔וּא יֵאָמֵ֥ר לִירֽוּשָׁלִַ֖ם__יְרוּשָׁלִַם אַל תִּירָ֑אִי צִיֹּ֖ון__צִיֹּון אַל יִרְפּ֥וּ יָדָֽיִךְ 
Tanakh.Prophets.Zephaniah.3.17
יְהוָ֧ה__יְהוָה אֱלֹהַ֛יִךְ בְּקִרְבֵּ֖ךְ גִּבֹּ֣ור יֹושִׁ֑יעַ יָשִׂ֨ישׂ עָלַ֜יִךְ בְּשִׂמְחָ֗ה יַחֲרִישׁ֙ בְּאַ֣הֲבָתֹ֔ו יָגִ֥יל עָלַ֖יִךְ בְּרִנָּֽה 
Tanakh.Prophets.Zephaniah.3.18
נוּגֵ֧י מִמֹּועֵ֛ד אָסַ֖פְתִּי מִמֵּ֣ךְ הָי֑וּ מַשְׂאֵ֥ת עָלֶ֖יהָ חֶרְפָּֽה 
Tanakh.Prophets.Zephaniah.3.19
הִנְנִ֥י עֹשֶׂ֛ה אֶת כׇּל מְעַנַּ֖יִךְ בָּעֵ֣ת הַהִ֑יא וְהֹושַׁעְתִּ֣י אֶת הַצֹּלֵעָ֗ה וְהַנִּדָּחָה֙ אֲקַבֵּ֔ץ וְשַׂמְתִּים֙ לִתְהִלָּ֣ה וּלְשֵׁ֔ם בְּכׇל הָאָ֖רֶץ בׇּשְׁתָּֽם 
Tanakh.Prophets.Zephaniah.3.20
בָּעֵ֤ת הַהִיא֙ אָבִ֣יא אֶתְכֶ֔ם וּבָעֵ֖ת קַבְּצִ֣י אֶתְכֶ֑ם כִּֽי אֶתֵּ֨ן אֶתְכֶ֜ם לְשֵׁ֣ם וְלִתְהִלָּ֗ה בְּכֹל֙ עַמֵּ֣י הָאָ֔רֶץ בְּשׁוּבִ֧י אֶת שְׁבוּתֵיכֶ֛ם לְעֵינֵיכֶ֖ם אָמַ֥ר יְהוָֽה__יְהוָה 